^C:\USERS\ADMINISTRATOR\DOCUMENTS\_POSTAL_SOURCE\BUILD\BLUE\DEBUG\BDEBUG.OBJ|C:\USERS\ADMINISTRATOR\DOCUMENTS\_POSTAL_SOURCE\BUILD\BLUE\DEBUG\BDISP.OBJ|C:\USERS\ADMINISTRATOR\DOCUMENTS\_POSTAL_SOURCE\BUILD\BLUE\DEBUG\BJOY.OBJ|C:\USERS\ADMINISTRATOR\DOCUMENTS\_POSTAL_SOURCE\BUILD\BLUE\DEBUG\BKEY.OBJ|C:\USERS\ADMINISTRATOR\DOCUMENTS\_POSTAL_SOURCE\BUILD\BLUE\DEBUG\BMAIN.OBJ|C:\USERS\ADMINISTRATOR\DOCUMENTS\_POSTAL_SOURCE\BUILD\BLUE\DEBUG\BMOUSE.OBJ|C:\USERS\ADMINISTRATOR\DOCUMENTS\_POSTAL_SOURCE\BUILD\BLUE\DEBUG\BSOUND.OBJ|C:\USERS\ADMINISTRATOR\DOCUMENTS\_POSTAL_SOURCE\BUILD\BLUE\DEBUG\BTIME.OBJ
C:\WINDOWS\GLOBALIZATION\SORTING\SORTDEFAULT.NLS
C:\USERS\ADMINISTRATOR\DOCUMENTS\_POSTAL_SOURCE\BUILD\BLUE\DEBUG\BDEBUG.OBJ
C:\WINDOWS\SYSTEM32\TZRES.DLL
C:\USERS\ADMINISTRATOR\DOCUMENTS\_POSTAL_SOURCE\BUILD\BLUE\DEBUG\BDISP.OBJ
C:\USERS\ADMINISTRATOR\DOCUMENTS\_POSTAL_SOURCE\BUILD\BLUE\DEBUG\BJOY.OBJ
C:\USERS\ADMINISTRATOR\DOCUMENTS\_POSTAL_SOURCE\BUILD\BLUE\DEBUG\BKEY.OBJ
C:\USERS\ADMINISTRATOR\DOCUMENTS\_POSTAL_SOURCE\BUILD\BLUE\DEBUG\BMAIN.OBJ
C:\USERS\ADMINISTRATOR\DOCUMENTS\_POSTAL_SOURCE\BUILD\BLUE\DEBUG\BMOUSE.OBJ
C:\USERS\ADMINISTRATOR\DOCUMENTS\_POSTAL_SOURCE\BUILD\BLUE\DEBUG\BSOUND.OBJ
C:\USERS\ADMINISTRATOR\DOCUMENTS\_POSTAL_SOURCE\BUILD\BLUE\DEBUG\BTIME.OBJ
