^C:\USERS\ADMINISTRATOR\DOCUMENTS\_POSTAL_SOURCE\SETTINGS.CPP
/c /I.\SDL2\INCLUDE /I.\RSPIX\SRC /I.\RSPIX\SRC\BLUE /I.\RSPIX\INC /I. /Z7 /nologo /W3 /WX- /Od /Oy- /D WIN32 /D _DEBUG /D NOSHMALLOC /D _WINDOWS /D TRACENASSERT /D WITH_STEAMWORKS=0 /D ALLOW_TWINSTICK /D DEBUG_LEVEL_CHEAT /D RSP_DEBUG_OUT_FILE /D "RSP_TRACE_LOG_NAME=\"Postal Plus.log\"" /D _VC80_UPGRADE=0x0710 /D _USING_V110_SDK71_ /Gm- /EHsc /MTd /GS /fp:precise /Zc:wchar_t /Zc:forScope /Zc:inline /Fo".\BUILD\POSTAL COMMON\DEBUG/" /Fd".\BUILD\POSTAL COMMON\DEBUG/POSTAL COMMON.PDB" /FR".\Build\Postal Common\Debug\\" /Gd /TP /analyze- C:\USERS\ADMINISTRATOR\DOCUMENTS\_POSTAL_SOURCE\SETTINGS.CPP
^C:\USERS\ADMINISTRATOR\DOCUMENTS\_POSTAL_SOURCE\YATIME.CPP
/c /I.\SDL2\INCLUDE /I.\RSPIX\SRC /I.\RSPIX\SRC\BLUE /I.\RSPIX\INC /I. /Z7 /nologo /W3 /WX- /Od /Oy- /D WIN32 /D _DEBUG /D NOSHMALLOC /D _WINDOWS /D TRACENASSERT /D WITH_STEAMWORKS=0 /D ALLOW_TWINSTICK /D DEBUG_LEVEL_CHEAT /D RSP_DEBUG_OUT_FILE /D "RSP_TRACE_LOG_NAME=\"Postal Plus.log\"" /D _VC80_UPGRADE=0x0710 /D _USING_V110_SDK71_ /Gm- /EHsc /MTd /GS /fp:precise /Zc:wchar_t /Zc:forScope /Zc:inline /Fo".\BUILD\POSTAL COMMON\DEBUG/" /Fd".\BUILD\POSTAL COMMON\DEBUG/POSTAL COMMON.PDB" /FR".\Build\Postal Common\Debug\\" /Gd /TP /analyze- C:\USERS\ADMINISTRATOR\DOCUMENTS\_POSTAL_SOURCE\YATIME.CPP
^C:\USERS\ADMINISTRATOR\DOCUMENTS\_POSTAL_SOURCE\ALPHABLITFORPOSTAL.CPP
/c /I.\SDL2\INCLUDE /I.\RSPIX\SRC /I.\RSPIX\SRC\BLUE /I.\RSPIX\INC /I. /Z7 /nologo /W3 /WX- /Od /Oy- /D WIN32 /D _DEBUG /D NOSHMALLOC /D _WINDOWS /D TRACENASSERT /D WITH_STEAMWORKS=0 /D ALLOW_TWINSTICK /D DEBUG_LEVEL_CHEAT /D RSP_DEBUG_OUT_FILE /D "RSP_TRACE_LOG_NAME=\"Postal Plus.log\"" /D _VC80_UPGRADE=0x0710 /D _USING_V110_SDK71_ /Gm- /EHsc /MTd /GS /fp:precise /Zc:wchar_t /Zc:forScope /Zc:inline /Yc"RSPiX.H" /Fp".\BUILD\POSTAL COMMON\DEBUG/POSTAL COMMON.PCH" /Fo".\BUILD\POSTAL COMMON\DEBUG/" /Fd".\BUILD\POSTAL COMMON\DEBUG/POSTAL COMMON.PDB" /FR".\Build\Postal Common\Debug\\" /Gd /TP /analyze- C:\USERS\ADMINISTRATOR\DOCUMENTS\_POSTAL_SOURCE\ALPHABLITFORPOSTAL.CPP
^C:\USERS\ADMINISTRATOR\DOCUMENTS\_POSTAL_SOURCE\ANIM3D.CPP
/c /I.\SDL2\INCLUDE /I.\RSPIX\SRC /I.\RSPIX\SRC\BLUE /I.\RSPIX\INC /I. /Z7 /nologo /W3 /WX- /Od /Oy- /D WIN32 /D _DEBUG /D NOSHMALLOC /D _WINDOWS /D TRACENASSERT /D WITH_STEAMWORKS=0 /D ALLOW_TWINSTICK /D DEBUG_LEVEL_CHEAT /D RSP_DEBUG_OUT_FILE /D "RSP_TRACE_LOG_NAME=\"Postal Plus.log\"" /D _VC80_UPGRADE=0x0710 /D _USING_V110_SDK71_ /Gm- /EHsc /MTd /GS /fp:precise /Zc:wchar_t /Zc:forScope /Zc:inline /Yu"RSPiX.H" /Fp".\BUILD\POSTAL COMMON\DEBUG/POSTAL COMMON.PCH" /Fo".\BUILD\POSTAL COMMON\DEBUG/" /Fd".\BUILD\POSTAL COMMON\DEBUG/POSTAL COMMON.PDB" /FR".\Build\Postal Common\Debug\\" /Gd /TP /analyze- C:\USERS\ADMINISTRATOR\DOCUMENTS\_POSTAL_SOURCE\ANIM3D.CPP
^C:\USERS\ADMINISTRATOR\DOCUMENTS\_POSTAL_SOURCE\ANIMTHING.CPP
/c /I.\SDL2\INCLUDE /I.\RSPIX\SRC /I.\RSPIX\SRC\BLUE /I.\RSPIX\INC /I. /Z7 /nologo /W3 /WX- /Od /Oy- /D WIN32 /D _DEBUG /D NOSHMALLOC /D _WINDOWS /D TRACENASSERT /D WITH_STEAMWORKS=0 /D ALLOW_TWINSTICK /D DEBUG_LEVEL_CHEAT /D RSP_DEBUG_OUT_FILE /D "RSP_TRACE_LOG_NAME=\"Postal Plus.log\"" /D _VC80_UPGRADE=0x0710 /D _USING_V110_SDK71_ /Gm- /EHsc /MTd /GS /fp:precise /Zc:wchar_t /Zc:forScope /Zc:inline /Yu"RSPiX.H" /Fp".\BUILD\POSTAL COMMON\DEBUG/POSTAL COMMON.PCH" /Fo".\BUILD\POSTAL COMMON\DEBUG/" /Fd".\BUILD\POSTAL COMMON\DEBUG/POSTAL COMMON.PDB" /FR".\Build\Postal Common\Debug\\" /Gd /TP /analyze- C:\USERS\ADMINISTRATOR\DOCUMENTS\_POSTAL_SOURCE\ANIMTHING.CPP
^C:\USERS\ADMINISTRATOR\DOCUMENTS\_POSTAL_SOURCE\BUFQ.CPP
/c /I.\SDL2\INCLUDE /I.\RSPIX\SRC /I.\RSPIX\SRC\BLUE /I.\RSPIX\INC /I. /Z7 /nologo /W3 /WX- /Od /Oy- /D WIN32 /D _DEBUG /D NOSHMALLOC /D _WINDOWS /D TRACENASSERT /D WITH_STEAMWORKS=0 /D ALLOW_TWINSTICK /D DEBUG_LEVEL_CHEAT /D RSP_DEBUG_OUT_FILE /D "RSP_TRACE_LOG_NAME=\"Postal Plus.log\"" /D _VC80_UPGRADE=0x0710 /D _USING_V110_SDK71_ /Gm- /EHsc /MTd /GS /fp:precise /Zc:wchar_t /Zc:forScope /Zc:inline /Yu"RSPiX.H" /Fp".\BUILD\POSTAL COMMON\DEBUG/POSTAL COMMON.PCH" /Fo".\BUILD\POSTAL COMMON\DEBUG/" /Fd".\BUILD\POSTAL COMMON\DEBUG/POSTAL COMMON.PDB" /FR".\Build\Postal Common\Debug\\" /Gd /TP /analyze- C:\USERS\ADMINISTRATOR\DOCUMENTS\_POSTAL_SOURCE\BUFQ.CPP
^C:\USERS\ADMINISTRATOR\DOCUMENTS\_POSTAL_SOURCE\GAMESETTINGS.CPP
/c /I.\SDL2\INCLUDE /I.\RSPIX\SRC /I.\RSPIX\SRC\BLUE /I.\RSPIX\INC /I. /Z7 /nologo /W3 /WX- /Od /Oy- /D WIN32 /D _DEBUG /D NOSHMALLOC /D _WINDOWS /D TRACENASSERT /D WITH_STEAMWORKS=0 /D ALLOW_TWINSTICK /D DEBUG_LEVEL_CHEAT /D RSP_DEBUG_OUT_FILE /D "RSP_TRACE_LOG_NAME=\"Postal Plus.log\"" /D _VC80_UPGRADE=0x0710 /D _USING_V110_SDK71_ /Gm- /EHsc /MTd /GS /fp:precise /Zc:wchar_t /Zc:forScope /Zc:inline /Yu"RSPiX.H" /Fp".\BUILD\POSTAL COMMON\DEBUG/POSTAL COMMON.PCH" /Fo".\BUILD\POSTAL COMMON\DEBUG/" /Fd".\BUILD\POSTAL COMMON\DEBUG/POSTAL COMMON.PDB" /FR".\Build\Postal Common\Debug\\" /Gd /TP /analyze- C:\USERS\ADMINISTRATOR\DOCUMENTS\_POSTAL_SOURCE\GAMESETTINGS.CPP
^C:\USERS\ADMINISTRATOR\DOCUMENTS\_POSTAL_SOURCE\IDBANK.CPP
/c /I.\SDL2\INCLUDE /I.\RSPIX\SRC /I.\RSPIX\SRC\BLUE /I.\RSPIX\INC /I. /Z7 /nologo /W3 /WX- /Od /Oy- /D WIN32 /D _DEBUG /D NOSHMALLOC /D _WINDOWS /D TRACENASSERT /D WITH_STEAMWORKS=0 /D ALLOW_TWINSTICK /D DEBUG_LEVEL_CHEAT /D RSP_DEBUG_OUT_FILE /D "RSP_TRACE_LOG_NAME=\"Postal Plus.log\"" /D _VC80_UPGRADE=0x0710 /D _USING_V110_SDK71_ /Gm- /EHsc /MTd /GS /fp:precise /Zc:wchar_t /Zc:forScope /Zc:inline /Yu"RSPiX.H" /Fp".\BUILD\POSTAL COMMON\DEBUG/POSTAL COMMON.PCH" /Fo".\BUILD\POSTAL COMMON\DEBUG/" /Fd".\BUILD\POSTAL COMMON\DEBUG/POSTAL COMMON.PDB" /FR".\Build\Postal Common\Debug\\" /Gd /TP /analyze- C:\USERS\ADMINISTRATOR\DOCUMENTS\_POSTAL_SOURCE\IDBANK.CPP
^C:\USERS\ADMINISTRATOR\DOCUMENTS\_POSTAL_SOURCE\INPUTSETTINGS.CPP
/c /I.\SDL2\INCLUDE /I.\RSPIX\SRC /I.\RSPIX\SRC\BLUE /I.\RSPIX\INC /I. /Z7 /nologo /W3 /WX- /Od /Oy- /D WIN32 /D _DEBUG /D NOSHMALLOC /D _WINDOWS /D TRACENASSERT /D WITH_STEAMWORKS=0 /D ALLOW_TWINSTICK /D DEBUG_LEVEL_CHEAT /D RSP_DEBUG_OUT_FILE /D "RSP_TRACE_LOG_NAME=\"Postal Plus.log\"" /D _VC80_UPGRADE=0x0710 /D _USING_V110_SDK71_ /Gm- /EHsc /MTd /GS /fp:precise /Zc:wchar_t /Zc:forScope /Zc:inline /Yu"RSPiX.H" /Fp".\BUILD\POSTAL COMMON\DEBUG/POSTAL COMMON.PCH" /Fo".\BUILD\POSTAL COMMON\DEBUG/" /Fd".\BUILD\POSTAL COMMON\DEBUG/POSTAL COMMON.PDB" /FR".\Build\Postal Common\Debug\\" /Gd /TP /analyze- C:\USERS\ADMINISTRATOR\DOCUMENTS\_POSTAL_SOURCE\INPUTSETTINGS.CPP
^C:\USERS\ADMINISTRATOR\DOCUMENTS\_POSTAL_SOURCE\LOG.CPP
/c /I.\SDL2\INCLUDE /I.\RSPIX\SRC /I.\RSPIX\SRC\BLUE /I.\RSPIX\INC /I. /Z7 /nologo /W3 /WX- /Od /Oy- /D WIN32 /D _DEBUG /D NOSHMALLOC /D _WINDOWS /D TRACENASSERT /D WITH_STEAMWORKS=0 /D ALLOW_TWINSTICK /D DEBUG_LEVEL_CHEAT /D RSP_DEBUG_OUT_FILE /D "RSP_TRACE_LOG_NAME=\"Postal Plus.log\"" /D _VC80_UPGRADE=0x0710 /D _USING_V110_SDK71_ /Gm- /EHsc /MTd /GS /fp:precise /Zc:wchar_t /Zc:forScope /Zc:inline /Yu"RSPiX.H" /Fp".\BUILD\POSTAL COMMON\DEBUG/POSTAL COMMON.PCH" /Fo".\BUILD\POSTAL COMMON\DEBUG/" /Fd".\BUILD\POSTAL COMMON\DEBUG/POSTAL COMMON.PDB" /FR".\Build\Postal Common\Debug\\" /Gd /TP /analyze- C:\USERS\ADMINISTRATOR\DOCUMENTS\_POSTAL_SOURCE\LOG.CPP
^C:\USERS\ADMINISTRATOR\DOCUMENTS\_POSTAL_SOURCE\MENUSETTINGS.CPP
/c /I.\SDL2\INCLUDE /I.\RSPIX\SRC /I.\RSPIX\SRC\BLUE /I.\RSPIX\INC /I. /Z7 /nologo /W3 /WX- /Od /Oy- /D WIN32 /D _DEBUG /D NOSHMALLOC /D _WINDOWS /D TRACENASSERT /D WITH_STEAMWORKS=0 /D ALLOW_TWINSTICK /D DEBUG_LEVEL_CHEAT /D RSP_DEBUG_OUT_FILE /D "RSP_TRACE_LOG_NAME=\"Postal Plus.log\"" /D _VC80_UPGRADE=0x0710 /D _USING_V110_SDK71_ /Gm- /EHsc /MTd /GS /fp:precise /Zc:wchar_t /Zc:forScope /Zc:inline /Yu"RSPiX.H" /Fp".\BUILD\POSTAL COMMON\DEBUG/POSTAL COMMON.PCH" /Fo".\BUILD\POSTAL COMMON\DEBUG/" /Fd".\BUILD\POSTAL COMMON\DEBUG/POSTAL COMMON.PDB" /FR".\Build\Postal Common\Debug\\" /Gd /TP /analyze- C:\USERS\ADMINISTRATOR\DOCUMENTS\_POSTAL_SOURCE\MENUSETTINGS.CPP
^C:\USERS\ADMINISTRATOR\DOCUMENTS\_POSTAL_SOURCE\NETBROWSE.CPP
/c /I.\SDL2\INCLUDE /I.\RSPIX\SRC /I.\RSPIX\SRC\BLUE /I.\RSPIX\INC /I. /Z7 /nologo /W3 /WX- /Od /Oy- /D WIN32 /D _DEBUG /D NOSHMALLOC /D _WINDOWS /D TRACENASSERT /D WITH_STEAMWORKS=0 /D ALLOW_TWINSTICK /D DEBUG_LEVEL_CHEAT /D RSP_DEBUG_OUT_FILE /D "RSP_TRACE_LOG_NAME=\"Postal Plus.log\"" /D _VC80_UPGRADE=0x0710 /D _USING_V110_SDK71_ /Gm- /EHsc /MTd /GS /fp:precise /Zc:wchar_t /Zc:forScope /Zc:inline /Yu"RSPiX.H" /Fp".\BUILD\POSTAL COMMON\DEBUG/POSTAL COMMON.PCH" /Fo".\BUILD\POSTAL COMMON\DEBUG/" /Fd".\BUILD\POSTAL COMMON\DEBUG/POSTAL COMMON.PDB" /FR".\Build\Postal Common\Debug\\" /Gd /TP /analyze- C:\USERS\ADMINISTRATOR\DOCUMENTS\_POSTAL_SOURCE\NETBROWSE.CPP
^C:\USERS\ADMINISTRATOR\DOCUMENTS\_POSTAL_SOURCE\NETCLIENT.CPP
/c /I.\SDL2\INCLUDE /I.\RSPIX\SRC /I.\RSPIX\SRC\BLUE /I.\RSPIX\INC /I. /Z7 /nologo /W3 /WX- /Od /Oy- /D WIN32 /D _DEBUG /D NOSHMALLOC /D _WINDOWS /D TRACENASSERT /D WITH_STEAMWORKS=0 /D ALLOW_TWINSTICK /D DEBUG_LEVEL_CHEAT /D RSP_DEBUG_OUT_FILE /D "RSP_TRACE_LOG_NAME=\"Postal Plus.log\"" /D _VC80_UPGRADE=0x0710 /D _USING_V110_SDK71_ /Gm- /EHsc /MTd /GS /fp:precise /Zc:wchar_t /Zc:forScope /Zc:inline /Yu"RSPiX.H" /Fp".\BUILD\POSTAL COMMON\DEBUG/POSTAL COMMON.PCH" /Fo".\BUILD\POSTAL COMMON\DEBUG/" /Fd".\BUILD\POSTAL COMMON\DEBUG/POSTAL COMMON.PDB" /FR".\Build\Postal Common\Debug\\" /Gd /TP /analyze- C:\USERS\ADMINISTRATOR\DOCUMENTS\_POSTAL_SOURCE\NETCLIENT.CPP
^C:\USERS\ADMINISTRATOR\DOCUMENTS\_POSTAL_SOURCE\NETSERVER.CPP
/c /I.\SDL2\INCLUDE /I.\RSPIX\SRC /I.\RSPIX\SRC\BLUE /I.\RSPIX\INC /I. /Z7 /nologo /W3 /WX- /Od /Oy- /D WIN32 /D _DEBUG /D NOSHMALLOC /D _WINDOWS /D TRACENASSERT /D WITH_STEAMWORKS=0 /D ALLOW_TWINSTICK /D DEBUG_LEVEL_CHEAT /D RSP_DEBUG_OUT_FILE /D "RSP_TRACE_LOG_NAME=\"Postal Plus.log\"" /D _VC80_UPGRADE=0x0710 /D _USING_V110_SDK71_ /Gm- /EHsc /MTd /GS /fp:precise /Zc:wchar_t /Zc:forScope /Zc:inline /Yu"RSPiX.H" /Fp".\BUILD\POSTAL COMMON\DEBUG/POSTAL COMMON.PCH" /Fo".\BUILD\POSTAL COMMON\DEBUG/" /Fd".\BUILD\POSTAL COMMON\DEBUG/POSTAL COMMON.PDB" /FR".\Build\Postal Common\Debug\\" /Gd /TP /analyze- C:\USERS\ADMINISTRATOR\DOCUMENTS\_POSTAL_SOURCE\NETSERVER.CPP
^C:\USERS\ADMINISTRATOR\DOCUMENTS\_POSTAL_SOURCE\PERSONATORIUM.CPP
/c /I.\SDL2\INCLUDE /I.\RSPIX\SRC /I.\RSPIX\SRC\BLUE /I.\RSPIX\INC /I. /Z7 /nologo /W3 /WX- /Od /Oy- /D WIN32 /D _DEBUG /D NOSHMALLOC /D _WINDOWS /D TRACENASSERT /D WITH_STEAMWORKS=0 /D ALLOW_TWINSTICK /D DEBUG_LEVEL_CHEAT /D RSP_DEBUG_OUT_FILE /D "RSP_TRACE_LOG_NAME=\"Postal Plus.log\"" /D _VC80_UPGRADE=0x0710 /D _USING_V110_SDK71_ /Gm- /EHsc /MTd /GS /fp:precise /Zc:wchar_t /Zc:forScope /Zc:inline /Yu"RSPiX.H" /Fp".\BUILD\POSTAL COMMON\DEBUG/POSTAL COMMON.PCH" /Fo".\BUILD\POSTAL COMMON\DEBUG/" /Fd".\BUILD\POSTAL COMMON\DEBUG/POSTAL COMMON.PDB" /FR".\Build\Postal Common\Debug\\" /Gd /TP /analyze- C:\USERS\ADMINISTRATOR\DOCUMENTS\_POSTAL_SOURCE\PERSONATORIUM.CPP
^C:\USERS\ADMINISTRATOR\DOCUMENTS\_POSTAL_SOURCE\POWERUP.CPP
/c /I.\SDL2\INCLUDE /I.\RSPIX\SRC /I.\RSPIX\SRC\BLUE /I.\RSPIX\INC /I. /Z7 /nologo /W3 /WX- /Od /Oy- /D WIN32 /D _DEBUG /D NOSHMALLOC /D _WINDOWS /D TRACENASSERT /D WITH_STEAMWORKS=0 /D ALLOW_TWINSTICK /D DEBUG_LEVEL_CHEAT /D RSP_DEBUG_OUT_FILE /D "RSP_TRACE_LOG_NAME=\"Postal Plus.log\"" /D _VC80_UPGRADE=0x0710 /D _USING_V110_SDK71_ /Gm- /EHsc /MTd /GS /fp:precise /Zc:wchar_t /Zc:forScope /Zc:inline /Yu"RSPiX.H" /Fp".\BUILD\POSTAL COMMON\DEBUG/POSTAL COMMON.PCH" /Fo".\BUILD\POSTAL COMMON\DEBUG/" /Fd".\BUILD\POSTAL COMMON\DEBUG/POSTAL COMMON.PDB" /FR".\Build\Postal Common\Debug\\" /Gd /TP /analyze- C:\USERS\ADMINISTRATOR\DOCUMENTS\_POSTAL_SOURCE\POWERUP.CPP
^C:\USERS\ADMINISTRATOR\DOCUMENTS\_POSTAL_SOURCE\PROTOBSDIP.CPP
/c /I.\SDL2\INCLUDE /I.\RSPIX\SRC /I.\RSPIX\SRC\BLUE /I.\RSPIX\INC /I. /Z7 /nologo /W3 /WX- /Od /Oy- /D WIN32 /D _DEBUG /D NOSHMALLOC /D _WINDOWS /D TRACENASSERT /D WITH_STEAMWORKS=0 /D ALLOW_TWINSTICK /D DEBUG_LEVEL_CHEAT /D RSP_DEBUG_OUT_FILE /D "RSP_TRACE_LOG_NAME=\"Postal Plus.log\"" /D _VC80_UPGRADE=0x0710 /D _USING_V110_SDK71_ /Gm- /EHsc /MTd /GS /fp:precise /Zc:wchar_t /Zc:forScope /Zc:inline /Yu"RSPiX.H" /Fp".\BUILD\POSTAL COMMON\DEBUG/POSTAL COMMON.PCH" /Fo".\BUILD\POSTAL COMMON\DEBUG/" /Fd".\BUILD\POSTAL COMMON\DEBUG/POSTAL COMMON.PDB" /FR".\Build\Postal Common\Debug\\" /Gd /TP /analyze- C:\USERS\ADMINISTRATOR\DOCUMENTS\_POSTAL_SOURCE\PROTOBSDIP.CPP
^C:\USERS\ADMINISTRATOR\DOCUMENTS\_POSTAL_SOURCE\SNDRELAY.CPP
/c /I.\SDL2\INCLUDE /I.\RSPIX\SRC /I.\RSPIX\SRC\BLUE /I.\RSPIX\INC /I. /Z7 /nologo /W3 /WX- /Od /Oy- /D WIN32 /D _DEBUG /D NOSHMALLOC /D _WINDOWS /D TRACENASSERT /D WITH_STEAMWORKS=0 /D ALLOW_TWINSTICK /D DEBUG_LEVEL_CHEAT /D RSP_DEBUG_OUT_FILE /D "RSP_TRACE_LOG_NAME=\"Postal Plus.log\"" /D _VC80_UPGRADE=0x0710 /D _USING_V110_SDK71_ /Gm- /EHsc /MTd /GS /fp:precise /Zc:wchar_t /Zc:forScope /Zc:inline /Yu"RSPiX.H" /Fp".\BUILD\POSTAL COMMON\DEBUG/POSTAL COMMON.PCH" /Fo".\BUILD\POSTAL COMMON\DEBUG/" /Fd".\BUILD\POSTAL COMMON\DEBUG/POSTAL COMMON.PDB" /FR".\Build\Postal Common\Debug\\" /Gd /TP /analyze- C:\USERS\ADMINISTRATOR\DOCUMENTS\_POSTAL_SOURCE\SNDRELAY.CPP
^C:\USERS\ADMINISTRATOR\DOCUMENTS\_POSTAL_SOURCE\SOUNDTHING.CPP
/c /I.\SDL2\INCLUDE /I.\RSPIX\SRC /I.\RSPIX\SRC\BLUE /I.\RSPIX\INC /I. /Z7 /nologo /W3 /WX- /Od /Oy- /D WIN32 /D _DEBUG /D NOSHMALLOC /D _WINDOWS /D TRACENASSERT /D WITH_STEAMWORKS=0 /D ALLOW_TWINSTICK /D DEBUG_LEVEL_CHEAT /D RSP_DEBUG_OUT_FILE /D "RSP_TRACE_LOG_NAME=\"Postal Plus.log\"" /D _VC80_UPGRADE=0x0710 /D _USING_V110_SDK71_ /Gm- /EHsc /MTd /GS /fp:precise /Zc:wchar_t /Zc:forScope /Zc:inline /Yu"RSPiX.H" /Fp".\BUILD\POSTAL COMMON\DEBUG/POSTAL COMMON.PCH" /Fo".\BUILD\POSTAL COMMON\DEBUG/" /Fd".\BUILD\POSTAL COMMON\DEBUG/POSTAL COMMON.PDB" /FR".\Build\Postal Common\Debug\\" /Gd /TP /analyze- C:\USERS\ADMINISTRATOR\DOCUMENTS\_POSTAL_SOURCE\SOUNDTHING.CPP
^C:\USERS\ADMINISTRATOR\DOCUMENTS\_POSTAL_SOURCE\STOCKPILE.CPP
/c /I.\SDL2\INCLUDE /I.\RSPIX\SRC /I.\RSPIX\SRC\BLUE /I.\RSPIX\INC /I. /Z7 /nologo /W3 /WX- /Od /Oy- /D WIN32 /D _DEBUG /D NOSHMALLOC /D _WINDOWS /D TRACENASSERT /D WITH_STEAMWORKS=0 /D ALLOW_TWINSTICK /D DEBUG_LEVEL_CHEAT /D RSP_DEBUG_OUT_FILE /D "RSP_TRACE_LOG_NAME=\"Postal Plus.log\"" /D _VC80_UPGRADE=0x0710 /D _USING_V110_SDK71_ /Gm- /EHsc /MTd /GS /fp:precise /Zc:wchar_t /Zc:forScope /Zc:inline /Yu"RSPiX.H" /Fp".\BUILD\POSTAL COMMON\DEBUG/POSTAL COMMON.PCH" /Fo".\BUILD\POSTAL COMMON\DEBUG/" /Fd".\BUILD\POSTAL COMMON\DEBUG/POSTAL COMMON.PDB" /FR".\Build\Postal Common\Debug\\" /Gd /TP /analyze- C:\USERS\ADMINISTRATOR\DOCUMENTS\_POSTAL_SOURCE\STOCKPILE.CPP
^C:\USERS\ADMINISTRATOR\DOCUMENTS\_POSTAL_SOURCE\TEXEDIT.CPP
/c /I.\SDL2\INCLUDE /I.\RSPIX\SRC /I.\RSPIX\SRC\BLUE /I.\RSPIX\INC /I. /Z7 /nologo /W3 /WX- /Od /Oy- /D WIN32 /D _DEBUG /D NOSHMALLOC /D _WINDOWS /D TRACENASSERT /D WITH_STEAMWORKS=0 /D ALLOW_TWINSTICK /D DEBUG_LEVEL_CHEAT /D RSP_DEBUG_OUT_FILE /D "RSP_TRACE_LOG_NAME=\"Postal Plus.log\"" /D _VC80_UPGRADE=0x0710 /D _USING_V110_SDK71_ /Gm- /EHsc /MTd /GS /fp:precise /Zc:wchar_t /Zc:forScope /Zc:inline /Yu"RSPiX.H" /Fp".\BUILD\POSTAL COMMON\DEBUG/POSTAL COMMON.PCH" /Fo".\BUILD\POSTAL COMMON\DEBUG/" /Fd".\BUILD\POSTAL COMMON\DEBUG/POSTAL COMMON.PDB" /FR".\Build\Postal Common\Debug\\" /Gd /TP /analyze- C:\USERS\ADMINISTRATOR\DOCUMENTS\_POSTAL_SOURCE\TEXEDIT.CPP
^C:\USERS\ADMINISTRATOR\DOCUMENTS\_POSTAL_SOURCE\THING3D.CPP
/c /I.\SDL2\INCLUDE /I.\RSPIX\SRC /I.\RSPIX\SRC\BLUE /I.\RSPIX\INC /I. /Z7 /nologo /W3 /WX- /Od /Oy- /D WIN32 /D _DEBUG /D NOSHMALLOC /D _WINDOWS /D TRACENASSERT /D WITH_STEAMWORKS=0 /D ALLOW_TWINSTICK /D DEBUG_LEVEL_CHEAT /D RSP_DEBUG_OUT_FILE /D "RSP_TRACE_LOG_NAME=\"Postal Plus.log\"" /D _VC80_UPGRADE=0x0710 /D _USING_V110_SDK71_ /Gm- /EHsc /MTd /GS /fp:precise /Zc:wchar_t /Zc:forScope /Zc:inline /Yu"RSPiX.H" /Fp".\BUILD\POSTAL COMMON\DEBUG/POSTAL COMMON.PCH" /Fo".\BUILD\POSTAL COMMON\DEBUG/" /Fd".\BUILD\POSTAL COMMON\DEBUG/POSTAL COMMON.PDB" /FR".\Build\Postal Common\Debug\\" /Gd /TP /analyze- C:\USERS\ADMINISTRATOR\DOCUMENTS\_POSTAL_SOURCE\THING3D.CPP
^C:\USERS\ADMINISTRATOR\DOCUMENTS\_POSTAL_SOURCE\TRIGGERREGIONS.CPP
/c /I.\SDL2\INCLUDE /I.\RSPIX\SRC /I.\RSPIX\SRC\BLUE /I.\RSPIX\INC /I. /Z7 /nologo /W3 /WX- /Od /Oy- /D WIN32 /D _DEBUG /D NOSHMALLOC /D _WINDOWS /D TRACENASSERT /D WITH_STEAMWORKS=0 /D ALLOW_TWINSTICK /D DEBUG_LEVEL_CHEAT /D RSP_DEBUG_OUT_FILE /D "RSP_TRACE_LOG_NAME=\"Postal Plus.log\"" /D _VC80_UPGRADE=0x0710 /D _USING_V110_SDK71_ /Gm- /EHsc /MTd /GS /fp:precise /Zc:wchar_t /Zc:forScope /Zc:inline /Yu"RSPiX.H" /Fp".\BUILD\POSTAL COMMON\DEBUG/POSTAL COMMON.PCH" /Fo".\BUILD\POSTAL COMMON\DEBUG/" /Fd".\BUILD\POSTAL COMMON\DEBUG/POSTAL COMMON.PDB" /FR".\Build\Postal Common\Debug\\" /Gd /TP /analyze- C:\USERS\ADMINISTRATOR\DOCUMENTS\_POSTAL_SOURCE\TRIGGERREGIONS.CPP
^C:\USERS\ADMINISTRATOR\DOCUMENTS\_POSTAL_SOURCE\BALL.CPP
/c /I.\SDL2\INCLUDE /I.\RSPIX\SRC /I.\RSPIX\SRC\BLUE /I.\RSPIX\INC /I. /Z7 /nologo /W3 /WX- /Od /Oy- /D WIN32 /D _DEBUG /D NOSHMALLOC /D _WINDOWS /D TRACENASSERT /D WITH_STEAMWORKS=0 /D ALLOW_TWINSTICK /D DEBUG_LEVEL_CHEAT /D RSP_DEBUG_OUT_FILE /D "RSP_TRACE_LOG_NAME=\"Postal Plus.log\"" /D _VC80_UPGRADE=0x0710 /D _USING_V110_SDK71_ /Gm- /EHsc /MTd /GS /fp:precise /Zc:wchar_t /Zc:forScope /Zc:inline /Yu"RSPiX.H" /Fp".\BUILD\POSTAL COMMON\DEBUG/POSTAL COMMON.PCH" /Fo".\BUILD\POSTAL COMMON\DEBUG/" /Fd".\BUILD\POSTAL COMMON\DEBUG/POSTAL COMMON.PDB" /FR".\Build\Postal Common\Debug\\" /Gd /TP /analyze- C:\USERS\ADMINISTRATOR\DOCUMENTS\_POSTAL_SOURCE\BALL.CPP
^C:\USERS\ADMINISTRATOR\DOCUMENTS\_POSTAL_SOURCE\BOUY.CPP
/c /I.\SDL2\INCLUDE /I.\RSPIX\SRC /I.\RSPIX\SRC\BLUE /I.\RSPIX\INC /I. /Z7 /nologo /W3 /WX- /Od /Oy- /D WIN32 /D _DEBUG /D NOSHMALLOC /D _WINDOWS /D TRACENASSERT /D WITH_STEAMWORKS=0 /D ALLOW_TWINSTICK /D DEBUG_LEVEL_CHEAT /D RSP_DEBUG_OUT_FILE /D "RSP_TRACE_LOG_NAME=\"Postal Plus.log\"" /D _VC80_UPGRADE=0x0710 /D _USING_V110_SDK71_ /Gm- /EHsc /MTd /GS /fp:precise /Zc:wchar_t /Zc:forScope /Zc:inline /Yu"RSPiX.H" /Fp".\BUILD\POSTAL COMMON\DEBUG/POSTAL COMMON.PCH" /Fo".\BUILD\POSTAL COMMON\DEBUG/" /Fd".\BUILD\POSTAL COMMON\DEBUG/POSTAL COMMON.PDB" /FR".\Build\Postal Common\Debug\\" /Gd /TP /analyze- C:\USERS\ADMINISTRATOR\DOCUMENTS\_POSTAL_SOURCE\BOUY.CPP
^C:\USERS\ADMINISTRATOR\DOCUMENTS\_POSTAL_SOURCE\BULLETFEST.CPP
/c /I.\SDL2\INCLUDE /I.\RSPIX\SRC /I.\RSPIX\SRC\BLUE /I.\RSPIX\INC /I. /Z7 /nologo /W3 /WX- /Od /Oy- /D WIN32 /D _DEBUG /D NOSHMALLOC /D _WINDOWS /D TRACENASSERT /D WITH_STEAMWORKS=0 /D ALLOW_TWINSTICK /D DEBUG_LEVEL_CHEAT /D RSP_DEBUG_OUT_FILE /D "RSP_TRACE_LOG_NAME=\"Postal Plus.log\"" /D _VC80_UPGRADE=0x0710 /D _USING_V110_SDK71_ /Gm- /EHsc /MTd /GS /fp:precise /Zc:wchar_t /Zc:forScope /Zc:inline /Yu"RSPiX.H" /Fp".\BUILD\POSTAL COMMON\DEBUG/POSTAL COMMON.PCH" /Fo".\BUILD\POSTAL COMMON\DEBUG/" /Fd".\BUILD\POSTAL COMMON\DEBUG/POSTAL COMMON.PDB" /FR".\Build\Postal Common\Debug\\" /Gd /TP /analyze- C:\USERS\ADMINISTRATOR\DOCUMENTS\_POSTAL_SOURCE\BULLETFEST.CPP
^C:\USERS\ADMINISTRATOR\DOCUMENTS\_POSTAL_SOURCE\CAMERA.CPP
/c /I.\SDL2\INCLUDE /I.\RSPIX\SRC /I.\RSPIX\SRC\BLUE /I.\RSPIX\INC /I. /Z7 /nologo /W3 /WX- /Od /Oy- /D WIN32 /D _DEBUG /D NOSHMALLOC /D _WINDOWS /D TRACENASSERT /D WITH_STEAMWORKS=0 /D ALLOW_TWINSTICK /D DEBUG_LEVEL_CHEAT /D RSP_DEBUG_OUT_FILE /D "RSP_TRACE_LOG_NAME=\"Postal Plus.log\"" /D _VC80_UPGRADE=0x0710 /D _USING_V110_SDK71_ /Gm- /EHsc /MTd /GS /fp:precise /Zc:wchar_t /Zc:forScope /Zc:inline /Yu"RSPiX.H" /Fp".\BUILD\POSTAL COMMON\DEBUG/POSTAL COMMON.PCH" /Fo".\BUILD\POSTAL COMMON\DEBUG/" /Fd".\BUILD\POSTAL COMMON\DEBUG/POSTAL COMMON.PDB" /FR".\Build\Postal Common\Debug\\" /Gd /TP /analyze- C:\USERS\ADMINISTRATOR\DOCUMENTS\_POSTAL_SOURCE\CAMERA.CPP
^C:\USERS\ADMINISTRATOR\DOCUMENTS\_POSTAL_SOURCE\CHARACTER.CPP
/c /I.\SDL2\INCLUDE /I.\RSPIX\SRC /I.\RSPIX\SRC\BLUE /I.\RSPIX\INC /I. /Z7 /nologo /W3 /WX- /Od /Oy- /D WIN32 /D _DEBUG /D NOSHMALLOC /D _WINDOWS /D TRACENASSERT /D WITH_STEAMWORKS=0 /D ALLOW_TWINSTICK /D DEBUG_LEVEL_CHEAT /D RSP_DEBUG_OUT_FILE /D "RSP_TRACE_LOG_NAME=\"Postal Plus.log\"" /D _VC80_UPGRADE=0x0710 /D _USING_V110_SDK71_ /Gm- /EHsc /MTd /GS /fp:precise /Zc:wchar_t /Zc:forScope /Zc:inline /Yu"RSPiX.H" /Fp".\BUILD\POSTAL COMMON\DEBUG/POSTAL COMMON.PCH" /Fo".\BUILD\POSTAL COMMON\DEBUG/" /Fd".\BUILD\POSTAL COMMON\DEBUG/POSTAL COMMON.PDB" /FR".\Build\Postal Common\Debug\\" /Gd /TP /analyze- C:\USERS\ADMINISTRATOR\DOCUMENTS\_POSTAL_SOURCE\CHARACTER.CPP
^C:\USERS\ADMINISTRATOR\DOCUMENTS\_POSTAL_SOURCE\CHUNK.CPP
/c /I.\SDL2\INCLUDE /I.\RSPIX\SRC /I.\RSPIX\SRC\BLUE /I.\RSPIX\INC /I. /Z7 /nologo /W3 /WX- /Od /Oy- /D WIN32 /D _DEBUG /D NOSHMALLOC /D _WINDOWS /D TRACENASSERT /D WITH_STEAMWORKS=0 /D ALLOW_TWINSTICK /D DEBUG_LEVEL_CHEAT /D RSP_DEBUG_OUT_FILE /D "RSP_TRACE_LOG_NAME=\"Postal Plus.log\"" /D _VC80_UPGRADE=0x0710 /D _USING_V110_SDK71_ /Gm- /EHsc /MTd /GS /fp:precise /Zc:wchar_t /Zc:forScope /Zc:inline /Yu"RSPiX.H" /Fp".\BUILD\POSTAL COMMON\DEBUG/POSTAL COMMON.PCH" /Fo".\BUILD\POSTAL COMMON\DEBUG/" /Fd".\BUILD\POSTAL COMMON\DEBUG/POSTAL COMMON.PDB" /FR".\Build\Postal Common\Debug\\" /Gd /TP /analyze- C:\USERS\ADMINISTRATOR\DOCUMENTS\_POSTAL_SOURCE\CHUNK.CPP
^C:\USERS\ADMINISTRATOR\DOCUMENTS\_POSTAL_SOURCE\CRAWLER.CPP
/c /I.\SDL2\INCLUDE /I.\RSPIX\SRC /I.\RSPIX\SRC\BLUE /I.\RSPIX\INC /I. /Z7 /nologo /W3 /WX- /Od /Oy- /D WIN32 /D _DEBUG /D NOSHMALLOC /D _WINDOWS /D TRACENASSERT /D WITH_STEAMWORKS=0 /D ALLOW_TWINSTICK /D DEBUG_LEVEL_CHEAT /D RSP_DEBUG_OUT_FILE /D "RSP_TRACE_LOG_NAME=\"Postal Plus.log\"" /D _VC80_UPGRADE=0x0710 /D _USING_V110_SDK71_ /Gm- /EHsc /MTd /GS /fp:precise /Zc:wchar_t /Zc:forScope /Zc:inline /Yu"RSPiX.H" /Fp".\BUILD\POSTAL COMMON\DEBUG/POSTAL COMMON.PCH" /Fo".\BUILD\POSTAL COMMON\DEBUG/" /Fd".\BUILD\POSTAL COMMON\DEBUG/POSTAL COMMON.PDB" /FR".\Build\Postal Common\Debug\\" /Gd /TP /analyze- C:\USERS\ADMINISTRATOR\DOCUMENTS\_POSTAL_SOURCE\CRAWLER.CPP
^C:\USERS\ADMINISTRATOR\DOCUMENTS\_POSTAL_SOURCE\CUTSCENE.CPP
/c /I.\SDL2\INCLUDE /I.\RSPIX\SRC /I.\RSPIX\SRC\BLUE /I.\RSPIX\INC /I. /Z7 /nologo /W3 /WX- /Od /Oy- /D WIN32 /D _DEBUG /D NOSHMALLOC /D _WINDOWS /D TRACENASSERT /D WITH_STEAMWORKS=0 /D ALLOW_TWINSTICK /D DEBUG_LEVEL_CHEAT /D RSP_DEBUG_OUT_FILE /D "RSP_TRACE_LOG_NAME=\"Postal Plus.log\"" /D _VC80_UPGRADE=0x0710 /D _USING_V110_SDK71_ /Gm- /EHsc /MTd /GS /fp:precise /Zc:wchar_t /Zc:forScope /Zc:inline /Yu"RSPiX.H" /Fp".\BUILD\POSTAL COMMON\DEBUG/POSTAL COMMON.PCH" /Fo".\BUILD\POSTAL COMMON\DEBUG/" /Fd".\BUILD\POSTAL COMMON\DEBUG/POSTAL COMMON.PDB" /FR".\Build\Postal Common\Debug\\" /Gd /TP /analyze- C:\USERS\ADMINISTRATOR\DOCUMENTS\_POSTAL_SOURCE\CUTSCENE.CPP
^C:\USERS\ADMINISTRATOR\DOCUMENTS\_POSTAL_SOURCE\DEATHWAD.CPP
/c /I.\SDL2\INCLUDE /I.\RSPIX\SRC /I.\RSPIX\SRC\BLUE /I.\RSPIX\INC /I. /Z7 /nologo /W3 /WX- /Od /Oy- /D WIN32 /D _DEBUG /D NOSHMALLOC /D _WINDOWS /D TRACENASSERT /D WITH_STEAMWORKS=0 /D ALLOW_TWINSTICK /D DEBUG_LEVEL_CHEAT /D RSP_DEBUG_OUT_FILE /D "RSP_TRACE_LOG_NAME=\"Postal Plus.log\"" /D _VC80_UPGRADE=0x0710 /D _USING_V110_SDK71_ /Gm- /EHsc /MTd /GS /fp:precise /Zc:wchar_t /Zc:forScope /Zc:inline /Yu"RSPiX.H" /Fp".\BUILD\POSTAL COMMON\DEBUG/POSTAL COMMON.PCH" /Fo".\BUILD\POSTAL COMMON\DEBUG/" /Fd".\BUILD\POSTAL COMMON\DEBUG/POSTAL COMMON.PDB" /FR".\Build\Postal Common\Debug\\" /Gd /TP /analyze- C:\USERS\ADMINISTRATOR\DOCUMENTS\_POSTAL_SOURCE\DEATHWAD.CPP
^C:\USERS\ADMINISTRATOR\DOCUMENTS\_POSTAL_SOURCE\DEMON.CPP
/c /I.\SDL2\INCLUDE /I.\RSPIX\SRC /I.\RSPIX\SRC\BLUE /I.\RSPIX\INC /I. /Z7 /nologo /W3 /WX- /Od /Oy- /D WIN32 /D _DEBUG /D NOSHMALLOC /D _WINDOWS /D TRACENASSERT /D WITH_STEAMWORKS=0 /D ALLOW_TWINSTICK /D DEBUG_LEVEL_CHEAT /D RSP_DEBUG_OUT_FILE /D "RSP_TRACE_LOG_NAME=\"Postal Plus.log\"" /D _VC80_UPGRADE=0x0710 /D _USING_V110_SDK71_ /Gm- /EHsc /MTd /GS /fp:precise /Zc:wchar_t /Zc:forScope /Zc:inline /Yu"RSPiX.H" /Fp".\BUILD\POSTAL COMMON\DEBUG/POSTAL COMMON.PCH" /Fo".\BUILD\POSTAL COMMON\DEBUG/" /Fd".\BUILD\POSTAL COMMON\DEBUG/POSTAL COMMON.PDB" /FR".\Build\Postal Common\Debug\\" /Gd /TP /analyze- C:\USERS\ADMINISTRATOR\DOCUMENTS\_POSTAL_SOURCE\DEMON.CPP
^C:\USERS\ADMINISTRATOR\DOCUMENTS\_POSTAL_SOURCE\DISPENSER.CPP
/c /I.\SDL2\INCLUDE /I.\RSPIX\SRC /I.\RSPIX\SRC\BLUE /I.\RSPIX\INC /I. /Z7 /nologo /W3 /WX- /Od /Oy- /D WIN32 /D _DEBUG /D NOSHMALLOC /D _WINDOWS /D TRACENASSERT /D WITH_STEAMWORKS=0 /D ALLOW_TWINSTICK /D DEBUG_LEVEL_CHEAT /D RSP_DEBUG_OUT_FILE /D "RSP_TRACE_LOG_NAME=\"Postal Plus.log\"" /D _VC80_UPGRADE=0x0710 /D _USING_V110_SDK71_ /Gm- /EHsc /MTd /GS /fp:precise /Zc:wchar_t /Zc:forScope /Zc:inline /Yu"RSPiX.H" /Fp".\BUILD\POSTAL COMMON\DEBUG/POSTAL COMMON.PCH" /Fo".\BUILD\POSTAL COMMON\DEBUG/" /Fd".\BUILD\POSTAL COMMON\DEBUG/POSTAL COMMON.PDB" /FR".\Build\Postal Common\Debug\\" /Gd /TP /analyze- C:\USERS\ADMINISTRATOR\DOCUMENTS\_POSTAL_SOURCE\DISPENSER.CPP
^C:\USERS\ADMINISTRATOR\DOCUMENTS\_POSTAL_SOURCE\ENCRYPT.CPP
/c /I.\SDL2\INCLUDE /I.\RSPIX\SRC /I.\RSPIX\SRC\BLUE /I.\RSPIX\INC /I. /Z7 /nologo /W3 /WX- /Od /Oy- /D WIN32 /D _DEBUG /D NOSHMALLOC /D _WINDOWS /D TRACENASSERT /D WITH_STEAMWORKS=0 /D ALLOW_TWINSTICK /D DEBUG_LEVEL_CHEAT /D RSP_DEBUG_OUT_FILE /D "RSP_TRACE_LOG_NAME=\"Postal Plus.log\"" /D _VC80_UPGRADE=0x0710 /D _USING_V110_SDK71_ /Gm- /EHsc /MTd /GS /fp:precise /Zc:wchar_t /Zc:forScope /Zc:inline /Yu"RSPiX.H" /Fp".\BUILD\POSTAL COMMON\DEBUG/POSTAL COMMON.PCH" /Fo".\BUILD\POSTAL COMMON\DEBUG/" /Fd".\BUILD\POSTAL COMMON\DEBUG/POSTAL COMMON.PDB" /FR".\Build\Postal Common\Debug\\" /Gd /TP /analyze- C:\USERS\ADMINISTRATOR\DOCUMENTS\_POSTAL_SOURCE\ENCRYPT.CPP
^C:\USERS\ADMINISTRATOR\DOCUMENTS\_POSTAL_SOURCE\EXPLODE.CPP
/c /I.\SDL2\INCLUDE /I.\RSPIX\SRC /I.\RSPIX\SRC\BLUE /I.\RSPIX\INC /I. /Z7 /nologo /W3 /WX- /Od /Oy- /D WIN32 /D _DEBUG /D NOSHMALLOC /D _WINDOWS /D TRACENASSERT /D WITH_STEAMWORKS=0 /D ALLOW_TWINSTICK /D DEBUG_LEVEL_CHEAT /D RSP_DEBUG_OUT_FILE /D "RSP_TRACE_LOG_NAME=\"Postal Plus.log\"" /D _VC80_UPGRADE=0x0710 /D _USING_V110_SDK71_ /Gm- /EHsc /MTd /GS /fp:precise /Zc:wchar_t /Zc:forScope /Zc:inline /Yu"RSPiX.H" /Fp".\BUILD\POSTAL COMMON\DEBUG/POSTAL COMMON.PCH" /Fo".\BUILD\POSTAL COMMON\DEBUG/" /Fd".\BUILD\POSTAL COMMON\DEBUG/POSTAL COMMON.PDB" /FR".\Build\Postal Common\Debug\\" /Gd /TP /analyze- C:\USERS\ADMINISTRATOR\DOCUMENTS\_POSTAL_SOURCE\EXPLODE.CPP
^C:\USERS\ADMINISTRATOR\DOCUMENTS\_POSTAL_SOURCE\FIRE.CPP
/c /I.\SDL2\INCLUDE /I.\RSPIX\SRC /I.\RSPIX\SRC\BLUE /I.\RSPIX\INC /I. /Z7 /nologo /W3 /WX- /Od /Oy- /D WIN32 /D _DEBUG /D NOSHMALLOC /D _WINDOWS /D TRACENASSERT /D WITH_STEAMWORKS=0 /D ALLOW_TWINSTICK /D DEBUG_LEVEL_CHEAT /D RSP_DEBUG_OUT_FILE /D "RSP_TRACE_LOG_NAME=\"Postal Plus.log\"" /D _VC80_UPGRADE=0x0710 /D _USING_V110_SDK71_ /Gm- /EHsc /MTd /GS /fp:precise /Zc:wchar_t /Zc:forScope /Zc:inline /Yu"RSPiX.H" /Fp".\BUILD\POSTAL COMMON\DEBUG/POSTAL COMMON.PCH" /Fo".\BUILD\POSTAL COMMON\DEBUG/" /Fd".\BUILD\POSTAL COMMON\DEBUG/POSTAL COMMON.PDB" /FR".\Build\Postal Common\Debug\\" /Gd /TP /analyze- C:\USERS\ADMINISTRATOR\DOCUMENTS\_POSTAL_SOURCE\FIRE.CPP
^C:\USERS\ADMINISTRATOR\DOCUMENTS\_POSTAL_SOURCE\FIREBALL.CPP
/c /I.\SDL2\INCLUDE /I.\RSPIX\SRC /I.\RSPIX\SRC\BLUE /I.\RSPIX\INC /I. /Z7 /nologo /W3 /WX- /Od /Oy- /D WIN32 /D _DEBUG /D NOSHMALLOC /D _WINDOWS /D TRACENASSERT /D WITH_STEAMWORKS=0 /D ALLOW_TWINSTICK /D DEBUG_LEVEL_CHEAT /D RSP_DEBUG_OUT_FILE /D "RSP_TRACE_LOG_NAME=\"Postal Plus.log\"" /D _VC80_UPGRADE=0x0710 /D _USING_V110_SDK71_ /Gm- /EHsc /MTd /GS /fp:precise /Zc:wchar_t /Zc:forScope /Zc:inline /Yu"RSPiX.H" /Fp".\BUILD\POSTAL COMMON\DEBUG/POSTAL COMMON.PCH" /Fo".\BUILD\POSTAL COMMON\DEBUG/" /Fd".\BUILD\POSTAL COMMON\DEBUG/POSTAL COMMON.PDB" /FR".\Build\Postal Common\Debug\\" /Gd /TP /analyze- C:\USERS\ADMINISTRATOR\DOCUMENTS\_POSTAL_SOURCE\FIREBALL.CPP
^C:\USERS\ADMINISTRATOR\DOCUMENTS\_POSTAL_SOURCE\FIREBOMB.CPP
/c /I.\SDL2\INCLUDE /I.\RSPIX\SRC /I.\RSPIX\SRC\BLUE /I.\RSPIX\INC /I. /Z7 /nologo /W3 /WX- /Od /Oy- /D WIN32 /D _DEBUG /D NOSHMALLOC /D _WINDOWS /D TRACENASSERT /D WITH_STEAMWORKS=0 /D ALLOW_TWINSTICK /D DEBUG_LEVEL_CHEAT /D RSP_DEBUG_OUT_FILE /D "RSP_TRACE_LOG_NAME=\"Postal Plus.log\"" /D _VC80_UPGRADE=0x0710 /D _USING_V110_SDK71_ /Gm- /EHsc /MTd /GS /fp:precise /Zc:wchar_t /Zc:forScope /Zc:inline /Yu"RSPiX.H" /Fp".\BUILD\POSTAL COMMON\DEBUG/POSTAL COMMON.PCH" /Fo".\BUILD\POSTAL COMMON\DEBUG/" /Fd".\BUILD\POSTAL COMMON\DEBUG/POSTAL COMMON.PDB" /FR".\Build\Postal Common\Debug\\" /Gd /TP /analyze- C:\USERS\ADMINISTRATOR\DOCUMENTS\_POSTAL_SOURCE\FIREBOMB.CPP
^C:\USERS\ADMINISTRATOR\DOCUMENTS\_POSTAL_SOURCE\FLAG.CPP
/c /I.\SDL2\INCLUDE /I.\RSPIX\SRC /I.\RSPIX\SRC\BLUE /I.\RSPIX\INC /I. /Z7 /nologo /W3 /WX- /Od /Oy- /D WIN32 /D _DEBUG /D NOSHMALLOC /D _WINDOWS /D TRACENASSERT /D WITH_STEAMWORKS=0 /D ALLOW_TWINSTICK /D DEBUG_LEVEL_CHEAT /D RSP_DEBUG_OUT_FILE /D "RSP_TRACE_LOG_NAME=\"Postal Plus.log\"" /D _VC80_UPGRADE=0x0710 /D _USING_V110_SDK71_ /Gm- /EHsc /MTd /GS /fp:precise /Zc:wchar_t /Zc:forScope /Zc:inline /Yu"RSPiX.H" /Fp".\BUILD\POSTAL COMMON\DEBUG/POSTAL COMMON.PCH" /Fo".\BUILD\POSTAL COMMON\DEBUG/" /Fd".\BUILD\POSTAL COMMON\DEBUG/POSTAL COMMON.PDB" /FR".\Build\Postal Common\Debug\\" /Gd /TP /analyze- C:\USERS\ADMINISTRATOR\DOCUMENTS\_POSTAL_SOURCE\FLAG.CPP
^C:\USERS\ADMINISTRATOR\DOCUMENTS\_POSTAL_SOURCE\FLAGBASE.CPP
/c /I.\SDL2\INCLUDE /I.\RSPIX\SRC /I.\RSPIX\SRC\BLUE /I.\RSPIX\INC /I. /Z7 /nologo /W3 /WX- /Od /Oy- /D WIN32 /D _DEBUG /D NOSHMALLOC /D _WINDOWS /D TRACENASSERT /D WITH_STEAMWORKS=0 /D ALLOW_TWINSTICK /D DEBUG_LEVEL_CHEAT /D RSP_DEBUG_OUT_FILE /D "RSP_TRACE_LOG_NAME=\"Postal Plus.log\"" /D _VC80_UPGRADE=0x0710 /D _USING_V110_SDK71_ /Gm- /EHsc /MTd /GS /fp:precise /Zc:wchar_t /Zc:forScope /Zc:inline /Yu"RSPiX.H" /Fp".\BUILD\POSTAL COMMON\DEBUG/POSTAL COMMON.PCH" /Fo".\BUILD\POSTAL COMMON\DEBUG/" /Fd".\BUILD\POSTAL COMMON\DEBUG/POSTAL COMMON.PDB" /FR".\Build\Postal Common\Debug\\" /Gd /TP /analyze- C:\USERS\ADMINISTRATOR\DOCUMENTS\_POSTAL_SOURCE\FLAGBASE.CPP
^C:\USERS\ADMINISTRATOR\DOCUMENTS\_POSTAL_SOURCE\GRENADE.CPP
/c /I.\SDL2\INCLUDE /I.\RSPIX\SRC /I.\RSPIX\SRC\BLUE /I.\RSPIX\INC /I. /Z7 /nologo /W3 /WX- /Od /Oy- /D WIN32 /D _DEBUG /D NOSHMALLOC /D _WINDOWS /D TRACENASSERT /D WITH_STEAMWORKS=0 /D ALLOW_TWINSTICK /D DEBUG_LEVEL_CHEAT /D RSP_DEBUG_OUT_FILE /D "RSP_TRACE_LOG_NAME=\"Postal Plus.log\"" /D _VC80_UPGRADE=0x0710 /D _USING_V110_SDK71_ /Gm- /EHsc /MTd /GS /fp:precise /Zc:wchar_t /Zc:forScope /Zc:inline /Yu"RSPiX.H" /Fp".\BUILD\POSTAL COMMON\DEBUG/POSTAL COMMON.PCH" /Fo".\BUILD\POSTAL COMMON\DEBUG/" /Fd".\BUILD\POSTAL COMMON\DEBUG/POSTAL COMMON.PDB" /FR".\Build\Postal Common\Debug\\" /Gd /TP /analyze- C:\USERS\ADMINISTRATOR\DOCUMENTS\_POSTAL_SOURCE\GRENADE.CPP
^C:\USERS\ADMINISTRATOR\DOCUMENTS\_POSTAL_SOURCE\GRIP.CPP
/c /I.\SDL2\INCLUDE /I.\RSPIX\SRC /I.\RSPIX\SRC\BLUE /I.\RSPIX\INC /I. /Z7 /nologo /W3 /WX- /Od /Oy- /D WIN32 /D _DEBUG /D NOSHMALLOC /D _WINDOWS /D TRACENASSERT /D WITH_STEAMWORKS=0 /D ALLOW_TWINSTICK /D DEBUG_LEVEL_CHEAT /D RSP_DEBUG_OUT_FILE /D "RSP_TRACE_LOG_NAME=\"Postal Plus.log\"" /D _VC80_UPGRADE=0x0710 /D _USING_V110_SDK71_ /Gm- /EHsc /MTd /GS /fp:precise /Zc:wchar_t /Zc:forScope /Zc:inline /Yu"RSPiX.H" /Fp".\BUILD\POSTAL COMMON\DEBUG/POSTAL COMMON.PCH" /Fo".\BUILD\POSTAL COMMON\DEBUG/" /Fd".\BUILD\POSTAL COMMON\DEBUG/POSTAL COMMON.PDB" /FR".\Build\Postal Common\Debug\\" /Gd /TP /analyze- C:\USERS\ADMINISTRATOR\DOCUMENTS\_POSTAL_SOURCE\GRIP.CPP
^C:\USERS\ADMINISTRATOR\DOCUMENTS\_POSTAL_SOURCE\HEATSEEKER.CPP
/c /I.\SDL2\INCLUDE /I.\RSPIX\SRC /I.\RSPIX\SRC\BLUE /I.\RSPIX\INC /I. /Z7 /nologo /W3 /WX- /Od /Oy- /D WIN32 /D _DEBUG /D NOSHMALLOC /D _WINDOWS /D TRACENASSERT /D WITH_STEAMWORKS=0 /D ALLOW_TWINSTICK /D DEBUG_LEVEL_CHEAT /D RSP_DEBUG_OUT_FILE /D "RSP_TRACE_LOG_NAME=\"Postal Plus.log\"" /D _VC80_UPGRADE=0x0710 /D _USING_V110_SDK71_ /Gm- /EHsc /MTd /GS /fp:precise /Zc:wchar_t /Zc:forScope /Zc:inline /Yu"RSPiX.H" /Fp".\BUILD\POSTAL COMMON\DEBUG/POSTAL COMMON.PCH" /Fo".\BUILD\POSTAL COMMON\DEBUG/" /Fd".\BUILD\POSTAL COMMON\DEBUG/POSTAL COMMON.PDB" /FR".\Build\Postal Common\Debug\\" /Gd /TP /analyze- C:\USERS\ADMINISTRATOR\DOCUMENTS\_POSTAL_SOURCE\HEATSEEKER.CPP
^C:\USERS\ADMINISTRATOR\DOCUMENTS\_POSTAL_SOURCE\HOOD.CPP
/c /I.\SDL2\INCLUDE /I.\RSPIX\SRC /I.\RSPIX\SRC\BLUE /I.\RSPIX\INC /I. /Z7 /nologo /W3 /WX- /Od /Oy- /D WIN32 /D _DEBUG /D NOSHMALLOC /D _WINDOWS /D TRACENASSERT /D WITH_STEAMWORKS=0 /D ALLOW_TWINSTICK /D DEBUG_LEVEL_CHEAT /D RSP_DEBUG_OUT_FILE /D "RSP_TRACE_LOG_NAME=\"Postal Plus.log\"" /D _VC80_UPGRADE=0x0710 /D _USING_V110_SDK71_ /Gm- /EHsc /MTd /GS /fp:precise /Zc:wchar_t /Zc:forScope /Zc:inline /Yu"RSPiX.H" /Fp".\BUILD\POSTAL COMMON\DEBUG/POSTAL COMMON.PCH" /Fo".\BUILD\POSTAL COMMON\DEBUG/" /Fd".\BUILD\POSTAL COMMON\DEBUG/POSTAL COMMON.PDB" /FR".\Build\Postal Common\Debug\\" /Gd /TP /analyze- C:\USERS\ADMINISTRATOR\DOCUMENTS\_POSTAL_SOURCE\HOOD.CPP
^C:\USERS\ADMINISTRATOR\DOCUMENTS\_POSTAL_SOURCE\ITEM3D.CPP
/c /I.\SDL2\INCLUDE /I.\RSPIX\SRC /I.\RSPIX\SRC\BLUE /I.\RSPIX\INC /I. /Z7 /nologo /W3 /WX- /Od /Oy- /D WIN32 /D _DEBUG /D NOSHMALLOC /D _WINDOWS /D TRACENASSERT /D WITH_STEAMWORKS=0 /D ALLOW_TWINSTICK /D DEBUG_LEVEL_CHEAT /D RSP_DEBUG_OUT_FILE /D "RSP_TRACE_LOG_NAME=\"Postal Plus.log\"" /D _VC80_UPGRADE=0x0710 /D _USING_V110_SDK71_ /Gm- /EHsc /MTd /GS /fp:precise /Zc:wchar_t /Zc:forScope /Zc:inline /Yu"RSPiX.H" /Fp".\BUILD\POSTAL COMMON\DEBUG/POSTAL COMMON.PCH" /Fo".\BUILD\POSTAL COMMON\DEBUG/" /Fd".\BUILD\POSTAL COMMON\DEBUG/POSTAL COMMON.PDB" /FR".\Build\Postal Common\Debug\\" /Gd /TP /analyze- C:\USERS\ADMINISTRATOR\DOCUMENTS\_POSTAL_SOURCE\ITEM3D.CPP
^C:\USERS\ADMINISTRATOR\DOCUMENTS\_POSTAL_SOURCE\KEYS.CPP
/c /I.\SDL2\INCLUDE /I.\RSPIX\SRC /I.\RSPIX\SRC\BLUE /I.\RSPIX\INC /I. /Z7 /nologo /W3 /WX- /Od /Oy- /D WIN32 /D _DEBUG /D NOSHMALLOC /D _WINDOWS /D TRACENASSERT /D WITH_STEAMWORKS=0 /D ALLOW_TWINSTICK /D DEBUG_LEVEL_CHEAT /D RSP_DEBUG_OUT_FILE /D "RSP_TRACE_LOG_NAME=\"Postal Plus.log\"" /D _VC80_UPGRADE=0x0710 /D _USING_V110_SDK71_ /Gm- /EHsc /MTd /GS /fp:precise /Zc:wchar_t /Zc:forScope /Zc:inline /Yu"RSPiX.H" /Fp".\BUILD\POSTAL COMMON\DEBUG/POSTAL COMMON.PCH" /Fo".\BUILD\POSTAL COMMON\DEBUG/" /Fd".\BUILD\POSTAL COMMON\DEBUG/POSTAL COMMON.PDB" /FR".\Build\Postal Common\Debug\\" /Gd /TP /analyze- C:\USERS\ADMINISTRATOR\DOCUMENTS\_POSTAL_SOURCE\KEYS.CPP
^C:\USERS\ADMINISTRATOR\DOCUMENTS\_POSTAL_SOURCE\LOGTAB.CPP
/c /I.\SDL2\INCLUDE /I.\RSPIX\SRC /I.\RSPIX\SRC\BLUE /I.\RSPIX\INC /I. /Z7 /nologo /W3 /WX- /Od /Oy- /D WIN32 /D _DEBUG /D NOSHMALLOC /D _WINDOWS /D TRACENASSERT /D WITH_STEAMWORKS=0 /D ALLOW_TWINSTICK /D DEBUG_LEVEL_CHEAT /D RSP_DEBUG_OUT_FILE /D "RSP_TRACE_LOG_NAME=\"Postal Plus.log\"" /D _VC80_UPGRADE=0x0710 /D _USING_V110_SDK71_ /Gm- /EHsc /MTd /GS /fp:precise /Zc:wchar_t /Zc:forScope /Zc:inline /Yu"RSPiX.H" /Fp".\BUILD\POSTAL COMMON\DEBUG/POSTAL COMMON.PCH" /Fo".\BUILD\POSTAL COMMON\DEBUG/" /Fd".\BUILD\POSTAL COMMON\DEBUG/POSTAL COMMON.PDB" /FR".\Build\Postal Common\Debug\\" /Gd /TP /analyze- C:\USERS\ADMINISTRATOR\DOCUMENTS\_POSTAL_SOURCE\LOGTAB.CPP
^C:\USERS\ADMINISTRATOR\DOCUMENTS\_POSTAL_SOURCE\MINE.CPP
/c /I.\SDL2\INCLUDE /I.\RSPIX\SRC /I.\RSPIX\SRC\BLUE /I.\RSPIX\INC /I. /Z7 /nologo /W3 /WX- /Od /Oy- /D WIN32 /D _DEBUG /D NOSHMALLOC /D _WINDOWS /D TRACENASSERT /D WITH_STEAMWORKS=0 /D ALLOW_TWINSTICK /D DEBUG_LEVEL_CHEAT /D RSP_DEBUG_OUT_FILE /D "RSP_TRACE_LOG_NAME=\"Postal Plus.log\"" /D _VC80_UPGRADE=0x0710 /D _USING_V110_SDK71_ /Gm- /EHsc /MTd /GS /fp:precise /Zc:wchar_t /Zc:forScope /Zc:inline /Yu"RSPiX.H" /Fp".\BUILD\POSTAL COMMON\DEBUG/POSTAL COMMON.PCH" /Fo".\BUILD\POSTAL COMMON\DEBUG/" /Fd".\BUILD\POSTAL COMMON\DEBUG/POSTAL COMMON.PDB" /FR".\Build\Postal Common\Debug\\" /Gd /TP /analyze- C:\USERS\ADMINISTRATOR\DOCUMENTS\_POSTAL_SOURCE\MINE.CPP
^C:\USERS\ADMINISTRATOR\DOCUMENTS\_POSTAL_SOURCE\NAPALM.CPP
/c /I.\SDL2\INCLUDE /I.\RSPIX\SRC /I.\RSPIX\SRC\BLUE /I.\RSPIX\INC /I. /Z7 /nologo /W3 /WX- /Od /Oy- /D WIN32 /D _DEBUG /D NOSHMALLOC /D _WINDOWS /D TRACENASSERT /D WITH_STEAMWORKS=0 /D ALLOW_TWINSTICK /D DEBUG_LEVEL_CHEAT /D RSP_DEBUG_OUT_FILE /D "RSP_TRACE_LOG_NAME=\"Postal Plus.log\"" /D _VC80_UPGRADE=0x0710 /D _USING_V110_SDK71_ /Gm- /EHsc /MTd /GS /fp:precise /Zc:wchar_t /Zc:forScope /Zc:inline /Yu"RSPiX.H" /Fp".\BUILD\POSTAL COMMON\DEBUG/POSTAL COMMON.PCH" /Fo".\BUILD\POSTAL COMMON\DEBUG/" /Fd".\BUILD\POSTAL COMMON\DEBUG/POSTAL COMMON.PDB" /FR".\Build\Postal Common\Debug\\" /Gd /TP /analyze- C:\USERS\ADMINISTRATOR\DOCUMENTS\_POSTAL_SOURCE\NAPALM.CPP
^C:\USERS\ADMINISTRATOR\DOCUMENTS\_POSTAL_SOURCE\NAVNET.CPP
/c /I.\SDL2\INCLUDE /I.\RSPIX\SRC /I.\RSPIX\SRC\BLUE /I.\RSPIX\INC /I. /Z7 /nologo /W3 /WX- /Od /Oy- /D WIN32 /D _DEBUG /D NOSHMALLOC /D _WINDOWS /D TRACENASSERT /D WITH_STEAMWORKS=0 /D ALLOW_TWINSTICK /D DEBUG_LEVEL_CHEAT /D RSP_DEBUG_OUT_FILE /D "RSP_TRACE_LOG_NAME=\"Postal Plus.log\"" /D _VC80_UPGRADE=0x0710 /D _USING_V110_SDK71_ /Gm- /EHsc /MTd /GS /fp:precise /Zc:wchar_t /Zc:forScope /Zc:inline /Yu"RSPiX.H" /Fp".\BUILD\POSTAL COMMON\DEBUG/POSTAL COMMON.PCH" /Fo".\BUILD\POSTAL COMMON\DEBUG/" /Fd".\BUILD\POSTAL COMMON\DEBUG/POSTAL COMMON.PDB" /FR".\Build\Postal Common\Debug\\" /Gd /TP /analyze- C:\USERS\ADMINISTRATOR\DOCUMENTS\_POSTAL_SOURCE\NAVNET.CPP
^C:\USERS\ADMINISTRATOR\DOCUMENTS\_POSTAL_SOURCE\NET.CPP
/c /I.\SDL2\INCLUDE /I.\RSPIX\SRC /I.\RSPIX\SRC\BLUE /I.\RSPIX\INC /I. /Z7 /nologo /W3 /WX- /Od /Oy- /D WIN32 /D _DEBUG /D NOSHMALLOC /D _WINDOWS /D TRACENASSERT /D WITH_STEAMWORKS=0 /D ALLOW_TWINSTICK /D DEBUG_LEVEL_CHEAT /D RSP_DEBUG_OUT_FILE /D "RSP_TRACE_LOG_NAME=\"Postal Plus.log\"" /D _VC80_UPGRADE=0x0710 /D _USING_V110_SDK71_ /Gm- /EHsc /MTd /GS /fp:precise /Zc:wchar_t /Zc:forScope /Zc:inline /Yu"RSPiX.H" /Fp".\BUILD\POSTAL COMMON\DEBUG/POSTAL COMMON.PCH" /Fo".\BUILD\POSTAL COMMON\DEBUG/" /Fd".\BUILD\POSTAL COMMON\DEBUG/POSTAL COMMON.PDB" /FR".\Build\Postal Common\Debug\\" /Gd /TP /analyze- C:\USERS\ADMINISTRATOR\DOCUMENTS\_POSTAL_SOURCE\NET.CPP
^C:\USERS\ADMINISTRATOR\DOCUMENTS\_POSTAL_SOURCE\NETMSGR.CPP
/c /I.\SDL2\INCLUDE /I.\RSPIX\SRC /I.\RSPIX\SRC\BLUE /I.\RSPIX\INC /I. /Z7 /nologo /W3 /WX- /Od /Oy- /D WIN32 /D _DEBUG /D NOSHMALLOC /D _WINDOWS /D TRACENASSERT /D WITH_STEAMWORKS=0 /D ALLOW_TWINSTICK /D DEBUG_LEVEL_CHEAT /D RSP_DEBUG_OUT_FILE /D "RSP_TRACE_LOG_NAME=\"Postal Plus.log\"" /D _VC80_UPGRADE=0x0710 /D _USING_V110_SDK71_ /Gm- /EHsc /MTd /GS /fp:precise /Zc:wchar_t /Zc:forScope /Zc:inline /Yu"RSPiX.H" /Fp".\BUILD\POSTAL COMMON\DEBUG/POSTAL COMMON.PCH" /Fo".\BUILD\POSTAL COMMON\DEBUG/" /Fd".\BUILD\POSTAL COMMON\DEBUG/POSTAL COMMON.PDB" /FR".\Build\Postal Common\Debug\\" /Gd /TP /analyze- C:\USERS\ADMINISTRATOR\DOCUMENTS\_POSTAL_SOURCE\NETMSGR.CPP
^C:\USERS\ADMINISTRATOR\DOCUMENTS\_POSTAL_SOURCE\ORGAN.CPP
/c /I.\SDL2\INCLUDE /I.\RSPIX\SRC /I.\RSPIX\SRC\BLUE /I.\RSPIX\INC /I. /Z7 /nologo /W3 /WX- /Od /Oy- /D WIN32 /D _DEBUG /D NOSHMALLOC /D _WINDOWS /D TRACENASSERT /D WITH_STEAMWORKS=0 /D ALLOW_TWINSTICK /D DEBUG_LEVEL_CHEAT /D RSP_DEBUG_OUT_FILE /D "RSP_TRACE_LOG_NAME=\"Postal Plus.log\"" /D _VC80_UPGRADE=0x0710 /D _USING_V110_SDK71_ /Gm- /EHsc /MTd /GS /fp:precise /Zc:wchar_t /Zc:forScope /Zc:inline /Yu"RSPiX.H" /Fp".\BUILD\POSTAL COMMON\DEBUG/POSTAL COMMON.PCH" /Fo".\BUILD\POSTAL COMMON\DEBUG/" /Fd".\BUILD\POSTAL COMMON\DEBUG/POSTAL COMMON.PDB" /FR".\Build\Postal Common\Debug\\" /Gd /TP /analyze- C:\USERS\ADMINISTRATOR\DOCUMENTS\_POSTAL_SOURCE\ORGAN.CPP
^C:\USERS\ADMINISTRATOR\DOCUMENTS\_POSTAL_SOURCE\PYLON.CPP
/c /I.\SDL2\INCLUDE /I.\RSPIX\SRC /I.\RSPIX\SRC\BLUE /I.\RSPIX\INC /I. /Z7 /nologo /W3 /WX- /Od /Oy- /D WIN32 /D _DEBUG /D NOSHMALLOC /D _WINDOWS /D TRACENASSERT /D WITH_STEAMWORKS=0 /D ALLOW_TWINSTICK /D DEBUG_LEVEL_CHEAT /D RSP_DEBUG_OUT_FILE /D "RSP_TRACE_LOG_NAME=\"Postal Plus.log\"" /D _VC80_UPGRADE=0x0710 /D _USING_V110_SDK71_ /Gm- /EHsc /MTd /GS /fp:precise /Zc:wchar_t /Zc:forScope /Zc:inline /Yu"RSPiX.H" /Fp".\BUILD\POSTAL COMMON\DEBUG/POSTAL COMMON.PCH" /Fo".\BUILD\POSTAL COMMON\DEBUG/" /Fd".\BUILD\POSTAL COMMON\DEBUG/POSTAL COMMON.PDB" /FR".\Build\Postal Common\Debug\\" /Gd /TP /analyze- C:\USERS\ADMINISTRATOR\DOCUMENTS\_POSTAL_SOURCE\PYLON.CPP
^C:\USERS\ADMINISTRATOR\DOCUMENTS\_POSTAL_SOURCE\ROCKET.CPP
/c /I.\SDL2\INCLUDE /I.\RSPIX\SRC /I.\RSPIX\SRC\BLUE /I.\RSPIX\INC /I. /Z7 /nologo /W3 /WX- /Od /Oy- /D WIN32 /D _DEBUG /D NOSHMALLOC /D _WINDOWS /D TRACENASSERT /D WITH_STEAMWORKS=0 /D ALLOW_TWINSTICK /D DEBUG_LEVEL_CHEAT /D RSP_DEBUG_OUT_FILE /D "RSP_TRACE_LOG_NAME=\"Postal Plus.log\"" /D _VC80_UPGRADE=0x0710 /D _USING_V110_SDK71_ /Gm- /EHsc /MTd /GS /fp:precise /Zc:wchar_t /Zc:forScope /Zc:inline /Yu"RSPiX.H" /Fp".\BUILD\POSTAL COMMON\DEBUG/POSTAL COMMON.PCH" /Fo".\BUILD\POSTAL COMMON\DEBUG/" /Fd".\BUILD\POSTAL COMMON\DEBUG/POSTAL COMMON.PDB" /FR".\Build\Postal Common\Debug\\" /Gd /TP /analyze- C:\USERS\ADMINISTRATOR\DOCUMENTS\_POSTAL_SOURCE\ROCKET.CPP
^C:\USERS\ADMINISTRATOR\DOCUMENTS\_POSTAL_SOURCE\SCENE.CPP
/c /I.\SDL2\INCLUDE /I.\RSPIX\SRC /I.\RSPIX\SRC\BLUE /I.\RSPIX\INC /I. /Z7 /nologo /W3 /WX- /Od /Oy- /D WIN32 /D _DEBUG /D NOSHMALLOC /D _WINDOWS /D TRACENASSERT /D WITH_STEAMWORKS=0 /D ALLOW_TWINSTICK /D DEBUG_LEVEL_CHEAT /D RSP_DEBUG_OUT_FILE /D "RSP_TRACE_LOG_NAME=\"Postal Plus.log\"" /D _VC80_UPGRADE=0x0710 /D _USING_V110_SDK71_ /Gm- /EHsc /MTd /GS /fp:precise /Zc:wchar_t /Zc:forScope /Zc:inline /Yu"RSPiX.H" /Fp".\BUILD\POSTAL COMMON\DEBUG/POSTAL COMMON.PCH" /Fo".\BUILD\POSTAL COMMON\DEBUG/" /Fd".\BUILD\POSTAL COMMON\DEBUG/POSTAL COMMON.PDB" /FR".\Build\Postal Common\Debug\\" /Gd /TP /analyze- C:\USERS\ADMINISTRATOR\DOCUMENTS\_POSTAL_SOURCE\SCENE.CPP
^C:\USERS\ADMINISTRATOR\DOCUMENTS\_POSTAL_SOURCE\SCORE.CPP
/c /I.\SDL2\INCLUDE /I.\RSPIX\SRC /I.\RSPIX\SRC\BLUE /I.\RSPIX\INC /I. /Z7 /nologo /W3 /WX- /Od /Oy- /D WIN32 /D _DEBUG /D NOSHMALLOC /D _WINDOWS /D TRACENASSERT /D WITH_STEAMWORKS=0 /D ALLOW_TWINSTICK /D DEBUG_LEVEL_CHEAT /D RSP_DEBUG_OUT_FILE /D "RSP_TRACE_LOG_NAME=\"Postal Plus.log\"" /D _VC80_UPGRADE=0x0710 /D _USING_V110_SDK71_ /Gm- /EHsc /MTd /GS /fp:precise /Zc:wchar_t /Zc:forScope /Zc:inline /Yu"RSPiX.H" /Fp".\BUILD\POSTAL COMMON\DEBUG/POSTAL COMMON.PCH" /Fo".\BUILD\POSTAL COMMON\DEBUG/" /Fd".\BUILD\POSTAL COMMON\DEBUG/POSTAL COMMON.PDB" /FR".\Build\Postal Common\Debug\\" /Gd /TP /analyze- C:\USERS\ADMINISTRATOR\DOCUMENTS\_POSTAL_SOURCE\SCORE.CPP
^C:\USERS\ADMINISTRATOR\DOCUMENTS\_POSTAL_SOURCE\SMASH.CPP
/c /I.\SDL2\INCLUDE /I.\RSPIX\SRC /I.\RSPIX\SRC\BLUE /I.\RSPIX\INC /I. /Z7 /nologo /W3 /WX- /Od /Oy- /D WIN32 /D _DEBUG /D NOSHMALLOC /D _WINDOWS /D TRACENASSERT /D WITH_STEAMWORKS=0 /D ALLOW_TWINSTICK /D DEBUG_LEVEL_CHEAT /D RSP_DEBUG_OUT_FILE /D "RSP_TRACE_LOG_NAME=\"Postal Plus.log\"" /D _VC80_UPGRADE=0x0710 /D _USING_V110_SDK71_ /Gm- /EHsc /MTd /GS /fp:precise /Zc:wchar_t /Zc:forScope /Zc:inline /Yu"RSPiX.H" /Fp".\BUILD\POSTAL COMMON\DEBUG/POSTAL COMMON.PCH" /Fo".\BUILD\POSTAL COMMON\DEBUG/" /Fd".\BUILD\POSTAL COMMON\DEBUG/POSTAL COMMON.PDB" /FR".\Build\Postal Common\Debug\\" /Gd /TP /analyze- C:\USERS\ADMINISTRATOR\DOCUMENTS\_POSTAL_SOURCE\SMASH.CPP
^C:\USERS\ADMINISTRATOR\DOCUMENTS\_POSTAL_SOURCE\SOCKET.CPP
/c /I.\SDL2\INCLUDE /I.\RSPIX\SRC /I.\RSPIX\SRC\BLUE /I.\RSPIX\INC /I. /Z7 /nologo /W3 /WX- /Od /Oy- /D WIN32 /D _DEBUG /D NOSHMALLOC /D _WINDOWS /D TRACENASSERT /D WITH_STEAMWORKS=0 /D ALLOW_TWINSTICK /D DEBUG_LEVEL_CHEAT /D RSP_DEBUG_OUT_FILE /D "RSP_TRACE_LOG_NAME=\"Postal Plus.log\"" /D _VC80_UPGRADE=0x0710 /D _USING_V110_SDK71_ /Gm- /EHsc /MTd /GS /fp:precise /Zc:wchar_t /Zc:forScope /Zc:inline /Yu"RSPiX.H" /Fp".\BUILD\POSTAL COMMON\DEBUG/POSTAL COMMON.PCH" /Fo".\BUILD\POSTAL COMMON\DEBUG/" /Fd".\BUILD\POSTAL COMMON\DEBUG/POSTAL COMMON.PDB" /FR".\Build\Postal Common\Debug\\" /Gd /TP /analyze- C:\USERS\ADMINISTRATOR\DOCUMENTS\_POSTAL_SOURCE\SOCKET.CPP
^C:\USERS\ADMINISTRATOR\DOCUMENTS\_POSTAL_SOURCE\TOOLBAR.CPP
/c /I.\SDL2\INCLUDE /I.\RSPIX\SRC /I.\RSPIX\SRC\BLUE /I.\RSPIX\INC /I. /Z7 /nologo /W3 /WX- /Od /Oy- /D WIN32 /D _DEBUG /D NOSHMALLOC /D _WINDOWS /D TRACENASSERT /D WITH_STEAMWORKS=0 /D ALLOW_TWINSTICK /D DEBUG_LEVEL_CHEAT /D RSP_DEBUG_OUT_FILE /D "RSP_TRACE_LOG_NAME=\"Postal Plus.log\"" /D _VC80_UPGRADE=0x0710 /D _USING_V110_SDK71_ /Gm- /EHsc /MTd /GS /fp:precise /Zc:wchar_t /Zc:forScope /Zc:inline /Yu"RSPiX.H" /Fp".\BUILD\POSTAL COMMON\DEBUG/POSTAL COMMON.PCH" /Fo".\BUILD\POSTAL COMMON\DEBUG/" /Fd".\BUILD\POSTAL COMMON\DEBUG/POSTAL COMMON.PDB" /FR".\Build\Postal Common\Debug\\" /Gd /TP /analyze- C:\USERS\ADMINISTRATOR\DOCUMENTS\_POSTAL_SOURCE\TOOLBAR.CPP
^C:\USERS\ADMINISTRATOR\DOCUMENTS\_POSTAL_SOURCE\TRIGGER.CPP
/c /I.\SDL2\INCLUDE /I.\RSPIX\SRC /I.\RSPIX\SRC\BLUE /I.\RSPIX\INC /I. /Z7 /nologo /W3 /WX- /Od /Oy- /D WIN32 /D _DEBUG /D NOSHMALLOC /D _WINDOWS /D TRACENASSERT /D WITH_STEAMWORKS=0 /D ALLOW_TWINSTICK /D DEBUG_LEVEL_CHEAT /D RSP_DEBUG_OUT_FILE /D "RSP_TRACE_LOG_NAME=\"Postal Plus.log\"" /D _VC80_UPGRADE=0x0710 /D _USING_V110_SDK71_ /Gm- /EHsc /MTd /GS /fp:precise /Zc:wchar_t /Zc:forScope /Zc:inline /Yu"RSPiX.H" /Fp".\BUILD\POSTAL COMMON\DEBUG/POSTAL COMMON.PCH" /Fo".\BUILD\POSTAL COMMON\DEBUG/" /Fd".\BUILD\POSTAL COMMON\DEBUG/POSTAL COMMON.PDB" /FR".\Build\Postal Common\Debug\\" /Gd /TP /analyze- C:\USERS\ADMINISTRATOR\DOCUMENTS\_POSTAL_SOURCE\TRIGGER.CPP
^C:\USERS\ADMINISTRATOR\DOCUMENTS\_POSTAL_SOURCE\UPDATE.CPP
/c /I.\SDL2\INCLUDE /I.\RSPIX\SRC /I.\RSPIX\SRC\BLUE /I.\RSPIX\INC /I. /Z7 /nologo /W3 /WX- /Od /Oy- /D WIN32 /D _DEBUG /D NOSHMALLOC /D _WINDOWS /D TRACENASSERT /D WITH_STEAMWORKS=0 /D ALLOW_TWINSTICK /D DEBUG_LEVEL_CHEAT /D RSP_DEBUG_OUT_FILE /D "RSP_TRACE_LOG_NAME=\"Postal Plus.log\"" /D _VC80_UPGRADE=0x0710 /D _USING_V110_SDK71_ /Gm- /EHsc /MTd /GS /fp:precise /Zc:wchar_t /Zc:forScope /Zc:inline /Yu"RSPiX.H" /Fp".\BUILD\POSTAL COMMON\DEBUG/POSTAL COMMON.PCH" /Fo".\BUILD\POSTAL COMMON\DEBUG/" /Fd".\BUILD\POSTAL COMMON\DEBUG/POSTAL COMMON.PDB" /FR".\Build\Postal Common\Debug\\" /Gd /TP /analyze- C:\USERS\ADMINISTRATOR\DOCUMENTS\_POSTAL_SOURCE\UPDATE.CPP
^C:\USERS\ADMINISTRATOR\DOCUMENTS\_POSTAL_SOURCE\WARP.CPP
/c /I.\SDL2\INCLUDE /I.\RSPIX\SRC /I.\RSPIX\SRC\BLUE /I.\RSPIX\INC /I. /Z7 /nologo /W3 /WX- /Od /Oy- /D WIN32 /D _DEBUG /D NOSHMALLOC /D _WINDOWS /D TRACENASSERT /D WITH_STEAMWORKS=0 /D ALLOW_TWINSTICK /D DEBUG_LEVEL_CHEAT /D RSP_DEBUG_OUT_FILE /D "RSP_TRACE_LOG_NAME=\"Postal Plus.log\"" /D _VC80_UPGRADE=0x0710 /D _USING_V110_SDK71_ /Gm- /EHsc /MTd /GS /fp:precise /Zc:wchar_t /Zc:forScope /Zc:inline /Yu"RSPiX.H" /Fp".\BUILD\POSTAL COMMON\DEBUG/POSTAL COMMON.PCH" /Fo".\BUILD\POSTAL COMMON\DEBUG/" /Fd".\BUILD\POSTAL COMMON\DEBUG/POSTAL COMMON.PDB" /FR".\Build\Postal Common\Debug\\" /Gd /TP /analyze- C:\USERS\ADMINISTRATOR\DOCUMENTS\_POSTAL_SOURCE\WARP.CPP
^C:\USERS\ADMINISTRATOR\DOCUMENTS\_POSTAL_SOURCE\WEAPON.CPP
/c /I.\SDL2\INCLUDE /I.\RSPIX\SRC /I.\RSPIX\SRC\BLUE /I.\RSPIX\INC /I. /Z7 /nologo /W3 /WX- /Od /Oy- /D WIN32 /D _DEBUG /D NOSHMALLOC /D _WINDOWS /D TRACENASSERT /D WITH_STEAMWORKS=0 /D ALLOW_TWINSTICK /D DEBUG_LEVEL_CHEAT /D RSP_DEBUG_OUT_FILE /D "RSP_TRACE_LOG_NAME=\"Postal Plus.log\"" /D _VC80_UPGRADE=0x0710 /D _USING_V110_SDK71_ /Gm- /EHsc /MTd /GS /fp:precise /Zc:wchar_t /Zc:forScope /Zc:inline /Yu"RSPiX.H" /Fp".\BUILD\POSTAL COMMON\DEBUG/POSTAL COMMON.PCH" /Fo".\BUILD\POSTAL COMMON\DEBUG/" /Fd".\BUILD\POSTAL COMMON\DEBUG/POSTAL COMMON.PDB" /FR".\Build\Postal Common\Debug\\" /Gd /TP /analyze- C:\USERS\ADMINISTRATOR\DOCUMENTS\_POSTAL_SOURCE\WEAPON.CPP
^C:\USERS\ADMINISTRATOR\DOCUMENTS\_POSTAL_SOURCE\MENUTRANS.CPP
/c /I.\SDL2\INCLUDE /I.\RSPIX\SRC /I.\RSPIX\SRC\BLUE /I.\RSPIX\INC /I. /Z7 /nologo /W3 /WX- /Od /Oy- /D WIN32 /D _DEBUG /D NOSHMALLOC /D _WINDOWS /D TRACENASSERT /D WITH_STEAMWORKS=0 /D ALLOW_TWINSTICK /D DEBUG_LEVEL_CHEAT /D RSP_DEBUG_OUT_FILE /D "RSP_TRACE_LOG_NAME=\"Postal Plus.log\"" /D _VC80_UPGRADE=0x0710 /D _USING_V110_SDK71_ /Gm- /EHsc /MTd /GS /fp:precise /Zc:wchar_t /Zc:forScope /Zc:inline /Fo".\BUILD\POSTAL COMMON\DEBUG/" /Fd".\BUILD\POSTAL COMMON\DEBUG/POSTAL COMMON.PDB" /FR".\Build\Postal Common\Debug\\" /Gd /TP /analyze- C:\USERS\ADMINISTRATOR\DOCUMENTS\_POSTAL_SOURCE\MENUTRANS.CPP
^C:\USERS\ADMINISTRATOR\DOCUMENTS\_POSTAL_SOURCE\INPUTSETTINGSDLG.CPP
/c /I.\SDL2\INCLUDE /I.\RSPIX\SRC /I.\RSPIX\SRC\BLUE /I.\RSPIX\INC /I. /Z7 /nologo /W3 /WX- /Od /Oy- /D WIN32 /D _DEBUG /D NOSHMALLOC /D _WINDOWS /D TRACENASSERT /D WITH_STEAMWORKS=0 /D ALLOW_TWINSTICK /D DEBUG_LEVEL_CHEAT /D RSP_DEBUG_OUT_FILE /D "RSP_TRACE_LOG_NAME=\"Postal Plus.log\"" /D _VC80_UPGRADE=0x0710 /D _USING_V110_SDK71_ /Gm- /EHsc /MTd /GS /fp:precise /Zc:wchar_t /Zc:forScope /Zc:inline /Yu"RSPiX.H" /Fp".\BUILD\POSTAL COMMON\DEBUG/POSTAL COMMON.PCH" /Fo".\BUILD\POSTAL COMMON\DEBUG/" /Fd".\BUILD\POSTAL COMMON\DEBUG/POSTAL COMMON.PDB" /FR".\Build\Postal Common\Debug\\" /Gd /TP /analyze- C:\USERS\ADMINISTRATOR\DOCUMENTS\_POSTAL_SOURCE\INPUTSETTINGSDLG.CPP
^C:\USERS\ADMINISTRATOR\DOCUMENTS\_POSTAL_SOURCE\MEMFILEFEST.CPP
/c /I.\SDL2\INCLUDE /I.\RSPIX\SRC /I.\RSPIX\SRC\BLUE /I.\RSPIX\INC /I. /Z7 /nologo /W3 /WX- /Od /Oy- /D WIN32 /D _DEBUG /D NOSHMALLOC /D _WINDOWS /D TRACENASSERT /D WITH_STEAMWORKS=0 /D ALLOW_TWINSTICK /D DEBUG_LEVEL_CHEAT /D RSP_DEBUG_OUT_FILE /D "RSP_TRACE_LOG_NAME=\"Postal Plus.log\"" /D _VC80_UPGRADE=0x0710 /D _USING_V110_SDK71_ /Gm- /EHsc /MTd /GS /fp:precise /Zc:wchar_t /Zc:forScope /Zc:inline /Yu"RSPiX.H" /Fp".\BUILD\POSTAL COMMON\DEBUG/POSTAL COMMON.PCH" /Fo".\BUILD\POSTAL COMMON\DEBUG/" /Fd".\BUILD\POSTAL COMMON\DEBUG/POSTAL COMMON.PDB" /FR".\Build\Postal Common\Debug\\" /Gd /TP /analyze- C:\USERS\ADMINISTRATOR\DOCUMENTS\_POSTAL_SOURCE\MEMFILEFEST.CPP
^C:\USERS\ADMINISTRATOR\DOCUMENTS\_POSTAL_SOURCE\NETDLG.CPP
/c /I.\SDL2\INCLUDE /I.\RSPIX\SRC /I.\RSPIX\SRC\BLUE /I.\RSPIX\INC /I. /Z7 /nologo /W3 /WX- /Od /Oy- /D WIN32 /D _DEBUG /D NOSHMALLOC /D _WINDOWS /D TRACENASSERT /D WITH_STEAMWORKS=0 /D ALLOW_TWINSTICK /D DEBUG_LEVEL_CHEAT /D RSP_DEBUG_OUT_FILE /D "RSP_TRACE_LOG_NAME=\"Postal Plus.log\"" /D _VC80_UPGRADE=0x0710 /D _USING_V110_SDK71_ /Gm- /EHsc /MTd /GS /fp:precise /Zc:wchar_t /Zc:forScope /Zc:inline /Yu"RSPiX.H" /Fp".\BUILD\POSTAL COMMON\DEBUG/POSTAL COMMON.PCH" /Fo".\BUILD\POSTAL COMMON\DEBUG/" /Fd".\BUILD\POSTAL COMMON\DEBUG/POSTAL COMMON.PDB" /FR".\Build\Postal Common\Debug\\" /Gd /TP /analyze- C:\USERS\ADMINISTRATOR\DOCUMENTS\_POSTAL_SOURCE\NETDLG.CPP
^C:\USERS\ADMINISTRATOR\DOCUMENTS\_POSTAL_SOURCE\BARREL.CPP
/c /I.\SDL2\INCLUDE /I.\RSPIX\SRC /I.\RSPIX\SRC\BLUE /I.\RSPIX\INC /I. /Z7 /nologo /W3 /WX- /Od /Oy- /D WIN32 /D _DEBUG /D NOSHMALLOC /D _WINDOWS /D TRACENASSERT /D WITH_STEAMWORKS=0 /D ALLOW_TWINSTICK /D DEBUG_LEVEL_CHEAT /D RSP_DEBUG_OUT_FILE /D "RSP_TRACE_LOG_NAME=\"Postal Plus.log\"" /D _VC80_UPGRADE=0x0710 /D _USING_V110_SDK71_ /Gm- /EHsc /MTd /GS /fp:precise /Zc:wchar_t /Zc:forScope /Zc:inline /Yu"RSPiX.H" /Fp".\BUILD\POSTAL COMMON\DEBUG/POSTAL COMMON.PCH" /Fo".\BUILD\POSTAL COMMON\DEBUG/" /Fd".\BUILD\POSTAL COMMON\DEBUG/POSTAL COMMON.PDB" /FR".\Build\Postal Common\Debug\\" /Gd /TP /analyze- C:\USERS\ADMINISTRATOR\DOCUMENTS\_POSTAL_SOURCE\BARREL.CPP
^C:\USERS\ADMINISTRATOR\DOCUMENTS\_POSTAL_SOURCE\DOOFUS.CPP
/c /I.\SDL2\INCLUDE /I.\RSPIX\SRC /I.\RSPIX\SRC\BLUE /I.\RSPIX\INC /I. /Z7 /nologo /W3 /WX- /Od /Oy- /D WIN32 /D _DEBUG /D NOSHMALLOC /D _WINDOWS /D TRACENASSERT /D WITH_STEAMWORKS=0 /D ALLOW_TWINSTICK /D DEBUG_LEVEL_CHEAT /D RSP_DEBUG_OUT_FILE /D "RSP_TRACE_LOG_NAME=\"Postal Plus.log\"" /D _VC80_UPGRADE=0x0710 /D _USING_V110_SDK71_ /Gm- /EHsc /MTd /GS /fp:precise /Zc:wchar_t /Zc:forScope /Zc:inline /Yu"RSPiX.H" /Fp".\BUILD\POSTAL COMMON\DEBUG/POSTAL COMMON.PCH" /Fo".\BUILD\POSTAL COMMON\DEBUG/" /Fd".\BUILD\POSTAL COMMON\DEBUG/POSTAL COMMON.PDB" /FR".\Build\Postal Common\Debug\\" /Gd /TP /analyze- C:\USERS\ADMINISTRATOR\DOCUMENTS\_POSTAL_SOURCE\DOOFUS.CPP
^C:\USERS\ADMINISTRATOR\DOCUMENTS\_POSTAL_SOURCE\DUDE.CPP
/c /I.\SDL2\INCLUDE /I.\RSPIX\SRC /I.\RSPIX\SRC\BLUE /I.\RSPIX\INC /I. /Z7 /nologo /W3 /WX- /Od /Oy- /D WIN32 /D _DEBUG /D NOSHMALLOC /D _WINDOWS /D TRACENASSERT /D WITH_STEAMWORKS=0 /D ALLOW_TWINSTICK /D DEBUG_LEVEL_CHEAT /D RSP_DEBUG_OUT_FILE /D "RSP_TRACE_LOG_NAME=\"Postal Plus.log\"" /D _VC80_UPGRADE=0x0710 /D _USING_V110_SDK71_ /Gm- /EHsc /MTd /GS /fp:precise /Zc:wchar_t /Zc:forScope /Zc:inline /Yu"RSPiX.H" /Fp".\BUILD\POSTAL COMMON\DEBUG/POSTAL COMMON.PCH" /Fo".\BUILD\POSTAL COMMON\DEBUG/" /Fd".\BUILD\POSTAL COMMON\DEBUG/POSTAL COMMON.PDB" /FR".\Build\Postal Common\Debug\\" /Gd /TP /analyze- C:\USERS\ADMINISTRATOR\DOCUMENTS\_POSTAL_SOURCE\DUDE.CPP
^C:\USERS\ADMINISTRATOR\DOCUMENTS\_POSTAL_SOURCE\OSTRICH.CPP
/c /I.\SDL2\INCLUDE /I.\RSPIX\SRC /I.\RSPIX\SRC\BLUE /I.\RSPIX\INC /I. /Z7 /nologo /W3 /WX- /Od /Oy- /D WIN32 /D _DEBUG /D NOSHMALLOC /D _WINDOWS /D TRACENASSERT /D WITH_STEAMWORKS=0 /D ALLOW_TWINSTICK /D DEBUG_LEVEL_CHEAT /D RSP_DEBUG_OUT_FILE /D "RSP_TRACE_LOG_NAME=\"Postal Plus.log\"" /D _VC80_UPGRADE=0x0710 /D _USING_V110_SDK71_ /Gm- /EHsc /MTd /GS /fp:precise /Zc:wchar_t /Zc:forScope /Zc:inline /Yu"RSPiX.H" /Fp".\BUILD\POSTAL COMMON\DEBUG/POSTAL COMMON.PCH" /Fo".\BUILD\POSTAL COMMON\DEBUG/" /Fd".\BUILD\POSTAL COMMON\DEBUG/POSTAL COMMON.PDB" /FR".\Build\Postal Common\Debug\\" /Gd /TP /analyze- C:\USERS\ADMINISTRATOR\DOCUMENTS\_POSTAL_SOURCE\OSTRICH.CPP
^C:\USERS\ADMINISTRATOR\DOCUMENTS\_POSTAL_SOURCE\PERSON.CPP
/c /I.\SDL2\INCLUDE /I.\RSPIX\SRC /I.\RSPIX\SRC\BLUE /I.\RSPIX\INC /I. /Z7 /nologo /W3 /WX- /Od /Oy- /D WIN32 /D _DEBUG /D NOSHMALLOC /D _WINDOWS /D TRACENASSERT /D WITH_STEAMWORKS=0 /D ALLOW_TWINSTICK /D DEBUG_LEVEL_CHEAT /D RSP_DEBUG_OUT_FILE /D "RSP_TRACE_LOG_NAME=\"Postal Plus.log\"" /D _VC80_UPGRADE=0x0710 /D _USING_V110_SDK71_ /Gm- /EHsc /MTd /GS /fp:precise /Zc:wchar_t /Zc:forScope /Zc:inline /Yu"RSPiX.H" /Fp".\BUILD\POSTAL COMMON\DEBUG/POSTAL COMMON.PCH" /Fo".\BUILD\POSTAL COMMON\DEBUG/" /Fd".\BUILD\POSTAL COMMON\DEBUG/POSTAL COMMON.PDB" /FR".\Build\Postal Common\Debug\\" /Gd /TP /analyze- C:\USERS\ADMINISTRATOR\DOCUMENTS\_POSTAL_SOURCE\PERSON.CPP
^C:\USERS\ADMINISTRATOR\DOCUMENTS\_POSTAL_SOURCE\REALM.CPP
/c /I.\SDL2\INCLUDE /I.\RSPIX\SRC /I.\RSPIX\SRC\BLUE /I.\RSPIX\INC /I. /Z7 /nologo /W3 /WX- /Od /Oy- /D WIN32 /D _DEBUG /D NOSHMALLOC /D _WINDOWS /D TRACENASSERT /D WITH_STEAMWORKS=0 /D ALLOW_TWINSTICK /D DEBUG_LEVEL_CHEAT /D RSP_DEBUG_OUT_FILE /D "RSP_TRACE_LOG_NAME=\"Postal Plus.log\"" /D _VC80_UPGRADE=0x0710 /D _USING_V110_SDK71_ /Gm- /EHsc /MTd /GS /fp:precise /Zc:wchar_t /Zc:forScope /Zc:inline /Yu"RSPiX.H" /Fp".\BUILD\POSTAL COMMON\DEBUG/POSTAL COMMON.PCH" /Fo".\BUILD\POSTAL COMMON\DEBUG/" /Fd".\BUILD\POSTAL COMMON\DEBUG/POSTAL COMMON.PDB" /FR".\Build\Postal Common\Debug\\" /Gd /TP /analyze- C:\USERS\ADMINISTRATOR\DOCUMENTS\_POSTAL_SOURCE\REALM.CPP
^C:\USERS\ADMINISTRATOR\DOCUMENTS\_POSTAL_SOURCE\SENTRY.CPP
/c /I.\SDL2\INCLUDE /I.\RSPIX\SRC /I.\RSPIX\SRC\BLUE /I.\RSPIX\INC /I. /Z7 /nologo /W3 /WX- /Od /Oy- /D WIN32 /D _DEBUG /D NOSHMALLOC /D _WINDOWS /D TRACENASSERT /D WITH_STEAMWORKS=0 /D ALLOW_TWINSTICK /D DEBUG_LEVEL_CHEAT /D RSP_DEBUG_OUT_FILE /D "RSP_TRACE_LOG_NAME=\"Postal Plus.log\"" /D _VC80_UPGRADE=0x0710 /D _USING_V110_SDK71_ /Gm- /EHsc /MTd /GS /fp:precise /Zc:wchar_t /Zc:forScope /Zc:inline /Yu"RSPiX.H" /Fp".\BUILD\POSTAL COMMON\DEBUG/POSTAL COMMON.PCH" /Fo".\BUILD\POSTAL COMMON\DEBUG/" /Fd".\BUILD\POSTAL COMMON\DEBUG/POSTAL COMMON.PDB" /FR".\Build\Postal Common\Debug\\" /Gd /TP /analyze- C:\USERS\ADMINISTRATOR\DOCUMENTS\_POSTAL_SOURCE\SENTRY.CPP
^C:\USERS\ADMINISTRATOR\DOCUMENTS\_POSTAL_SOURCE\THING.CPP
/c /I.\SDL2\INCLUDE /I.\RSPIX\SRC /I.\RSPIX\SRC\BLUE /I.\RSPIX\INC /I. /Z7 /nologo /W3 /WX- /Od /Oy- /D WIN32 /D _DEBUG /D NOSHMALLOC /D _WINDOWS /D TRACENASSERT /D WITH_STEAMWORKS=0 /D ALLOW_TWINSTICK /D DEBUG_LEVEL_CHEAT /D RSP_DEBUG_OUT_FILE /D "RSP_TRACE_LOG_NAME=\"Postal Plus.log\"" /D _VC80_UPGRADE=0x0710 /D _USING_V110_SDK71_ /Gm- /EHsc /MTd /GS /fp:precise /Zc:wchar_t /Zc:forScope /Zc:inline /Yu"RSPiX.H" /Fp".\BUILD\POSTAL COMMON\DEBUG/POSTAL COMMON.PCH" /Fo".\BUILD\POSTAL COMMON\DEBUG/" /Fd".\BUILD\POSTAL COMMON\DEBUG/POSTAL COMMON.PDB" /FR".\Build\Postal Common\Debug\\" /Gd /TP /analyze- C:\USERS\ADMINISTRATOR\DOCUMENTS\_POSTAL_SOURCE\THING.CPP
^C:\USERS\ADMINISTRATOR\DOCUMENTS\_POSTAL_SOURCE\GAMEEDIT.CPP
/c /I.\SDL2\INCLUDE /I.\RSPIX\SRC /I.\RSPIX\SRC\BLUE /I.\RSPIX\INC /I. /Z7 /nologo /W3 /WX- /Od /Oy- /D WIN32 /D _DEBUG /D NOSHMALLOC /D _WINDOWS /D TRACENASSERT /D WITH_STEAMWORKS=0 /D ALLOW_TWINSTICK /D DEBUG_LEVEL_CHEAT /D RSP_DEBUG_OUT_FILE /D "RSP_TRACE_LOG_NAME=\"Postal Plus.log\"" /D _VC80_UPGRADE=0x0710 /D _USING_V110_SDK71_ /Gm- /EHsc /MTd /GS /fp:precise /Zc:wchar_t /Zc:forScope /Zc:inline /Fo".\BUILD\POSTAL COMMON\DEBUG/" /Fd".\BUILD\POSTAL COMMON\DEBUG/POSTAL COMMON.PDB" /FR".\Build\Postal Common\Debug\\" /Gd /TP /analyze- C:\USERS\ADMINISTRATOR\DOCUMENTS\_POSTAL_SOURCE\GAMEEDIT.CPP
