^C:\USERS\ADMINISTRATOR\DOCUMENTS\_POSTAL_SOURCE\BUILD\POSTAL PLUS\DEBUG\AIVARS.SBR|C:\USERS\ADMINISTRATOR\DOCUMENTS\_POSTAL_SOURCE\BUILD\POSTAL PLUS\DEBUG\BAND.SBR|C:\USERS\ADMINISTRATOR\DOCUMENTS\_POSTAL_SOURCE\BUILD\POSTAL PLUS\DEBUG\CREDITS.SBR|C:\USERS\ADMINISTRATOR\DOCUMENTS\_POSTAL_SOURCE\BUILD\POSTAL PLUS\DEBUG\GAME.SBR|C:\USERS\ADMINISTRATOR\DOCUMENTS\_POSTAL_SOURCE\BUILD\POSTAL PLUS\DEBUG\INPUT.SBR|C:\USERS\ADMINISTRATOR\DOCUMENTS\_POSTAL_SOURCE\BUILD\POSTAL PLUS\DEBUG\LOCALIZE.SBR|C:\USERS\ADMINISTRATOR\DOCUMENTS\_POSTAL_SOURCE\BUILD\POSTAL PLUS\DEBUG\MAIN.SBR|C:\USERS\ADMINISTRATOR\DOCUMENTS\_POSTAL_SOURCE\BUILD\POSTAL PLUS\DEBUG\MENUS.SBR|C:\USERS\ADMINISTRATOR\DOCUMENTS\_POSTAL_SOURCE\BUILD\POSTAL PLUS\DEBUG\PLAY.SBR|C:\USERS\ADMINISTRATOR\DOCUMENTS\_POSTAL_SOURCE\BUILD\POSTAL PLUS\DEBUG\SAMPLEMASTER.SBR|C:\USERS\ADMINISTRATOR\DOCUMENTS\_POSTAL_SOURCE\BUILD\POSTAL PLUS\DEBUG\TITLE.SBR
C:\WINDOWS\SYSTEM32\TZRES.DLL
C:\USERS\ADMINISTRATOR\DOCUMENTS\_POSTAL_SOURCE\BUILD\POSTAL PLUS\DEBUG\POSTALD.BSC
C:\USERS\ADMINISTRATOR\DOCUMENTS\_POSTAL_SOURCE\BUILD\POSTAL PLUS\DEBUG\AIVARS.SBR
C:\USERS\ADMINISTRATOR\DOCUMENTS\_POSTAL_SOURCE\BUILD\POSTAL PLUS\DEBUG\BAND.SBR
C:\USERS\ADMINISTRATOR\DOCUMENTS\_POSTAL_SOURCE\BUILD\POSTAL PLUS\DEBUG\CREDITS.SBR
C:\USERS\ADMINISTRATOR\DOCUMENTS\_POSTAL_SOURCE\BUILD\POSTAL PLUS\DEBUG\GAME.SBR
C:\USERS\ADMINISTRATOR\DOCUMENTS\_POSTAL_SOURCE\BUILD\POSTAL PLUS\DEBUG\INPUT.SBR
C:\USERS\ADMINISTRATOR\DOCUMENTS\_POSTAL_SOURCE\BUILD\POSTAL PLUS\DEBUG\LOCALIZE.SBR
C:\USERS\ADMINISTRATOR\DOCUMENTS\_POSTAL_SOURCE\BUILD\POSTAL PLUS\DEBUG\MAIN.SBR
C:\USERS\ADMINISTRATOR\DOCUMENTS\_POSTAL_SOURCE\BUILD\POSTAL PLUS\DEBUG\MENUS.SBR
C:\USERS\ADMINISTRATOR\DOCUMENTS\_POSTAL_SOURCE\BUILD\POSTAL PLUS\DEBUG\PLAY.SBR
C:\USERS\ADMINISTRATOR\DOCUMENTS\_POSTAL_SOURCE\BUILD\POSTAL PLUS\DEBUG\SAMPLEMASTER.SBR
C:\USERS\ADMINISTRATOR\DOCUMENTS\_POSTAL_SOURCE\BUILD\POSTAL PLUS\DEBUG\TITLE.SBR
