^C:\USERS\ADMINISTRATOR\DOCUMENTS\_POSTAL_SOURCE\BUILD\BLIT3D\DEBUG\BLIT3D.LIB|C:\USERS\ADMINISTRATOR\DOCUMENTS\_POSTAL_SOURCE\BUILD\BLIT\DEBUG\BLIT.LIB|C:\USERS\ADMINISTRATOR\DOCUMENTS\_POSTAL_SOURCE\BUILD\BLUE\DEBUG\BLUED.LIB|C:\USERS\ADMINISTRATOR\DOCUMENTS\_POSTAL_SOURCE\BUILD\CYAN\DEBUG\CYAN.LIB|C:\USERS\ADMINISTRATOR\DOCUMENTS\_POSTAL_SOURCE\BUILD\GREEN\DEBUG\GREEN.LIB|C:\USERS\ADMINISTRATOR\DOCUMENTS\_POSTAL_SOURCE\BUILD\ORANGE\DEBUG\ORANGE.LIB|C:\USERS\ADMINISTRATOR\DOCUMENTS\_POSTAL_SOURCE\BUILD\POSTAL COMMON\DEBUG\POSTAL COMMON.LIB|C:\USERS\ADMINISTRATOR\DOCUMENTS\_POSTAL_SOURCE\BUILD\POSTAL PLUS\DEBUG\AIVARS.OBJ|C:\USERS\ADMINISTRATOR\DOCUMENTS\_POSTAL_SOURCE\BUILD\POSTAL PLUS\DEBUG\BAND.OBJ|C:\USERS\ADMINISTRATOR\DOCUMENTS\_POSTAL_SOURCE\BUILD\POSTAL PLUS\DEBUG\CREDITS.OBJ|C:\USERS\ADMINISTRATOR\DOCUMENTS\_POSTAL_SOURCE\BUILD\POSTAL PLUS\DEBUG\GAME.OBJ|C:\USERS\ADMINISTRATOR\DOCUMENTS\_POSTAL_SOURCE\BUILD\POSTAL PLUS\DEBUG\INPUT.OBJ|C:\USERS\ADMINISTRATOR\DOCUMENTS\_POSTAL_SOURCE\BUILD\POSTAL PLUS\DEBUG\LOCALIZE.OBJ|C:\USERS\ADMINISTRATOR\DOCUMENTS\_POSTAL_SOURCE\BUILD\POSTAL PLUS\DEBUG\MAIN.OBJ|C:\USERS\ADMINISTRATOR\DOCUMENTS\_POSTAL_SOURCE\BUILD\POSTAL PLUS\DEBUG\MENUS.OBJ|C:\USERS\ADMINISTRATOR\DOCUMENTS\_POSTAL_SOURCE\BUILD\POSTAL PLUS\DEBUG\PLAY.OBJ|C:\USERS\ADMINISTRATOR\DOCUMENTS\_POSTAL_SOURCE\BUILD\POSTAL PLUS\DEBUG\POSTAL.RES|C:\USERS\ADMINISTRATOR\DOCUMENTS\_POSTAL_SOURCE\BUILD\POSTAL PLUS\DEBUG\SAMPLEMASTER.OBJ|C:\USERS\ADMINISTRATOR\DOCUMENTS\_POSTAL_SOURCE\BUILD\POSTAL PLUS\DEBUG\TITLE.OBJ|C:\USERS\ADMINISTRATOR\DOCUMENTS\_POSTAL_SOURCE\BUILD\WISHPIX\DEBUG\WISHPIX.LIB
C:\USERS\ADMINISTRATOR\DOCUMENTS\_POSTAL_SOURCE\TESTING\POSTALD.EXE
C:\USERS\ADMINISTRATOR\DOCUMENTS\_POSTAL_SOURCE\BUILD\POSTAL PLUS\DEBUG\POSTAL PLUSD.PDB
