^C:\USERS\ADMINISTRATOR\DOCUMENTS\_POSTAL_SOURCE\RSPIX\SRC\GREEN\3D\PIPELINE.CPP
C:\USERS\ADMINISTRATOR\DOCUMENTS\_POSTAL_SOURCE\RSPIX\SRC\BLUE\SYSTEM.H
C:\USERS\ADMINISTRATOR\DOCUMENTS\_POSTAL_SOURCE\RSPIX\SRC\BLUE\UNIX\UNIXSYSTEM.H
C:\USERS\ADMINISTRATOR\DOCUMENTS\_POSTAL_SOURCE\SDL2\INCLUDE\SDL.H
C:\USERS\ADMINISTRATOR\DOCUMENTS\_POSTAL_SOURCE\SDL2\INCLUDE\SDL_MAIN.H
C:\USERS\ADMINISTRATOR\DOCUMENTS\_POSTAL_SOURCE\SDL2\INCLUDE\SDL_STDINC.H
C:\USERS\ADMINISTRATOR\DOCUMENTS\_POSTAL_SOURCE\SDL2\INCLUDE\SDL_CONFIG.H
C:\USERS\ADMINISTRATOR\DOCUMENTS\_POSTAL_SOURCE\SDL2\INCLUDE\SDL_PLATFORM.H
C:\USERS\ADMINISTRATOR\DOCUMENTS\_POSTAL_SOURCE\SDL2\INCLUDE\BEGIN_CODE.H
C:\USERS\ADMINISTRATOR\DOCUMENTS\_POSTAL_SOURCE\SDL2\INCLUDE\CLOSE_CODE.H
C:\USERS\ADMINISTRATOR\DOCUMENTS\_POSTAL_SOURCE\SDL2\INCLUDE\SDL_CONFIG_WINDOWS.H
C:\PROGRAM FILES (X86)\WINDOWS KITS\10\INCLUDE\10.0.10240.0\UCRT\STDDEF.H
C:\PROGRAM FILES (X86)\WINDOWS KITS\10\INCLUDE\10.0.10240.0\UCRT\CORECRT.H
C:\PROGRAM FILES (X86)\MICROSOFT VISUAL STUDIO 14.0\VC\INCLUDE\VCRUNTIME.H
C:\PROGRAM FILES (X86)\MICROSOFT VISUAL STUDIO 14.0\VC\INCLUDE\SAL.H
C:\PROGRAM FILES (X86)\MICROSOFT VISUAL STUDIO 14.0\VC\INCLUDE\CONCURRENCYSAL.H
C:\PROGRAM FILES (X86)\MICROSOFT VISUAL STUDIO 14.0\VC\INCLUDE\VADEFS.H
C:\PROGRAM FILES (X86)\MICROSOFT VISUAL STUDIO 14.0\VC\INCLUDE\STDARG.H
C:\USERS\ADMINISTRATOR\DOCUMENTS\_POSTAL_SOURCE\SDL2\INCLUDE\SDL_ASSERT.H
C:\USERS\ADMINISTRATOR\DOCUMENTS\_POSTAL_SOURCE\SDL2\INCLUDE\SDL_ATOMIC.H
C:\PROGRAM FILES (X86)\MICROSOFT VISUAL STUDIO 14.0\VC\INCLUDE\INTRIN.H
C:\PROGRAM FILES (X86)\MICROSOFT VISUAL STUDIO 14.0\VC\INCLUDE\SETJMP.H
C:\PROGRAM FILES (X86)\MICROSOFT VISUAL STUDIO 14.0\VC\INCLUDE\IMMINTRIN.H
C:\PROGRAM FILES (X86)\MICROSOFT VISUAL STUDIO 14.0\VC\INCLUDE\WMMINTRIN.H
C:\PROGRAM FILES (X86)\MICROSOFT VISUAL STUDIO 14.0\VC\INCLUDE\NMMINTRIN.H
C:\PROGRAM FILES (X86)\MICROSOFT VISUAL STUDIO 14.0\VC\INCLUDE\SMMINTRIN.H
C:\PROGRAM FILES (X86)\MICROSOFT VISUAL STUDIO 14.0\VC\INCLUDE\TMMINTRIN.H
C:\PROGRAM FILES (X86)\MICROSOFT VISUAL STUDIO 14.0\VC\INCLUDE\PMMINTRIN.H
C:\PROGRAM FILES (X86)\MICROSOFT VISUAL STUDIO 14.0\VC\INCLUDE\EMMINTRIN.H
C:\PROGRAM FILES (X86)\MICROSOFT VISUAL STUDIO 14.0\VC\INCLUDE\XMMINTRIN.H
C:\PROGRAM FILES (X86)\MICROSOFT VISUAL STUDIO 14.0\VC\INCLUDE\MMINTRIN.H
C:\PROGRAM FILES (X86)\WINDOWS KITS\10\INCLUDE\10.0.10240.0\UCRT\MALLOC.H
C:\PROGRAM FILES (X86)\WINDOWS KITS\10\INCLUDE\10.0.10240.0\UCRT\CORECRT_MALLOC.H
C:\PROGRAM FILES (X86)\MICROSOFT VISUAL STUDIO 14.0\VC\INCLUDE\AMMINTRIN.H
C:\PROGRAM FILES (X86)\MICROSOFT VISUAL STUDIO 14.0\VC\INCLUDE\MM3DNOW.H
C:\USERS\ADMINISTRATOR\DOCUMENTS\_POSTAL_SOURCE\SDL2\INCLUDE\SDL_AUDIO.H
C:\USERS\ADMINISTRATOR\DOCUMENTS\_POSTAL_SOURCE\SDL2\INCLUDE\SDL_ERROR.H
C:\USERS\ADMINISTRATOR\DOCUMENTS\_POSTAL_SOURCE\SDL2\INCLUDE\SDL_ENDIAN.H
C:\USERS\ADMINISTRATOR\DOCUMENTS\_POSTAL_SOURCE\SDL2\INCLUDE\SDL_MUTEX.H
C:\USERS\ADMINISTRATOR\DOCUMENTS\_POSTAL_SOURCE\SDL2\INCLUDE\SDL_THREAD.H
C:\PROGRAM FILES (X86)\WINDOWS KITS\10\INCLUDE\10.0.10240.0\UCRT\PROCESS.H
C:\PROGRAM FILES (X86)\WINDOWS KITS\10\INCLUDE\10.0.10240.0\UCRT\CORECRT_STARTUP.H
C:\PROGRAM FILES (X86)\WINDOWS KITS\10\INCLUDE\10.0.10240.0\UCRT\MATH.H
C:\PROGRAM FILES (X86)\MICROSOFT VISUAL STUDIO 14.0\VC\INCLUDE\VCRUNTIME_STARTUP.H
C:\PROGRAM FILES (X86)\WINDOWS KITS\10\INCLUDE\10.0.10240.0\UCRT\CORECRT_WPROCESS.H
C:\USERS\ADMINISTRATOR\DOCUMENTS\_POSTAL_SOURCE\SDL2\INCLUDE\SDL_RWOPS.H
C:\USERS\ADMINISTRATOR\DOCUMENTS\_POSTAL_SOURCE\SDL2\INCLUDE\SDL_CLIPBOARD.H
C:\USERS\ADMINISTRATOR\DOCUMENTS\_POSTAL_SOURCE\SDL2\INCLUDE\SDL_CPUINFO.H
C:\USERS\ADMINISTRATOR\DOCUMENTS\_POSTAL_SOURCE\SDL2\INCLUDE\SDL_EVENTS.H
C:\USERS\ADMINISTRATOR\DOCUMENTS\_POSTAL_SOURCE\SDL2\INCLUDE\SDL_VIDEO.H
C:\USERS\ADMINISTRATOR\DOCUMENTS\_POSTAL_SOURCE\SDL2\INCLUDE\SDL_PIXELS.H
C:\USERS\ADMINISTRATOR\DOCUMENTS\_POSTAL_SOURCE\SDL2\INCLUDE\SDL_RECT.H
C:\USERS\ADMINISTRATOR\DOCUMENTS\_POSTAL_SOURCE\SDL2\INCLUDE\SDL_SURFACE.H
C:\USERS\ADMINISTRATOR\DOCUMENTS\_POSTAL_SOURCE\SDL2\INCLUDE\SDL_BLENDMODE.H
C:\USERS\ADMINISTRATOR\DOCUMENTS\_POSTAL_SOURCE\SDL2\INCLUDE\SDL_KEYBOARD.H
C:\USERS\ADMINISTRATOR\DOCUMENTS\_POSTAL_SOURCE\SDL2\INCLUDE\SDL_KEYCODE.H
C:\USERS\ADMINISTRATOR\DOCUMENTS\_POSTAL_SOURCE\SDL2\INCLUDE\SDL_SCANCODE.H
C:\USERS\ADMINISTRATOR\DOCUMENTS\_POSTAL_SOURCE\SDL2\INCLUDE\SDL_MOUSE.H
C:\USERS\ADMINISTRATOR\DOCUMENTS\_POSTAL_SOURCE\SDL2\INCLUDE\SDL_JOYSTICK.H
C:\USERS\ADMINISTRATOR\DOCUMENTS\_POSTAL_SOURCE\SDL2\INCLUDE\SDL_GAMECONTROLLER.H
C:\USERS\ADMINISTRATOR\DOCUMENTS\_POSTAL_SOURCE\SDL2\INCLUDE\SDL_QUIT.H
C:\USERS\ADMINISTRATOR\DOCUMENTS\_POSTAL_SOURCE\SDL2\INCLUDE\SDL_GESTURE.H
C:\USERS\ADMINISTRATOR\DOCUMENTS\_POSTAL_SOURCE\SDL2\INCLUDE\SDL_TOUCH.H
C:\USERS\ADMINISTRATOR\DOCUMENTS\_POSTAL_SOURCE\SDL2\INCLUDE\SDL_HAPTIC.H
C:\USERS\ADMINISTRATOR\DOCUMENTS\_POSTAL_SOURCE\SDL2\INCLUDE\SDL_HINTS.H
C:\USERS\ADMINISTRATOR\DOCUMENTS\_POSTAL_SOURCE\SDL2\INCLUDE\SDL_LOADSO.H
C:\USERS\ADMINISTRATOR\DOCUMENTS\_POSTAL_SOURCE\SDL2\INCLUDE\SDL_LOG.H
C:\USERS\ADMINISTRATOR\DOCUMENTS\_POSTAL_SOURCE\SDL2\INCLUDE\SDL_MESSAGEBOX.H
C:\USERS\ADMINISTRATOR\DOCUMENTS\_POSTAL_SOURCE\SDL2\INCLUDE\SDL_POWER.H
C:\USERS\ADMINISTRATOR\DOCUMENTS\_POSTAL_SOURCE\SDL2\INCLUDE\SDL_RENDER.H
C:\USERS\ADMINISTRATOR\DOCUMENTS\_POSTAL_SOURCE\SDL2\INCLUDE\SDL_SYSTEM.H
C:\USERS\ADMINISTRATOR\DOCUMENTS\_POSTAL_SOURCE\SDL2\INCLUDE\SDL_TIMER.H
C:\USERS\ADMINISTRATOR\DOCUMENTS\_POSTAL_SOURCE\SDL2\INCLUDE\SDL_VERSION.H
C:\PROGRAM FILES (X86)\WINDOWS KITS\10\INCLUDE\10.0.10240.0\UCRT\STDIO.H
C:\PROGRAM FILES (X86)\WINDOWS KITS\10\INCLUDE\10.0.10240.0\UCRT\CORECRT_WSTDIO.H
C:\PROGRAM FILES (X86)\WINDOWS KITS\10\INCLUDE\10.0.10240.0\UCRT\CORECRT_STDIO_CONFIG.H
C:\PROGRAM FILES (X86)\WINDOWS KITS\10\INCLUDE\10.0.10240.0\UCRT\STDLIB.H
C:\PROGRAM FILES (X86)\WINDOWS KITS\10\INCLUDE\10.0.10240.0\UCRT\CORECRT_SEARCH.H
C:\PROGRAM FILES (X86)\WINDOWS KITS\10\INCLUDE\10.0.10240.0\UCRT\CORECRT_WSTDLIB.H
C:\PROGRAM FILES (X86)\MICROSOFT VISUAL STUDIO 14.0\VC\INCLUDE\LIMITS.H
C:\PROGRAM FILES (X86)\WINDOWS KITS\10\INCLUDE\10.0.10240.0\UCRT\STRING.H
C:\PROGRAM FILES (X86)\WINDOWS KITS\10\INCLUDE\10.0.10240.0\UCRT\CORECRT_MEMORY.H
C:\PROGRAM FILES (X86)\WINDOWS KITS\10\INCLUDE\10.0.10240.0\UCRT\CORECRT_MEMCPY_S.H
C:\PROGRAM FILES (X86)\WINDOWS KITS\10\INCLUDE\10.0.10240.0\UCRT\ERRNO.H
C:\PROGRAM FILES (X86)\MICROSOFT VISUAL STUDIO 14.0\VC\INCLUDE\VCRUNTIME_STRING.H
C:\PROGRAM FILES (X86)\WINDOWS KITS\10\INCLUDE\10.0.10240.0\UCRT\CORECRT_WSTRING.H
C:\PROGRAM FILES (X86)\MICROSOFT VISUAL STUDIO 14.0\VC\INCLUDE\MAP
C:\PROGRAM FILES (X86)\MICROSOFT VISUAL STUDIO 14.0\VC\INCLUDE\TUPLE
C:\PROGRAM FILES (X86)\MICROSOFT VISUAL STUDIO 14.0\VC\INCLUDE\NEW
C:\PROGRAM FILES (X86)\MICROSOFT VISUAL STUDIO 14.0\VC\INCLUDE\EXCEPTION
C:\PROGRAM FILES (X86)\MICROSOFT VISUAL STUDIO 14.0\VC\INCLUDE\TYPE_TRAITS
C:\PROGRAM FILES (X86)\MICROSOFT VISUAL STUDIO 14.0\VC\INCLUDE\XSTDDEF
C:\PROGRAM FILES (X86)\MICROSOFT VISUAL STUDIO 14.0\VC\INCLUDE\CSTDDEF
C:\PROGRAM FILES (X86)\MICROSOFT VISUAL STUDIO 14.0\VC\INCLUDE\YVALS.H
C:\PROGRAM FILES (X86)\MICROSOFT VISUAL STUDIO 14.0\VC\INCLUDE\XKEYCHECK.H
C:\PROGRAM FILES (X86)\MICROSOFT VISUAL STUDIO 14.0\VC\INCLUDE\CRTDEFS.H
C:\PROGRAM FILES (X86)\MICROSOFT VISUAL STUDIO 14.0\VC\INCLUDE\USE_ANSI.H
C:\PROGRAM FILES (X86)\MICROSOFT VISUAL STUDIO 14.0\VC\INCLUDE\CSTDLIB
C:\PROGRAM FILES (X86)\MICROSOFT VISUAL STUDIO 14.0\VC\INCLUDE\INITIALIZER_LIST
C:\PROGRAM FILES (X86)\MICROSOFT VISUAL STUDIO 14.0\VC\INCLUDE\XTR1COMMON
C:\PROGRAM FILES (X86)\MICROSOFT VISUAL STUDIO 14.0\VC\INCLUDE\VCRUNTIME_EXCEPTION.H
C:\PROGRAM FILES (X86)\MICROSOFT VISUAL STUDIO 14.0\VC\INCLUDE\EH.H
C:\PROGRAM FILES (X86)\WINDOWS KITS\10\INCLUDE\10.0.10240.0\UCRT\CORECRT_TERMINATE.H
C:\PROGRAM FILES (X86)\MICROSOFT VISUAL STUDIO 14.0\VC\INCLUDE\VCRUNTIME_NEW.H
C:\PROGRAM FILES (X86)\MICROSOFT VISUAL STUDIO 14.0\VC\INCLUDE\XUTILITY
C:\PROGRAM FILES (X86)\MICROSOFT VISUAL STUDIO 14.0\VC\INCLUDE\CLIMITS
C:\PROGRAM FILES (X86)\MICROSOFT VISUAL STUDIO 14.0\VC\INCLUDE\UTILITY
C:\PROGRAM FILES (X86)\MICROSOFT VISUAL STUDIO 14.0\VC\INCLUDE\IOSFWD
C:\PROGRAM FILES (X86)\MICROSOFT VISUAL STUDIO 14.0\VC\INCLUDE\CSTDIO
C:\PROGRAM FILES (X86)\MICROSOFT VISUAL STUDIO 14.0\VC\INCLUDE\CSTRING
C:\PROGRAM FILES (X86)\MICROSOFT VISUAL STUDIO 14.0\VC\INCLUDE\CWCHAR
C:\PROGRAM FILES (X86)\WINDOWS KITS\10\INCLUDE\10.0.10240.0\UCRT\WCHAR.H
C:\PROGRAM FILES (X86)\WINDOWS KITS\10\INCLUDE\10.0.10240.0\UCRT\CORECRT_WCONIO.H
C:\PROGRAM FILES (X86)\WINDOWS KITS\10\INCLUDE\10.0.10240.0\UCRT\CORECRT_WCTYPE.H
C:\PROGRAM FILES (X86)\WINDOWS KITS\10\INCLUDE\10.0.10240.0\UCRT\CORECRT_WDIRECT.H
C:\PROGRAM FILES (X86)\WINDOWS KITS\10\INCLUDE\10.0.10240.0\UCRT\CORECRT_WIO.H
C:\PROGRAM FILES (X86)\WINDOWS KITS\10\INCLUDE\10.0.10240.0\UCRT\CORECRT_SHARE.H
C:\PROGRAM FILES (X86)\WINDOWS KITS\10\INCLUDE\10.0.10240.0\UCRT\CORECRT_WTIME.H
C:\PROGRAM FILES (X86)\WINDOWS KITS\10\INCLUDE\10.0.10240.0\UCRT\SYS\STAT.H
C:\PROGRAM FILES (X86)\WINDOWS KITS\10\INCLUDE\10.0.10240.0\UCRT\SYS\TYPES.H
C:\PROGRAM FILES (X86)\WINDOWS KITS\10\INCLUDE\10.0.10240.0\UCRT\CRTDBG.H
C:\PROGRAM FILES (X86)\MICROSOFT VISUAL STUDIO 14.0\VC\INCLUDE\VCRUNTIME_NEW_DEBUG.H
C:\PROGRAM FILES (X86)\MICROSOFT VISUAL STUDIO 14.0\VC\INCLUDE\XTREE
C:\PROGRAM FILES (X86)\MICROSOFT VISUAL STUDIO 14.0\VC\INCLUDE\XMEMORY
C:\PROGRAM FILES (X86)\MICROSOFT VISUAL STUDIO 14.0\VC\INCLUDE\XMEMORY0
C:\PROGRAM FILES (X86)\MICROSOFT VISUAL STUDIO 14.0\VC\INCLUDE\CSTDINT
C:\PROGRAM FILES (X86)\MICROSOFT VISUAL STUDIO 14.0\VC\INCLUDE\STDINT.H
C:\PROGRAM FILES (X86)\MICROSOFT VISUAL STUDIO 14.0\VC\INCLUDE\LIMITS
C:\PROGRAM FILES (X86)\MICROSOFT VISUAL STUDIO 14.0\VC\INCLUDE\YMATH.H
C:\PROGRAM FILES (X86)\MICROSOFT VISUAL STUDIO 14.0\VC\INCLUDE\CFLOAT
C:\PROGRAM FILES (X86)\WINDOWS KITS\10\INCLUDE\10.0.10240.0\UCRT\FLOAT.H
C:\PROGRAM FILES (X86)\MICROSOFT VISUAL STUDIO 14.0\VC\INCLUDE\CMATH
C:\PROGRAM FILES (X86)\MICROSOFT VISUAL STUDIO 14.0\VC\INCLUDE\XTGMATH.H
C:\PROGRAM FILES (X86)\MICROSOFT VISUAL STUDIO 14.0\VC\INCLUDE\XATOMIC0.H
C:\PROGRAM FILES (X86)\MICROSOFT VISUAL STUDIO 14.0\VC\INCLUDE\STDEXCEPT
C:\PROGRAM FILES (X86)\MICROSOFT VISUAL STUDIO 14.0\VC\INCLUDE\XSTRING
C:\USERS\ADMINISTRATOR\DOCUMENTS\_POSTAL_SOURCE\RSPIX\SRC\GREEN\3D\PIPELINE.H
C:\USERS\ADMINISTRATOR\DOCUMENTS\_POSTAL_SOURCE\RSPIX\SRC\ORANGE\QUICKMATH\VECTORMATH.H
C:\USERS\ADMINISTRATOR\DOCUMENTS\_POSTAL_SOURCE\RSPIX\SRC\ORANGE\FILE\FILE.H
C:\USERS\ADMINISTRATOR\DOCUMENTS\_POSTAL_SOURCE\RSPIX\SRC\BLUE\BLUE.H
C:\USERS\ADMINISTRATOR\DOCUMENTS\_POSTAL_SOURCE\RSPIX\SRC\BLUE\UNIX\UNIXBLUE.H
C:\USERS\ADMINISTRATOR\DOCUMENTS\_POSTAL_SOURCE\RSPIX\SRC\BLUE\UNIX\UNIXBLUEKEYS.H
C:\USERS\ADMINISTRATOR\DOCUMENTS\_POSTAL_SOURCE\RSPIX\SRC\ORANGE\QUICKMATH\QUICKMATH.H
C:\USERS\ADMINISTRATOR\DOCUMENTS\_POSTAL_SOURCE\RSPIX\SRC\GREEN\3D\TYPES3D.H
C:\USERS\ADMINISTRATOR\DOCUMENTS\_POSTAL_SOURCE\RSPIX\SRC\ORANGE\COLOR\COLORMATCH.H
C:\USERS\ADMINISTRATOR\DOCUMENTS\_POSTAL_SOURCE\RSPIX\SRC\GREEN\IMAGE\IMAGE.H
C:\USERS\ADMINISTRATOR\DOCUMENTS\_POSTAL_SOURCE\RSPIX\SRC\GREEN\IMAGE\PAL.H
C:\USERS\ADMINISTRATOR\DOCUMENTS\_POSTAL_SOURCE\RSPIX\SRC\GREEN\3D\ZBUFFER.H
C:\USERS\ADMINISTRATOR\DOCUMENTS\_POSTAL_SOURCE\RSPIX\SRC\ORANGE\QUICKMATH\FIXEDPOINT.H
C:\USERS\ADMINISTRATOR\DOCUMENTS\_POSTAL_SOURCE\RSPIX\SRC\GREEN\3D\RENDER.H
C:\USERS\ADMINISTRATOR\DOCUMENTS\_POSTAL_SOURCE\RSPIX\SRC\GREEN\BLIT\BLIT.H
C:\USERS\ADMINISTRATOR\DOCUMENTS\_POSTAL_SOURCE\RSPIX\SRC\GREEN\IMAGE\SPECIALTYP.H
C:\USERS\ADMINISTRATOR\DOCUMENTS\_POSTAL_SOURCE\RSPIX\SRC\GREEN\BLIT\CFNT.H
C:\USERS\ADMINISTRATOR\DOCUMENTS\_POSTAL_SOURCE\RSPIX\SRC\GREEN\BLIT\_BLITINT.H
C:\USERS\ADMINISTRATOR\DOCUMENTS\_POSTAL_SOURCE\RSPIX\SRC\GREEN\BLIT\RPRINT.H
^C:\USERS\ADMINISTRATOR\DOCUMENTS\_POSTAL_SOURCE\RSPIX\SRC\GREEN\3D\RENDER.CPP
C:\USERS\ADMINISTRATOR\DOCUMENTS\_POSTAL_SOURCE\RSPIX\SRC\BLUE\SYSTEM.H
C:\USERS\ADMINISTRATOR\DOCUMENTS\_POSTAL_SOURCE\RSPIX\SRC\BLUE\UNIX\UNIXSYSTEM.H
C:\USERS\ADMINISTRATOR\DOCUMENTS\_POSTAL_SOURCE\SDL2\INCLUDE\SDL.H
C:\USERS\ADMINISTRATOR\DOCUMENTS\_POSTAL_SOURCE\SDL2\INCLUDE\SDL_MAIN.H
C:\USERS\ADMINISTRATOR\DOCUMENTS\_POSTAL_SOURCE\SDL2\INCLUDE\SDL_STDINC.H
C:\USERS\ADMINISTRATOR\DOCUMENTS\_POSTAL_SOURCE\SDL2\INCLUDE\SDL_CONFIG.H
C:\USERS\ADMINISTRATOR\DOCUMENTS\_POSTAL_SOURCE\SDL2\INCLUDE\SDL_PLATFORM.H
C:\USERS\ADMINISTRATOR\DOCUMENTS\_POSTAL_SOURCE\SDL2\INCLUDE\BEGIN_CODE.H
C:\USERS\ADMINISTRATOR\DOCUMENTS\_POSTAL_SOURCE\SDL2\INCLUDE\CLOSE_CODE.H
C:\USERS\ADMINISTRATOR\DOCUMENTS\_POSTAL_SOURCE\SDL2\INCLUDE\SDL_CONFIG_WINDOWS.H
C:\PROGRAM FILES (X86)\WINDOWS KITS\10\INCLUDE\10.0.10240.0\UCRT\STDDEF.H
C:\PROGRAM FILES (X86)\WINDOWS KITS\10\INCLUDE\10.0.10240.0\UCRT\CORECRT.H
C:\PROGRAM FILES (X86)\MICROSOFT VISUAL STUDIO 14.0\VC\INCLUDE\VCRUNTIME.H
C:\PROGRAM FILES (X86)\MICROSOFT VISUAL STUDIO 14.0\VC\INCLUDE\SAL.H
C:\PROGRAM FILES (X86)\MICROSOFT VISUAL STUDIO 14.0\VC\INCLUDE\CONCURRENCYSAL.H
C:\PROGRAM FILES (X86)\MICROSOFT VISUAL STUDIO 14.0\VC\INCLUDE\VADEFS.H
C:\PROGRAM FILES (X86)\MICROSOFT VISUAL STUDIO 14.0\VC\INCLUDE\STDARG.H
C:\USERS\ADMINISTRATOR\DOCUMENTS\_POSTAL_SOURCE\SDL2\INCLUDE\SDL_ASSERT.H
C:\USERS\ADMINISTRATOR\DOCUMENTS\_POSTAL_SOURCE\SDL2\INCLUDE\SDL_ATOMIC.H
C:\PROGRAM FILES (X86)\MICROSOFT VISUAL STUDIO 14.0\VC\INCLUDE\INTRIN.H
C:\PROGRAM FILES (X86)\MICROSOFT VISUAL STUDIO 14.0\VC\INCLUDE\SETJMP.H
C:\PROGRAM FILES (X86)\MICROSOFT VISUAL STUDIO 14.0\VC\INCLUDE\IMMINTRIN.H
C:\PROGRAM FILES (X86)\MICROSOFT VISUAL STUDIO 14.0\VC\INCLUDE\WMMINTRIN.H
C:\PROGRAM FILES (X86)\MICROSOFT VISUAL STUDIO 14.0\VC\INCLUDE\NMMINTRIN.H
C:\PROGRAM FILES (X86)\MICROSOFT VISUAL STUDIO 14.0\VC\INCLUDE\SMMINTRIN.H
C:\PROGRAM FILES (X86)\MICROSOFT VISUAL STUDIO 14.0\VC\INCLUDE\TMMINTRIN.H
C:\PROGRAM FILES (X86)\MICROSOFT VISUAL STUDIO 14.0\VC\INCLUDE\PMMINTRIN.H
C:\PROGRAM FILES (X86)\MICROSOFT VISUAL STUDIO 14.0\VC\INCLUDE\EMMINTRIN.H
C:\PROGRAM FILES (X86)\MICROSOFT VISUAL STUDIO 14.0\VC\INCLUDE\XMMINTRIN.H
C:\PROGRAM FILES (X86)\MICROSOFT VISUAL STUDIO 14.0\VC\INCLUDE\MMINTRIN.H
C:\PROGRAM FILES (X86)\WINDOWS KITS\10\INCLUDE\10.0.10240.0\UCRT\MALLOC.H
C:\PROGRAM FILES (X86)\WINDOWS KITS\10\INCLUDE\10.0.10240.0\UCRT\CORECRT_MALLOC.H
C:\PROGRAM FILES (X86)\MICROSOFT VISUAL STUDIO 14.0\VC\INCLUDE\AMMINTRIN.H
C:\PROGRAM FILES (X86)\MICROSOFT VISUAL STUDIO 14.0\VC\INCLUDE\MM3DNOW.H
C:\USERS\ADMINISTRATOR\DOCUMENTS\_POSTAL_SOURCE\SDL2\INCLUDE\SDL_AUDIO.H
C:\USERS\ADMINISTRATOR\DOCUMENTS\_POSTAL_SOURCE\SDL2\INCLUDE\SDL_ERROR.H
C:\USERS\ADMINISTRATOR\DOCUMENTS\_POSTAL_SOURCE\SDL2\INCLUDE\SDL_ENDIAN.H
C:\USERS\ADMINISTRATOR\DOCUMENTS\_POSTAL_SOURCE\SDL2\INCLUDE\SDL_MUTEX.H
C:\USERS\ADMINISTRATOR\DOCUMENTS\_POSTAL_SOURCE\SDL2\INCLUDE\SDL_THREAD.H
C:\PROGRAM FILES (X86)\WINDOWS KITS\10\INCLUDE\10.0.10240.0\UCRT\PROCESS.H
C:\PROGRAM FILES (X86)\WINDOWS KITS\10\INCLUDE\10.0.10240.0\UCRT\CORECRT_STARTUP.H
C:\PROGRAM FILES (X86)\WINDOWS KITS\10\INCLUDE\10.0.10240.0\UCRT\MATH.H
C:\PROGRAM FILES (X86)\MICROSOFT VISUAL STUDIO 14.0\VC\INCLUDE\VCRUNTIME_STARTUP.H
C:\PROGRAM FILES (X86)\WINDOWS KITS\10\INCLUDE\10.0.10240.0\UCRT\CORECRT_WPROCESS.H
C:\USERS\ADMINISTRATOR\DOCUMENTS\_POSTAL_SOURCE\SDL2\INCLUDE\SDL_RWOPS.H
C:\USERS\ADMINISTRATOR\DOCUMENTS\_POSTAL_SOURCE\SDL2\INCLUDE\SDL_CLIPBOARD.H
C:\USERS\ADMINISTRATOR\DOCUMENTS\_POSTAL_SOURCE\SDL2\INCLUDE\SDL_CPUINFO.H
C:\USERS\ADMINISTRATOR\DOCUMENTS\_POSTAL_SOURCE\SDL2\INCLUDE\SDL_EVENTS.H
C:\USERS\ADMINISTRATOR\DOCUMENTS\_POSTAL_SOURCE\SDL2\INCLUDE\SDL_VIDEO.H
C:\USERS\ADMINISTRATOR\DOCUMENTS\_POSTAL_SOURCE\SDL2\INCLUDE\SDL_PIXELS.H
C:\USERS\ADMINISTRATOR\DOCUMENTS\_POSTAL_SOURCE\SDL2\INCLUDE\SDL_RECT.H
C:\USERS\ADMINISTRATOR\DOCUMENTS\_POSTAL_SOURCE\SDL2\INCLUDE\SDL_SURFACE.H
C:\USERS\ADMINISTRATOR\DOCUMENTS\_POSTAL_SOURCE\SDL2\INCLUDE\SDL_BLENDMODE.H
C:\USERS\ADMINISTRATOR\DOCUMENTS\_POSTAL_SOURCE\SDL2\INCLUDE\SDL_KEYBOARD.H
C:\USERS\ADMINISTRATOR\DOCUMENTS\_POSTAL_SOURCE\SDL2\INCLUDE\SDL_KEYCODE.H
C:\USERS\ADMINISTRATOR\DOCUMENTS\_POSTAL_SOURCE\SDL2\INCLUDE\SDL_SCANCODE.H
C:\USERS\ADMINISTRATOR\DOCUMENTS\_POSTAL_SOURCE\SDL2\INCLUDE\SDL_MOUSE.H
C:\USERS\ADMINISTRATOR\DOCUMENTS\_POSTAL_SOURCE\SDL2\INCLUDE\SDL_JOYSTICK.H
C:\USERS\ADMINISTRATOR\DOCUMENTS\_POSTAL_SOURCE\SDL2\INCLUDE\SDL_GAMECONTROLLER.H
C:\USERS\ADMINISTRATOR\DOCUMENTS\_POSTAL_SOURCE\SDL2\INCLUDE\SDL_QUIT.H
C:\USERS\ADMINISTRATOR\DOCUMENTS\_POSTAL_SOURCE\SDL2\INCLUDE\SDL_GESTURE.H
C:\USERS\ADMINISTRATOR\DOCUMENTS\_POSTAL_SOURCE\SDL2\INCLUDE\SDL_TOUCH.H
C:\USERS\ADMINISTRATOR\DOCUMENTS\_POSTAL_SOURCE\SDL2\INCLUDE\SDL_HAPTIC.H
C:\USERS\ADMINISTRATOR\DOCUMENTS\_POSTAL_SOURCE\SDL2\INCLUDE\SDL_HINTS.H
C:\USERS\ADMINISTRATOR\DOCUMENTS\_POSTAL_SOURCE\SDL2\INCLUDE\SDL_LOADSO.H
C:\USERS\ADMINISTRATOR\DOCUMENTS\_POSTAL_SOURCE\SDL2\INCLUDE\SDL_LOG.H
C:\USERS\ADMINISTRATOR\DOCUMENTS\_POSTAL_SOURCE\SDL2\INCLUDE\SDL_MESSAGEBOX.H
C:\USERS\ADMINISTRATOR\DOCUMENTS\_POSTAL_SOURCE\SDL2\INCLUDE\SDL_POWER.H
C:\USERS\ADMINISTRATOR\DOCUMENTS\_POSTAL_SOURCE\SDL2\INCLUDE\SDL_RENDER.H
C:\USERS\ADMINISTRATOR\DOCUMENTS\_POSTAL_SOURCE\SDL2\INCLUDE\SDL_SYSTEM.H
C:\USERS\ADMINISTRATOR\DOCUMENTS\_POSTAL_SOURCE\SDL2\INCLUDE\SDL_TIMER.H
C:\USERS\ADMINISTRATOR\DOCUMENTS\_POSTAL_SOURCE\SDL2\INCLUDE\SDL_VERSION.H
C:\PROGRAM FILES (X86)\WINDOWS KITS\10\INCLUDE\10.0.10240.0\UCRT\STDIO.H
C:\PROGRAM FILES (X86)\WINDOWS KITS\10\INCLUDE\10.0.10240.0\UCRT\CORECRT_WSTDIO.H
C:\PROGRAM FILES (X86)\WINDOWS KITS\10\INCLUDE\10.0.10240.0\UCRT\CORECRT_STDIO_CONFIG.H
C:\PROGRAM FILES (X86)\WINDOWS KITS\10\INCLUDE\10.0.10240.0\UCRT\STDLIB.H
C:\PROGRAM FILES (X86)\WINDOWS KITS\10\INCLUDE\10.0.10240.0\UCRT\CORECRT_SEARCH.H
C:\PROGRAM FILES (X86)\WINDOWS KITS\10\INCLUDE\10.0.10240.0\UCRT\CORECRT_WSTDLIB.H
C:\PROGRAM FILES (X86)\MICROSOFT VISUAL STUDIO 14.0\VC\INCLUDE\LIMITS.H
C:\PROGRAM FILES (X86)\WINDOWS KITS\10\INCLUDE\10.0.10240.0\UCRT\STRING.H
C:\PROGRAM FILES (X86)\WINDOWS KITS\10\INCLUDE\10.0.10240.0\UCRT\CORECRT_MEMORY.H
C:\PROGRAM FILES (X86)\WINDOWS KITS\10\INCLUDE\10.0.10240.0\UCRT\CORECRT_MEMCPY_S.H
C:\PROGRAM FILES (X86)\WINDOWS KITS\10\INCLUDE\10.0.10240.0\UCRT\ERRNO.H
C:\PROGRAM FILES (X86)\MICROSOFT VISUAL STUDIO 14.0\VC\INCLUDE\VCRUNTIME_STRING.H
C:\PROGRAM FILES (X86)\WINDOWS KITS\10\INCLUDE\10.0.10240.0\UCRT\CORECRT_WSTRING.H
C:\PROGRAM FILES (X86)\MICROSOFT VISUAL STUDIO 14.0\VC\INCLUDE\MAP
C:\PROGRAM FILES (X86)\MICROSOFT VISUAL STUDIO 14.0\VC\INCLUDE\TUPLE
C:\PROGRAM FILES (X86)\MICROSOFT VISUAL STUDIO 14.0\VC\INCLUDE\NEW
C:\PROGRAM FILES (X86)\MICROSOFT VISUAL STUDIO 14.0\VC\INCLUDE\EXCEPTION
C:\PROGRAM FILES (X86)\MICROSOFT VISUAL STUDIO 14.0\VC\INCLUDE\TYPE_TRAITS
C:\PROGRAM FILES (X86)\MICROSOFT VISUAL STUDIO 14.0\VC\INCLUDE\XSTDDEF
C:\PROGRAM FILES (X86)\MICROSOFT VISUAL STUDIO 14.0\VC\INCLUDE\CSTDDEF
C:\PROGRAM FILES (X86)\MICROSOFT VISUAL STUDIO 14.0\VC\INCLUDE\YVALS.H
C:\PROGRAM FILES (X86)\MICROSOFT VISUAL STUDIO 14.0\VC\INCLUDE\XKEYCHECK.H
C:\PROGRAM FILES (X86)\MICROSOFT VISUAL STUDIO 14.0\VC\INCLUDE\CRTDEFS.H
C:\PROGRAM FILES (X86)\MICROSOFT VISUAL STUDIO 14.0\VC\INCLUDE\USE_ANSI.H
C:\PROGRAM FILES (X86)\MICROSOFT VISUAL STUDIO 14.0\VC\INCLUDE\CSTDLIB
C:\PROGRAM FILES (X86)\MICROSOFT VISUAL STUDIO 14.0\VC\INCLUDE\INITIALIZER_LIST
C:\PROGRAM FILES (X86)\MICROSOFT VISUAL STUDIO 14.0\VC\INCLUDE\XTR1COMMON
C:\PROGRAM FILES (X86)\MICROSOFT VISUAL STUDIO 14.0\VC\INCLUDE\VCRUNTIME_EXCEPTION.H
C:\PROGRAM FILES (X86)\MICROSOFT VISUAL STUDIO 14.0\VC\INCLUDE\EH.H
C:\PROGRAM FILES (X86)\WINDOWS KITS\10\INCLUDE\10.0.10240.0\UCRT\CORECRT_TERMINATE.H
C:\PROGRAM FILES (X86)\MICROSOFT VISUAL STUDIO 14.0\VC\INCLUDE\VCRUNTIME_NEW.H
C:\PROGRAM FILES (X86)\MICROSOFT VISUAL STUDIO 14.0\VC\INCLUDE\XUTILITY
C:\PROGRAM FILES (X86)\MICROSOFT VISUAL STUDIO 14.0\VC\INCLUDE\CLIMITS
C:\PROGRAM FILES (X86)\MICROSOFT VISUAL STUDIO 14.0\VC\INCLUDE\UTILITY
C:\PROGRAM FILES (X86)\MICROSOFT VISUAL STUDIO 14.0\VC\INCLUDE\IOSFWD
C:\PROGRAM FILES (X86)\MICROSOFT VISUAL STUDIO 14.0\VC\INCLUDE\CSTDIO
C:\PROGRAM FILES (X86)\MICROSOFT VISUAL STUDIO 14.0\VC\INCLUDE\CSTRING
C:\PROGRAM FILES (X86)\MICROSOFT VISUAL STUDIO 14.0\VC\INCLUDE\CWCHAR
C:\PROGRAM FILES (X86)\WINDOWS KITS\10\INCLUDE\10.0.10240.0\UCRT\WCHAR.H
C:\PROGRAM FILES (X86)\WINDOWS KITS\10\INCLUDE\10.0.10240.0\UCRT\CORECRT_WCONIO.H
C:\PROGRAM FILES (X86)\WINDOWS KITS\10\INCLUDE\10.0.10240.0\UCRT\CORECRT_WCTYPE.H
C:\PROGRAM FILES (X86)\WINDOWS KITS\10\INCLUDE\10.0.10240.0\UCRT\CORECRT_WDIRECT.H
C:\PROGRAM FILES (X86)\WINDOWS KITS\10\INCLUDE\10.0.10240.0\UCRT\CORECRT_WIO.H
C:\PROGRAM FILES (X86)\WINDOWS KITS\10\INCLUDE\10.0.10240.0\UCRT\CORECRT_SHARE.H
C:\PROGRAM FILES (X86)\WINDOWS KITS\10\INCLUDE\10.0.10240.0\UCRT\CORECRT_WTIME.H
C:\PROGRAM FILES (X86)\WINDOWS KITS\10\INCLUDE\10.0.10240.0\UCRT\SYS\STAT.H
C:\PROGRAM FILES (X86)\WINDOWS KITS\10\INCLUDE\10.0.10240.0\UCRT\SYS\TYPES.H
C:\PROGRAM FILES (X86)\WINDOWS KITS\10\INCLUDE\10.0.10240.0\UCRT\CRTDBG.H
C:\PROGRAM FILES (X86)\MICROSOFT VISUAL STUDIO 14.0\VC\INCLUDE\VCRUNTIME_NEW_DEBUG.H
C:\PROGRAM FILES (X86)\MICROSOFT VISUAL STUDIO 14.0\VC\INCLUDE\XTREE
C:\PROGRAM FILES (X86)\MICROSOFT VISUAL STUDIO 14.0\VC\INCLUDE\XMEMORY
C:\PROGRAM FILES (X86)\MICROSOFT VISUAL STUDIO 14.0\VC\INCLUDE\XMEMORY0
C:\PROGRAM FILES (X86)\MICROSOFT VISUAL STUDIO 14.0\VC\INCLUDE\CSTDINT
C:\PROGRAM FILES (X86)\MICROSOFT VISUAL STUDIO 14.0\VC\INCLUDE\STDINT.H
C:\PROGRAM FILES (X86)\MICROSOFT VISUAL STUDIO 14.0\VC\INCLUDE\LIMITS
C:\PROGRAM FILES (X86)\MICROSOFT VISUAL STUDIO 14.0\VC\INCLUDE\YMATH.H
C:\PROGRAM FILES (X86)\MICROSOFT VISUAL STUDIO 14.0\VC\INCLUDE\CFLOAT
C:\PROGRAM FILES (X86)\WINDOWS KITS\10\INCLUDE\10.0.10240.0\UCRT\FLOAT.H
C:\PROGRAM FILES (X86)\MICROSOFT VISUAL STUDIO 14.0\VC\INCLUDE\CMATH
C:\PROGRAM FILES (X86)\MICROSOFT VISUAL STUDIO 14.0\VC\INCLUDE\XTGMATH.H
C:\PROGRAM FILES (X86)\MICROSOFT VISUAL STUDIO 14.0\VC\INCLUDE\XATOMIC0.H
C:\PROGRAM FILES (X86)\MICROSOFT VISUAL STUDIO 14.0\VC\INCLUDE\STDEXCEPT
C:\PROGRAM FILES (X86)\MICROSOFT VISUAL STUDIO 14.0\VC\INCLUDE\XSTRING
C:\USERS\ADMINISTRATOR\DOCUMENTS\_POSTAL_SOURCE\RSPIX\SRC\GREEN\3D\RENDER.H
C:\USERS\ADMINISTRATOR\DOCUMENTS\_POSTAL_SOURCE\RSPIX\SRC\BLUE\BLUE.H
C:\USERS\ADMINISTRATOR\DOCUMENTS\_POSTAL_SOURCE\RSPIX\SRC\BLUE\UNIX\UNIXBLUE.H
C:\USERS\ADMINISTRATOR\DOCUMENTS\_POSTAL_SOURCE\RSPIX\SRC\BLUE\UNIX\UNIXBLUEKEYS.H
C:\USERS\ADMINISTRATOR\DOCUMENTS\_POSTAL_SOURCE\RSPIX\SRC\GREEN\BLIT\BLIT.H
C:\USERS\ADMINISTRATOR\DOCUMENTS\_POSTAL_SOURCE\RSPIX\SRC\GREEN\IMAGE\IMAGE.H
C:\USERS\ADMINISTRATOR\DOCUMENTS\_POSTAL_SOURCE\RSPIX\SRC\GREEN\IMAGE\PAL.H
C:\USERS\ADMINISTRATOR\DOCUMENTS\_POSTAL_SOURCE\RSPIX\SRC\ORANGE\FILE\FILE.H
C:\USERS\ADMINISTRATOR\DOCUMENTS\_POSTAL_SOURCE\RSPIX\SRC\GREEN\IMAGE\SPECIALTYP.H
C:\USERS\ADMINISTRATOR\DOCUMENTS\_POSTAL_SOURCE\RSPIX\SRC\GREEN\BLIT\CFNT.H
C:\USERS\ADMINISTRATOR\DOCUMENTS\_POSTAL_SOURCE\RSPIX\SRC\GREEN\BLIT\_BLITINT.H
C:\USERS\ADMINISTRATOR\DOCUMENTS\_POSTAL_SOURCE\RSPIX\SRC\GREEN\BLIT\RPRINT.H
C:\USERS\ADMINISTRATOR\DOCUMENTS\_POSTAL_SOURCE\RSPIX\SRC\ORANGE\QUICKMATH\QUICKMATH.H
C:\USERS\ADMINISTRATOR\DOCUMENTS\_POSTAL_SOURCE\RSPIX\SRC\GREEN\3D\ZBUFFER.H
C:\USERS\ADMINISTRATOR\DOCUMENTS\_POSTAL_SOURCE\RSPIX\SRC\ORANGE\QUICKMATH\FIXEDPOINT.H
C:\USERS\ADMINISTRATOR\DOCUMENTS\_POSTAL_SOURCE\RSPIX\SRC\ORANGE\COLOR\COLORMATCH.H
C:\USERS\ADMINISTRATOR\DOCUMENTS\_POSTAL_SOURCE\RSPIX\SRC\ORANGE\QUICKMATH\VECTORMATH.H
^C:\USERS\ADMINISTRATOR\DOCUMENTS\_POSTAL_SOURCE\RSPIX\SRC\GREEN\3D\TYPES3D.CPP
C:\USERS\ADMINISTRATOR\DOCUMENTS\_POSTAL_SOURCE\RSPIX\SRC\GREEN\3D\TYPES3D.H
C:\USERS\ADMINISTRATOR\DOCUMENTS\_POSTAL_SOURCE\RSPIX\SRC\BLUE\BLUE.H
C:\USERS\ADMINISTRATOR\DOCUMENTS\_POSTAL_SOURCE\RSPIX\SRC\BLUE\UNIX\UNIXBLUE.H
C:\USERS\ADMINISTRATOR\DOCUMENTS\_POSTAL_SOURCE\RSPIX\SRC\BLUE\UNIX\UNIXSYSTEM.H
C:\USERS\ADMINISTRATOR\DOCUMENTS\_POSTAL_SOURCE\SDL2\INCLUDE\SDL.H
C:\USERS\ADMINISTRATOR\DOCUMENTS\_POSTAL_SOURCE\SDL2\INCLUDE\SDL_MAIN.H
C:\USERS\ADMINISTRATOR\DOCUMENTS\_POSTAL_SOURCE\SDL2\INCLUDE\SDL_STDINC.H
C:\USERS\ADMINISTRATOR\DOCUMENTS\_POSTAL_SOURCE\SDL2\INCLUDE\SDL_CONFIG.H
C:\USERS\ADMINISTRATOR\DOCUMENTS\_POSTAL_SOURCE\SDL2\INCLUDE\SDL_PLATFORM.H
C:\USERS\ADMINISTRATOR\DOCUMENTS\_POSTAL_SOURCE\SDL2\INCLUDE\BEGIN_CODE.H
C:\USERS\ADMINISTRATOR\DOCUMENTS\_POSTAL_SOURCE\SDL2\INCLUDE\CLOSE_CODE.H
C:\USERS\ADMINISTRATOR\DOCUMENTS\_POSTAL_SOURCE\SDL2\INCLUDE\SDL_CONFIG_WINDOWS.H
C:\PROGRAM FILES (X86)\WINDOWS KITS\10\INCLUDE\10.0.10240.0\UCRT\STDDEF.H
C:\PROGRAM FILES (X86)\WINDOWS KITS\10\INCLUDE\10.0.10240.0\UCRT\CORECRT.H
C:\PROGRAM FILES (X86)\MICROSOFT VISUAL STUDIO 14.0\VC\INCLUDE\VCRUNTIME.H
C:\PROGRAM FILES (X86)\MICROSOFT VISUAL STUDIO 14.0\VC\INCLUDE\SAL.H
C:\PROGRAM FILES (X86)\MICROSOFT VISUAL STUDIO 14.0\VC\INCLUDE\CONCURRENCYSAL.H
C:\PROGRAM FILES (X86)\MICROSOFT VISUAL STUDIO 14.0\VC\INCLUDE\VADEFS.H
C:\PROGRAM FILES (X86)\MICROSOFT VISUAL STUDIO 14.0\VC\INCLUDE\STDARG.H
C:\USERS\ADMINISTRATOR\DOCUMENTS\_POSTAL_SOURCE\SDL2\INCLUDE\SDL_ASSERT.H
C:\USERS\ADMINISTRATOR\DOCUMENTS\_POSTAL_SOURCE\SDL2\INCLUDE\SDL_ATOMIC.H
C:\PROGRAM FILES (X86)\MICROSOFT VISUAL STUDIO 14.0\VC\INCLUDE\INTRIN.H
C:\PROGRAM FILES (X86)\MICROSOFT VISUAL STUDIO 14.0\VC\INCLUDE\SETJMP.H
C:\PROGRAM FILES (X86)\MICROSOFT VISUAL STUDIO 14.0\VC\INCLUDE\IMMINTRIN.H
C:\PROGRAM FILES (X86)\MICROSOFT VISUAL STUDIO 14.0\VC\INCLUDE\WMMINTRIN.H
C:\PROGRAM FILES (X86)\MICROSOFT VISUAL STUDIO 14.0\VC\INCLUDE\NMMINTRIN.H
C:\PROGRAM FILES (X86)\MICROSOFT VISUAL STUDIO 14.0\VC\INCLUDE\SMMINTRIN.H
C:\PROGRAM FILES (X86)\MICROSOFT VISUAL STUDIO 14.0\VC\INCLUDE\TMMINTRIN.H
C:\PROGRAM FILES (X86)\MICROSOFT VISUAL STUDIO 14.0\VC\INCLUDE\PMMINTRIN.H
C:\PROGRAM FILES (X86)\MICROSOFT VISUAL STUDIO 14.0\VC\INCLUDE\EMMINTRIN.H
C:\PROGRAM FILES (X86)\MICROSOFT VISUAL STUDIO 14.0\VC\INCLUDE\XMMINTRIN.H
C:\PROGRAM FILES (X86)\MICROSOFT VISUAL STUDIO 14.0\VC\INCLUDE\MMINTRIN.H
C:\PROGRAM FILES (X86)\WINDOWS KITS\10\INCLUDE\10.0.10240.0\UCRT\MALLOC.H
C:\PROGRAM FILES (X86)\WINDOWS KITS\10\INCLUDE\10.0.10240.0\UCRT\CORECRT_MALLOC.H
C:\PROGRAM FILES (X86)\MICROSOFT VISUAL STUDIO 14.0\VC\INCLUDE\AMMINTRIN.H
C:\PROGRAM FILES (X86)\MICROSOFT VISUAL STUDIO 14.0\VC\INCLUDE\MM3DNOW.H
C:\USERS\ADMINISTRATOR\DOCUMENTS\_POSTAL_SOURCE\SDL2\INCLUDE\SDL_AUDIO.H
C:\USERS\ADMINISTRATOR\DOCUMENTS\_POSTAL_SOURCE\SDL2\INCLUDE\SDL_ERROR.H
C:\USERS\ADMINISTRATOR\DOCUMENTS\_POSTAL_SOURCE\SDL2\INCLUDE\SDL_ENDIAN.H
C:\USERS\ADMINISTRATOR\DOCUMENTS\_POSTAL_SOURCE\SDL2\INCLUDE\SDL_MUTEX.H
C:\USERS\ADMINISTRATOR\DOCUMENTS\_POSTAL_SOURCE\SDL2\INCLUDE\SDL_THREAD.H
C:\PROGRAM FILES (X86)\WINDOWS KITS\10\INCLUDE\10.0.10240.0\UCRT\PROCESS.H
C:\PROGRAM FILES (X86)\WINDOWS KITS\10\INCLUDE\10.0.10240.0\UCRT\CORECRT_STARTUP.H
C:\PROGRAM FILES (X86)\WINDOWS KITS\10\INCLUDE\10.0.10240.0\UCRT\MATH.H
C:\PROGRAM FILES (X86)\MICROSOFT VISUAL STUDIO 14.0\VC\INCLUDE\VCRUNTIME_STARTUP.H
C:\PROGRAM FILES (X86)\WINDOWS KITS\10\INCLUDE\10.0.10240.0\UCRT\CORECRT_WPROCESS.H
C:\USERS\ADMINISTRATOR\DOCUMENTS\_POSTAL_SOURCE\SDL2\INCLUDE\SDL_RWOPS.H
C:\USERS\ADMINISTRATOR\DOCUMENTS\_POSTAL_SOURCE\SDL2\INCLUDE\SDL_CLIPBOARD.H
C:\USERS\ADMINISTRATOR\DOCUMENTS\_POSTAL_SOURCE\SDL2\INCLUDE\SDL_CPUINFO.H
C:\USERS\ADMINISTRATOR\DOCUMENTS\_POSTAL_SOURCE\SDL2\INCLUDE\SDL_EVENTS.H
C:\USERS\ADMINISTRATOR\DOCUMENTS\_POSTAL_SOURCE\SDL2\INCLUDE\SDL_VIDEO.H
C:\USERS\ADMINISTRATOR\DOCUMENTS\_POSTAL_SOURCE\SDL2\INCLUDE\SDL_PIXELS.H
C:\USERS\ADMINISTRATOR\DOCUMENTS\_POSTAL_SOURCE\SDL2\INCLUDE\SDL_RECT.H
C:\USERS\ADMINISTRATOR\DOCUMENTS\_POSTAL_SOURCE\SDL2\INCLUDE\SDL_SURFACE.H
C:\USERS\ADMINISTRATOR\DOCUMENTS\_POSTAL_SOURCE\SDL2\INCLUDE\SDL_BLENDMODE.H
C:\USERS\ADMINISTRATOR\DOCUMENTS\_POSTAL_SOURCE\SDL2\INCLUDE\SDL_KEYBOARD.H
C:\USERS\ADMINISTRATOR\DOCUMENTS\_POSTAL_SOURCE\SDL2\INCLUDE\SDL_KEYCODE.H
C:\USERS\ADMINISTRATOR\DOCUMENTS\_POSTAL_SOURCE\SDL2\INCLUDE\SDL_SCANCODE.H
C:\USERS\ADMINISTRATOR\DOCUMENTS\_POSTAL_SOURCE\SDL2\INCLUDE\SDL_MOUSE.H
C:\USERS\ADMINISTRATOR\DOCUMENTS\_POSTAL_SOURCE\SDL2\INCLUDE\SDL_JOYSTICK.H
C:\USERS\ADMINISTRATOR\DOCUMENTS\_POSTAL_SOURCE\SDL2\INCLUDE\SDL_GAMECONTROLLER.H
C:\USERS\ADMINISTRATOR\DOCUMENTS\_POSTAL_SOURCE\SDL2\INCLUDE\SDL_QUIT.H
C:\USERS\ADMINISTRATOR\DOCUMENTS\_POSTAL_SOURCE\SDL2\INCLUDE\SDL_GESTURE.H
C:\USERS\ADMINISTRATOR\DOCUMENTS\_POSTAL_SOURCE\SDL2\INCLUDE\SDL_TOUCH.H
C:\USERS\ADMINISTRATOR\DOCUMENTS\_POSTAL_SOURCE\SDL2\INCLUDE\SDL_HAPTIC.H
C:\USERS\ADMINISTRATOR\DOCUMENTS\_POSTAL_SOURCE\SDL2\INCLUDE\SDL_HINTS.H
C:\USERS\ADMINISTRATOR\DOCUMENTS\_POSTAL_SOURCE\SDL2\INCLUDE\SDL_LOADSO.H
C:\USERS\ADMINISTRATOR\DOCUMENTS\_POSTAL_SOURCE\SDL2\INCLUDE\SDL_LOG.H
C:\USERS\ADMINISTRATOR\DOCUMENTS\_POSTAL_SOURCE\SDL2\INCLUDE\SDL_MESSAGEBOX.H
C:\USERS\ADMINISTRATOR\DOCUMENTS\_POSTAL_SOURCE\SDL2\INCLUDE\SDL_POWER.H
C:\USERS\ADMINISTRATOR\DOCUMENTS\_POSTAL_SOURCE\SDL2\INCLUDE\SDL_RENDER.H
C:\USERS\ADMINISTRATOR\DOCUMENTS\_POSTAL_SOURCE\SDL2\INCLUDE\SDL_SYSTEM.H
C:\USERS\ADMINISTRATOR\DOCUMENTS\_POSTAL_SOURCE\SDL2\INCLUDE\SDL_TIMER.H
C:\USERS\ADMINISTRATOR\DOCUMENTS\_POSTAL_SOURCE\SDL2\INCLUDE\SDL_VERSION.H
C:\PROGRAM FILES (X86)\WINDOWS KITS\10\INCLUDE\10.0.10240.0\UCRT\STDIO.H
C:\PROGRAM FILES (X86)\WINDOWS KITS\10\INCLUDE\10.0.10240.0\UCRT\CORECRT_WSTDIO.H
C:\PROGRAM FILES (X86)\WINDOWS KITS\10\INCLUDE\10.0.10240.0\UCRT\CORECRT_STDIO_CONFIG.H
C:\PROGRAM FILES (X86)\WINDOWS KITS\10\INCLUDE\10.0.10240.0\UCRT\STDLIB.H
C:\PROGRAM FILES (X86)\WINDOWS KITS\10\INCLUDE\10.0.10240.0\UCRT\CORECRT_SEARCH.H
C:\PROGRAM FILES (X86)\WINDOWS KITS\10\INCLUDE\10.0.10240.0\UCRT\CORECRT_WSTDLIB.H
C:\PROGRAM FILES (X86)\MICROSOFT VISUAL STUDIO 14.0\VC\INCLUDE\LIMITS.H
C:\PROGRAM FILES (X86)\WINDOWS KITS\10\INCLUDE\10.0.10240.0\UCRT\STRING.H
C:\PROGRAM FILES (X86)\WINDOWS KITS\10\INCLUDE\10.0.10240.0\UCRT\CORECRT_MEMORY.H
C:\PROGRAM FILES (X86)\WINDOWS KITS\10\INCLUDE\10.0.10240.0\UCRT\CORECRT_MEMCPY_S.H
C:\PROGRAM FILES (X86)\WINDOWS KITS\10\INCLUDE\10.0.10240.0\UCRT\ERRNO.H
C:\PROGRAM FILES (X86)\MICROSOFT VISUAL STUDIO 14.0\VC\INCLUDE\VCRUNTIME_STRING.H
C:\PROGRAM FILES (X86)\WINDOWS KITS\10\INCLUDE\10.0.10240.0\UCRT\CORECRT_WSTRING.H
C:\PROGRAM FILES (X86)\MICROSOFT VISUAL STUDIO 14.0\VC\INCLUDE\MAP
C:\PROGRAM FILES (X86)\MICROSOFT VISUAL STUDIO 14.0\VC\INCLUDE\TUPLE
C:\PROGRAM FILES (X86)\MICROSOFT VISUAL STUDIO 14.0\VC\INCLUDE\NEW
C:\PROGRAM FILES (X86)\MICROSOFT VISUAL STUDIO 14.0\VC\INCLUDE\EXCEPTION
C:\PROGRAM FILES (X86)\MICROSOFT VISUAL STUDIO 14.0\VC\INCLUDE\TYPE_TRAITS
C:\PROGRAM FILES (X86)\MICROSOFT VISUAL STUDIO 14.0\VC\INCLUDE\XSTDDEF
C:\PROGRAM FILES (X86)\MICROSOFT VISUAL STUDIO 14.0\VC\INCLUDE\CSTDDEF
C:\PROGRAM FILES (X86)\MICROSOFT VISUAL STUDIO 14.0\VC\INCLUDE\YVALS.H
C:\PROGRAM FILES (X86)\MICROSOFT VISUAL STUDIO 14.0\VC\INCLUDE\XKEYCHECK.H
C:\PROGRAM FILES (X86)\MICROSOFT VISUAL STUDIO 14.0\VC\INCLUDE\CRTDEFS.H
C:\PROGRAM FILES (X86)\MICROSOFT VISUAL STUDIO 14.0\VC\INCLUDE\USE_ANSI.H
C:\PROGRAM FILES (X86)\MICROSOFT VISUAL STUDIO 14.0\VC\INCLUDE\CSTDLIB
C:\PROGRAM FILES (X86)\MICROSOFT VISUAL STUDIO 14.0\VC\INCLUDE\INITIALIZER_LIST
C:\PROGRAM FILES (X86)\MICROSOFT VISUAL STUDIO 14.0\VC\INCLUDE\XTR1COMMON
C:\PROGRAM FILES (X86)\MICROSOFT VISUAL STUDIO 14.0\VC\INCLUDE\VCRUNTIME_EXCEPTION.H
C:\PROGRAM FILES (X86)\MICROSOFT VISUAL STUDIO 14.0\VC\INCLUDE\EH.H
C:\PROGRAM FILES (X86)\WINDOWS KITS\10\INCLUDE\10.0.10240.0\UCRT\CORECRT_TERMINATE.H
C:\PROGRAM FILES (X86)\MICROSOFT VISUAL STUDIO 14.0\VC\INCLUDE\VCRUNTIME_NEW.H
C:\PROGRAM FILES (X86)\MICROSOFT VISUAL STUDIO 14.0\VC\INCLUDE\XUTILITY
C:\PROGRAM FILES (X86)\MICROSOFT VISUAL STUDIO 14.0\VC\INCLUDE\CLIMITS
C:\PROGRAM FILES (X86)\MICROSOFT VISUAL STUDIO 14.0\VC\INCLUDE\UTILITY
C:\PROGRAM FILES (X86)\MICROSOFT VISUAL STUDIO 14.0\VC\INCLUDE\IOSFWD
C:\PROGRAM FILES (X86)\MICROSOFT VISUAL STUDIO 14.0\VC\INCLUDE\CSTDIO
C:\PROGRAM FILES (X86)\MICROSOFT VISUAL STUDIO 14.0\VC\INCLUDE\CSTRING
C:\PROGRAM FILES (X86)\MICROSOFT VISUAL STUDIO 14.0\VC\INCLUDE\CWCHAR
C:\PROGRAM FILES (X86)\WINDOWS KITS\10\INCLUDE\10.0.10240.0\UCRT\WCHAR.H
C:\PROGRAM FILES (X86)\WINDOWS KITS\10\INCLUDE\10.0.10240.0\UCRT\CORECRT_WCONIO.H
C:\PROGRAM FILES (X86)\WINDOWS KITS\10\INCLUDE\10.0.10240.0\UCRT\CORECRT_WCTYPE.H
C:\PROGRAM FILES (X86)\WINDOWS KITS\10\INCLUDE\10.0.10240.0\UCRT\CORECRT_WDIRECT.H
C:\PROGRAM FILES (X86)\WINDOWS KITS\10\INCLUDE\10.0.10240.0\UCRT\CORECRT_WIO.H
C:\PROGRAM FILES (X86)\WINDOWS KITS\10\INCLUDE\10.0.10240.0\UCRT\CORECRT_SHARE.H
C:\PROGRAM FILES (X86)\WINDOWS KITS\10\INCLUDE\10.0.10240.0\UCRT\CORECRT_WTIME.H
C:\PROGRAM FILES (X86)\WINDOWS KITS\10\INCLUDE\10.0.10240.0\UCRT\SYS\STAT.H
C:\PROGRAM FILES (X86)\WINDOWS KITS\10\INCLUDE\10.0.10240.0\UCRT\SYS\TYPES.H
C:\PROGRAM FILES (X86)\WINDOWS KITS\10\INCLUDE\10.0.10240.0\UCRT\CRTDBG.H
C:\PROGRAM FILES (X86)\MICROSOFT VISUAL STUDIO 14.0\VC\INCLUDE\VCRUNTIME_NEW_DEBUG.H
C:\PROGRAM FILES (X86)\MICROSOFT VISUAL STUDIO 14.0\VC\INCLUDE\XTREE
C:\PROGRAM FILES (X86)\MICROSOFT VISUAL STUDIO 14.0\VC\INCLUDE\XMEMORY
C:\PROGRAM FILES (X86)\MICROSOFT VISUAL STUDIO 14.0\VC\INCLUDE\XMEMORY0
C:\PROGRAM FILES (X86)\MICROSOFT VISUAL STUDIO 14.0\VC\INCLUDE\CSTDINT
C:\PROGRAM FILES (X86)\MICROSOFT VISUAL STUDIO 14.0\VC\INCLUDE\STDINT.H
C:\PROGRAM FILES (X86)\MICROSOFT VISUAL STUDIO 14.0\VC\INCLUDE\LIMITS
C:\PROGRAM FILES (X86)\MICROSOFT VISUAL STUDIO 14.0\VC\INCLUDE\YMATH.H
C:\PROGRAM FILES (X86)\MICROSOFT VISUAL STUDIO 14.0\VC\INCLUDE\CFLOAT
C:\PROGRAM FILES (X86)\WINDOWS KITS\10\INCLUDE\10.0.10240.0\UCRT\FLOAT.H
C:\PROGRAM FILES (X86)\MICROSOFT VISUAL STUDIO 14.0\VC\INCLUDE\CMATH
C:\PROGRAM FILES (X86)\MICROSOFT VISUAL STUDIO 14.0\VC\INCLUDE\XTGMATH.H
C:\PROGRAM FILES (X86)\MICROSOFT VISUAL STUDIO 14.0\VC\INCLUDE\XATOMIC0.H
C:\PROGRAM FILES (X86)\MICROSOFT VISUAL STUDIO 14.0\VC\INCLUDE\STDEXCEPT
C:\PROGRAM FILES (X86)\MICROSOFT VISUAL STUDIO 14.0\VC\INCLUDE\XSTRING
C:\USERS\ADMINISTRATOR\DOCUMENTS\_POSTAL_SOURCE\RSPIX\SRC\BLUE\UNIX\UNIXBLUEKEYS.H
C:\USERS\ADMINISTRATOR\DOCUMENTS\_POSTAL_SOURCE\RSPIX\SRC\ORANGE\FILE\FILE.H
C:\USERS\ADMINISTRATOR\DOCUMENTS\_POSTAL_SOURCE\RSPIX\SRC\ORANGE\COLOR\COLORMATCH.H
C:\USERS\ADMINISTRATOR\DOCUMENTS\_POSTAL_SOURCE\RSPIX\SRC\BLUE\SYSTEM.H
C:\USERS\ADMINISTRATOR\DOCUMENTS\_POSTAL_SOURCE\RSPIX\SRC\GREEN\IMAGE\IMAGE.H
C:\USERS\ADMINISTRATOR\DOCUMENTS\_POSTAL_SOURCE\RSPIX\SRC\GREEN\IMAGE\PAL.H
C:\USERS\ADMINISTRATOR\DOCUMENTS\_POSTAL_SOURCE\RSPIX\SRC\ORANGE\QUICKMATH\VECTORMATH.H
C:\USERS\ADMINISTRATOR\DOCUMENTS\_POSTAL_SOURCE\RSPIX\SRC\ORANGE\QUICKMATH\QUICKMATH.H
^C:\USERS\ADMINISTRATOR\DOCUMENTS\_POSTAL_SOURCE\RSPIX\SRC\GREEN\3D\ZBUFFER.CPP
C:\PROGRAM FILES (X86)\WINDOWS KITS\10\INCLUDE\10.0.10240.0\UCRT\STDLIB.H
C:\PROGRAM FILES (X86)\WINDOWS KITS\10\INCLUDE\10.0.10240.0\UCRT\CORECRT.H
C:\PROGRAM FILES (X86)\MICROSOFT VISUAL STUDIO 14.0\VC\INCLUDE\VCRUNTIME.H
C:\PROGRAM FILES (X86)\MICROSOFT VISUAL STUDIO 14.0\VC\INCLUDE\SAL.H
C:\PROGRAM FILES (X86)\MICROSOFT VISUAL STUDIO 14.0\VC\INCLUDE\CONCURRENCYSAL.H
C:\PROGRAM FILES (X86)\MICROSOFT VISUAL STUDIO 14.0\VC\INCLUDE\VADEFS.H
C:\PROGRAM FILES (X86)\WINDOWS KITS\10\INCLUDE\10.0.10240.0\UCRT\CORECRT_MALLOC.H
C:\PROGRAM FILES (X86)\WINDOWS KITS\10\INCLUDE\10.0.10240.0\UCRT\CORECRT_SEARCH.H
C:\PROGRAM FILES (X86)\WINDOWS KITS\10\INCLUDE\10.0.10240.0\UCRT\STDDEF.H
C:\PROGRAM FILES (X86)\WINDOWS KITS\10\INCLUDE\10.0.10240.0\UCRT\CORECRT_WSTDLIB.H
C:\PROGRAM FILES (X86)\MICROSOFT VISUAL STUDIO 14.0\VC\INCLUDE\LIMITS.H
C:\USERS\ADMINISTRATOR\DOCUMENTS\_POSTAL_SOURCE\RSPIX\SRC\BLUE\SYSTEM.H
C:\USERS\ADMINISTRATOR\DOCUMENTS\_POSTAL_SOURCE\RSPIX\SRC\BLUE\UNIX\UNIXSYSTEM.H
C:\USERS\ADMINISTRATOR\DOCUMENTS\_POSTAL_SOURCE\SDL2\INCLUDE\SDL.H
C:\USERS\ADMINISTRATOR\DOCUMENTS\_POSTAL_SOURCE\SDL2\INCLUDE\SDL_MAIN.H
C:\USERS\ADMINISTRATOR\DOCUMENTS\_POSTAL_SOURCE\SDL2\INCLUDE\SDL_STDINC.H
C:\USERS\ADMINISTRATOR\DOCUMENTS\_POSTAL_SOURCE\SDL2\INCLUDE\SDL_CONFIG.H
C:\USERS\ADMINISTRATOR\DOCUMENTS\_POSTAL_SOURCE\SDL2\INCLUDE\SDL_PLATFORM.H
C:\USERS\ADMINISTRATOR\DOCUMENTS\_POSTAL_SOURCE\SDL2\INCLUDE\BEGIN_CODE.H
C:\USERS\ADMINISTRATOR\DOCUMENTS\_POSTAL_SOURCE\SDL2\INCLUDE\CLOSE_CODE.H
C:\USERS\ADMINISTRATOR\DOCUMENTS\_POSTAL_SOURCE\SDL2\INCLUDE\SDL_CONFIG_WINDOWS.H
C:\PROGRAM FILES (X86)\MICROSOFT VISUAL STUDIO 14.0\VC\INCLUDE\STDARG.H
C:\USERS\ADMINISTRATOR\DOCUMENTS\_POSTAL_SOURCE\SDL2\INCLUDE\SDL_ASSERT.H
C:\USERS\ADMINISTRATOR\DOCUMENTS\_POSTAL_SOURCE\SDL2\INCLUDE\SDL_ATOMIC.H
C:\PROGRAM FILES (X86)\MICROSOFT VISUAL STUDIO 14.0\VC\INCLUDE\INTRIN.H
C:\PROGRAM FILES (X86)\MICROSOFT VISUAL STUDIO 14.0\VC\INCLUDE\SETJMP.H
C:\PROGRAM FILES (X86)\MICROSOFT VISUAL STUDIO 14.0\VC\INCLUDE\IMMINTRIN.H
C:\PROGRAM FILES (X86)\MICROSOFT VISUAL STUDIO 14.0\VC\INCLUDE\WMMINTRIN.H
C:\PROGRAM FILES (X86)\MICROSOFT VISUAL STUDIO 14.0\VC\INCLUDE\NMMINTRIN.H
C:\PROGRAM FILES (X86)\MICROSOFT VISUAL STUDIO 14.0\VC\INCLUDE\SMMINTRIN.H
C:\PROGRAM FILES (X86)\MICROSOFT VISUAL STUDIO 14.0\VC\INCLUDE\TMMINTRIN.H
C:\PROGRAM FILES (X86)\MICROSOFT VISUAL STUDIO 14.0\VC\INCLUDE\PMMINTRIN.H
C:\PROGRAM FILES (X86)\MICROSOFT VISUAL STUDIO 14.0\VC\INCLUDE\EMMINTRIN.H
C:\PROGRAM FILES (X86)\MICROSOFT VISUAL STUDIO 14.0\VC\INCLUDE\XMMINTRIN.H
C:\PROGRAM FILES (X86)\MICROSOFT VISUAL STUDIO 14.0\VC\INCLUDE\MMINTRIN.H
C:\PROGRAM FILES (X86)\WINDOWS KITS\10\INCLUDE\10.0.10240.0\UCRT\MALLOC.H
C:\PROGRAM FILES (X86)\MICROSOFT VISUAL STUDIO 14.0\VC\INCLUDE\AMMINTRIN.H
C:\PROGRAM FILES (X86)\MICROSOFT VISUAL STUDIO 14.0\VC\INCLUDE\MM3DNOW.H
C:\USERS\ADMINISTRATOR\DOCUMENTS\_POSTAL_SOURCE\SDL2\INCLUDE\SDL_AUDIO.H
C:\USERS\ADMINISTRATOR\DOCUMENTS\_POSTAL_SOURCE\SDL2\INCLUDE\SDL_ERROR.H
C:\USERS\ADMINISTRATOR\DOCUMENTS\_POSTAL_SOURCE\SDL2\INCLUDE\SDL_ENDIAN.H
C:\USERS\ADMINISTRATOR\DOCUMENTS\_POSTAL_SOURCE\SDL2\INCLUDE\SDL_MUTEX.H
C:\USERS\ADMINISTRATOR\DOCUMENTS\_POSTAL_SOURCE\SDL2\INCLUDE\SDL_THREAD.H
C:\PROGRAM FILES (X86)\WINDOWS KITS\10\INCLUDE\10.0.10240.0\UCRT\PROCESS.H
C:\PROGRAM FILES (X86)\WINDOWS KITS\10\INCLUDE\10.0.10240.0\UCRT\CORECRT_STARTUP.H
C:\PROGRAM FILES (X86)\WINDOWS KITS\10\INCLUDE\10.0.10240.0\UCRT\MATH.H
C:\PROGRAM FILES (X86)\MICROSOFT VISUAL STUDIO 14.0\VC\INCLUDE\VCRUNTIME_STARTUP.H
C:\PROGRAM FILES (X86)\WINDOWS KITS\10\INCLUDE\10.0.10240.0\UCRT\CORECRT_WPROCESS.H
C:\USERS\ADMINISTRATOR\DOCUMENTS\_POSTAL_SOURCE\SDL2\INCLUDE\SDL_RWOPS.H
C:\USERS\ADMINISTRATOR\DOCUMENTS\_POSTAL_SOURCE\SDL2\INCLUDE\SDL_CLIPBOARD.H
C:\USERS\ADMINISTRATOR\DOCUMENTS\_POSTAL_SOURCE\SDL2\INCLUDE\SDL_CPUINFO.H
C:\USERS\ADMINISTRATOR\DOCUMENTS\_POSTAL_SOURCE\SDL2\INCLUDE\SDL_EVENTS.H
C:\USERS\ADMINISTRATOR\DOCUMENTS\_POSTAL_SOURCE\SDL2\INCLUDE\SDL_VIDEO.H
C:\USERS\ADMINISTRATOR\DOCUMENTS\_POSTAL_SOURCE\SDL2\INCLUDE\SDL_PIXELS.H
C:\USERS\ADMINISTRATOR\DOCUMENTS\_POSTAL_SOURCE\SDL2\INCLUDE\SDL_RECT.H
C:\USERS\ADMINISTRATOR\DOCUMENTS\_POSTAL_SOURCE\SDL2\INCLUDE\SDL_SURFACE.H
C:\USERS\ADMINISTRATOR\DOCUMENTS\_POSTAL_SOURCE\SDL2\INCLUDE\SDL_BLENDMODE.H
C:\USERS\ADMINISTRATOR\DOCUMENTS\_POSTAL_SOURCE\SDL2\INCLUDE\SDL_KEYBOARD.H
C:\USERS\ADMINISTRATOR\DOCUMENTS\_POSTAL_SOURCE\SDL2\INCLUDE\SDL_KEYCODE.H
C:\USERS\ADMINISTRATOR\DOCUMENTS\_POSTAL_SOURCE\SDL2\INCLUDE\SDL_SCANCODE.H
C:\USERS\ADMINISTRATOR\DOCUMENTS\_POSTAL_SOURCE\SDL2\INCLUDE\SDL_MOUSE.H
C:\USERS\ADMINISTRATOR\DOCUMENTS\_POSTAL_SOURCE\SDL2\INCLUDE\SDL_JOYSTICK.H
C:\USERS\ADMINISTRATOR\DOCUMENTS\_POSTAL_SOURCE\SDL2\INCLUDE\SDL_GAMECONTROLLER.H
C:\USERS\ADMINISTRATOR\DOCUMENTS\_POSTAL_SOURCE\SDL2\INCLUDE\SDL_QUIT.H
C:\USERS\ADMINISTRATOR\DOCUMENTS\_POSTAL_SOURCE\SDL2\INCLUDE\SDL_GESTURE.H
C:\USERS\ADMINISTRATOR\DOCUMENTS\_POSTAL_SOURCE\SDL2\INCLUDE\SDL_TOUCH.H
C:\USERS\ADMINISTRATOR\DOCUMENTS\_POSTAL_SOURCE\SDL2\INCLUDE\SDL_HAPTIC.H
C:\USERS\ADMINISTRATOR\DOCUMENTS\_POSTAL_SOURCE\SDL2\INCLUDE\SDL_HINTS.H
C:\USERS\ADMINISTRATOR\DOCUMENTS\_POSTAL_SOURCE\SDL2\INCLUDE\SDL_LOADSO.H
C:\USERS\ADMINISTRATOR\DOCUMENTS\_POSTAL_SOURCE\SDL2\INCLUDE\SDL_LOG.H
C:\USERS\ADMINISTRATOR\DOCUMENTS\_POSTAL_SOURCE\SDL2\INCLUDE\SDL_MESSAGEBOX.H
C:\USERS\ADMINISTRATOR\DOCUMENTS\_POSTAL_SOURCE\SDL2\INCLUDE\SDL_POWER.H
C:\USERS\ADMINISTRATOR\DOCUMENTS\_POSTAL_SOURCE\SDL2\INCLUDE\SDL_RENDER.H
C:\USERS\ADMINISTRATOR\DOCUMENTS\_POSTAL_SOURCE\SDL2\INCLUDE\SDL_SYSTEM.H
C:\USERS\ADMINISTRATOR\DOCUMENTS\_POSTAL_SOURCE\SDL2\INCLUDE\SDL_TIMER.H
C:\USERS\ADMINISTRATOR\DOCUMENTS\_POSTAL_SOURCE\SDL2\INCLUDE\SDL_VERSION.H
C:\PROGRAM FILES (X86)\WINDOWS KITS\10\INCLUDE\10.0.10240.0\UCRT\STDIO.H
C:\PROGRAM FILES (X86)\WINDOWS KITS\10\INCLUDE\10.0.10240.0\UCRT\CORECRT_WSTDIO.H
C:\PROGRAM FILES (X86)\WINDOWS KITS\10\INCLUDE\10.0.10240.0\UCRT\CORECRT_STDIO_CONFIG.H
C:\PROGRAM FILES (X86)\WINDOWS KITS\10\INCLUDE\10.0.10240.0\UCRT\STRING.H
C:\PROGRAM FILES (X86)\WINDOWS KITS\10\INCLUDE\10.0.10240.0\UCRT\CORECRT_MEMORY.H
C:\PROGRAM FILES (X86)\WINDOWS KITS\10\INCLUDE\10.0.10240.0\UCRT\CORECRT_MEMCPY_S.H
C:\PROGRAM FILES (X86)\WINDOWS KITS\10\INCLUDE\10.0.10240.0\UCRT\ERRNO.H
C:\PROGRAM FILES (X86)\MICROSOFT VISUAL STUDIO 14.0\VC\INCLUDE\VCRUNTIME_STRING.H
C:\PROGRAM FILES (X86)\WINDOWS KITS\10\INCLUDE\10.0.10240.0\UCRT\CORECRT_WSTRING.H
C:\PROGRAM FILES (X86)\MICROSOFT VISUAL STUDIO 14.0\VC\INCLUDE\MAP
C:\PROGRAM FILES (X86)\MICROSOFT VISUAL STUDIO 14.0\VC\INCLUDE\TUPLE
C:\PROGRAM FILES (X86)\MICROSOFT VISUAL STUDIO 14.0\VC\INCLUDE\NEW
C:\PROGRAM FILES (X86)\MICROSOFT VISUAL STUDIO 14.0\VC\INCLUDE\EXCEPTION
C:\PROGRAM FILES (X86)\MICROSOFT VISUAL STUDIO 14.0\VC\INCLUDE\TYPE_TRAITS
C:\PROGRAM FILES (X86)\MICROSOFT VISUAL STUDIO 14.0\VC\INCLUDE\XSTDDEF
C:\PROGRAM FILES (X86)\MICROSOFT VISUAL STUDIO 14.0\VC\INCLUDE\CSTDDEF
C:\PROGRAM FILES (X86)\MICROSOFT VISUAL STUDIO 14.0\VC\INCLUDE\YVALS.H
C:\PROGRAM FILES (X86)\MICROSOFT VISUAL STUDIO 14.0\VC\INCLUDE\XKEYCHECK.H
C:\PROGRAM FILES (X86)\MICROSOFT VISUAL STUDIO 14.0\VC\INCLUDE\CRTDEFS.H
C:\PROGRAM FILES (X86)\MICROSOFT VISUAL STUDIO 14.0\VC\INCLUDE\USE_ANSI.H
C:\PROGRAM FILES (X86)\MICROSOFT VISUAL STUDIO 14.0\VC\INCLUDE\CSTDLIB
C:\PROGRAM FILES (X86)\MICROSOFT VISUAL STUDIO 14.0\VC\INCLUDE\INITIALIZER_LIST
C:\PROGRAM FILES (X86)\MICROSOFT VISUAL STUDIO 14.0\VC\INCLUDE\XTR1COMMON
C:\PROGRAM FILES (X86)\MICROSOFT VISUAL STUDIO 14.0\VC\INCLUDE\VCRUNTIME_EXCEPTION.H
C:\PROGRAM FILES (X86)\MICROSOFT VISUAL STUDIO 14.0\VC\INCLUDE\EH.H
C:\PROGRAM FILES (X86)\WINDOWS KITS\10\INCLUDE\10.0.10240.0\UCRT\CORECRT_TERMINATE.H
C:\PROGRAM FILES (X86)\MICROSOFT VISUAL STUDIO 14.0\VC\INCLUDE\VCRUNTIME_NEW.H
C:\PROGRAM FILES (X86)\MICROSOFT VISUAL STUDIO 14.0\VC\INCLUDE\XUTILITY
C:\PROGRAM FILES (X86)\MICROSOFT VISUAL STUDIO 14.0\VC\INCLUDE\CLIMITS
C:\PROGRAM FILES (X86)\MICROSOFT VISUAL STUDIO 14.0\VC\INCLUDE\UTILITY
C:\PROGRAM FILES (X86)\MICROSOFT VISUAL STUDIO 14.0\VC\INCLUDE\IOSFWD
C:\PROGRAM FILES (X86)\MICROSOFT VISUAL STUDIO 14.0\VC\INCLUDE\CSTDIO
C:\PROGRAM FILES (X86)\MICROSOFT VISUAL STUDIO 14.0\VC\INCLUDE\CSTRING
C:\PROGRAM FILES (X86)\MICROSOFT VISUAL STUDIO 14.0\VC\INCLUDE\CWCHAR
C:\PROGRAM FILES (X86)\WINDOWS KITS\10\INCLUDE\10.0.10240.0\UCRT\WCHAR.H
C:\PROGRAM FILES (X86)\WINDOWS KITS\10\INCLUDE\10.0.10240.0\UCRT\CORECRT_WCONIO.H
C:\PROGRAM FILES (X86)\WINDOWS KITS\10\INCLUDE\10.0.10240.0\UCRT\CORECRT_WCTYPE.H
C:\PROGRAM FILES (X86)\WINDOWS KITS\10\INCLUDE\10.0.10240.0\UCRT\CORECRT_WDIRECT.H
C:\PROGRAM FILES (X86)\WINDOWS KITS\10\INCLUDE\10.0.10240.0\UCRT\CORECRT_WIO.H
C:\PROGRAM FILES (X86)\WINDOWS KITS\10\INCLUDE\10.0.10240.0\UCRT\CORECRT_SHARE.H
C:\PROGRAM FILES (X86)\WINDOWS KITS\10\INCLUDE\10.0.10240.0\UCRT\CORECRT_WTIME.H
C:\PROGRAM FILES (X86)\WINDOWS KITS\10\INCLUDE\10.0.10240.0\UCRT\SYS\STAT.H
C:\PROGRAM FILES (X86)\WINDOWS KITS\10\INCLUDE\10.0.10240.0\UCRT\SYS\TYPES.H
C:\PROGRAM FILES (X86)\WINDOWS KITS\10\INCLUDE\10.0.10240.0\UCRT\CRTDBG.H
C:\PROGRAM FILES (X86)\MICROSOFT VISUAL STUDIO 14.0\VC\INCLUDE\VCRUNTIME_NEW_DEBUG.H
C:\PROGRAM FILES (X86)\MICROSOFT VISUAL STUDIO 14.0\VC\INCLUDE\XTREE
C:\PROGRAM FILES (X86)\MICROSOFT VISUAL STUDIO 14.0\VC\INCLUDE\XMEMORY
C:\PROGRAM FILES (X86)\MICROSOFT VISUAL STUDIO 14.0\VC\INCLUDE\XMEMORY0
C:\PROGRAM FILES (X86)\MICROSOFT VISUAL STUDIO 14.0\VC\INCLUDE\CSTDINT
C:\PROGRAM FILES (X86)\MICROSOFT VISUAL STUDIO 14.0\VC\INCLUDE\STDINT.H
C:\PROGRAM FILES (X86)\MICROSOFT VISUAL STUDIO 14.0\VC\INCLUDE\LIMITS
C:\PROGRAM FILES (X86)\MICROSOFT VISUAL STUDIO 14.0\VC\INCLUDE\YMATH.H
C:\PROGRAM FILES (X86)\MICROSOFT VISUAL STUDIO 14.0\VC\INCLUDE\CFLOAT
C:\PROGRAM FILES (X86)\WINDOWS KITS\10\INCLUDE\10.0.10240.0\UCRT\FLOAT.H
C:\PROGRAM FILES (X86)\MICROSOFT VISUAL STUDIO 14.0\VC\INCLUDE\CMATH
C:\PROGRAM FILES (X86)\MICROSOFT VISUAL STUDIO 14.0\VC\INCLUDE\XTGMATH.H
C:\PROGRAM FILES (X86)\MICROSOFT VISUAL STUDIO 14.0\VC\INCLUDE\XATOMIC0.H
C:\PROGRAM FILES (X86)\MICROSOFT VISUAL STUDIO 14.0\VC\INCLUDE\STDEXCEPT
C:\PROGRAM FILES (X86)\MICROSOFT VISUAL STUDIO 14.0\VC\INCLUDE\XSTRING
C:\USERS\ADMINISTRATOR\DOCUMENTS\_POSTAL_SOURCE\RSPIX\SRC\GREEN\3D\ZBUFFER.H
C:\USERS\ADMINISTRATOR\DOCUMENTS\_POSTAL_SOURCE\RSPIX\SRC\BLUE\BLUE.H
C:\USERS\ADMINISTRATOR\DOCUMENTS\_POSTAL_SOURCE\RSPIX\SRC\BLUE\UNIX\UNIXBLUE.H
C:\USERS\ADMINISTRATOR\DOCUMENTS\_POSTAL_SOURCE\RSPIX\SRC\BLUE\UNIX\UNIXBLUEKEYS.H
C:\USERS\ADMINISTRATOR\DOCUMENTS\_POSTAL_SOURCE\RSPIX\SRC\ORANGE\QUICKMATH\FIXEDPOINT.H
C:\USERS\ADMINISTRATOR\DOCUMENTS\_POSTAL_SOURCE\RSPIX\SRC\ORANGE\QUICKMATH\QUICKMATH.H
C:\USERS\ADMINISTRATOR\DOCUMENTS\_POSTAL_SOURCE\RSPIX\SRC\ORANGE\COLOR\COLORMATCH.H
C:\USERS\ADMINISTRATOR\DOCUMENTS\_POSTAL_SOURCE\RSPIX\SRC\GREEN\IMAGE\IMAGE.H
C:\USERS\ADMINISTRATOR\DOCUMENTS\_POSTAL_SOURCE\RSPIX\SRC\GREEN\IMAGE\PAL.H
C:\USERS\ADMINISTRATOR\DOCUMENTS\_POSTAL_SOURCE\RSPIX\SRC\ORANGE\FILE\FILE.H
