^C:\USERS\ADMINISTRATOR\DOCUMENTS\_POSTAL_SOURCE\RSPIX\SRC\GREEN\3D\PIPELINE.CPP|C:\USERS\ADMINISTRATOR\DOCUMENTS\_POSTAL_SOURCE\RSPIX\SRC\GREEN\3D\RENDER.CPP|C:\USERS\ADMINISTRATOR\DOCUMENTS\_POSTAL_SOURCE\RSPIX\SRC\GREEN\3D\TYPES3D.CPP|C:\USERS\ADMINISTRATOR\DOCUMENTS\_POSTAL_SOURCE\RSPIX\SRC\GREEN\3D\ZBUFFER.CPP
C:\USERS\ADMINISTRATOR\DOCUMENTS\_POSTAL_SOURCE\BUILD\BLIT3D\DEBUG\BLIT3D.PDB
C:\USERS\ADMINISTRATOR\DOCUMENTS\_POSTAL_SOURCE\BUILD\BLIT3D\DEBUG\BLIT3D.IDB
C:\USERS\ADMINISTRATOR\DOCUMENTS\_POSTAL_SOURCE\BUILD\BLIT3D\DEBUG\ZBUFFER.OBJ
C:\USERS\ADMINISTRATOR\DOCUMENTS\_POSTAL_SOURCE\BUILD\BLIT3D\DEBUG\TYPES3D.OBJ
C:\USERS\ADMINISTRATOR\DOCUMENTS\_POSTAL_SOURCE\BUILD\BLIT3D\DEBUG\RENDER.OBJ
C:\USERS\ADMINISTRATOR\DOCUMENTS\_POSTAL_SOURCE\BUILD\BLIT3D\DEBUG\PIPELINE.OBJ
^C:\USERS\ADMINISTRATOR\DOCUMENTS\_POSTAL_SOURCE\RSPIX\SRC\GREEN\3D\PIPELINE.CPP
C:\USERS\ADMINISTRATOR\DOCUMENTS\_POSTAL_SOURCE\BUILD\BLIT3D\DEBUG\BLIT3D.PDB
^C:\USERS\ADMINISTRATOR\DOCUMENTS\_POSTAL_SOURCE\RSPIX\SRC\GREEN\3D\RENDER.CPP
C:\USERS\ADMINISTRATOR\DOCUMENTS\_POSTAL_SOURCE\BUILD\BLIT3D\DEBUG\BLIT3D.PDB
^C:\USERS\ADMINISTRATOR\DOCUMENTS\_POSTAL_SOURCE\RSPIX\SRC\GREEN\3D\TYPES3D.CPP
C:\USERS\ADMINISTRATOR\DOCUMENTS\_POSTAL_SOURCE\BUILD\BLIT3D\DEBUG\BLIT3D.PDB
^C:\USERS\ADMINISTRATOR\DOCUMENTS\_POSTAL_SOURCE\RSPIX\SRC\GREEN\3D\ZBUFFER.CPP
C:\USERS\ADMINISTRATOR\DOCUMENTS\_POSTAL_SOURCE\BUILD\BLIT3D\DEBUG\BLIT3D.PDB
