^C:\USERS\ADMINISTRATOR\DOCUMENTS\_POSTAL_SOURCE\RSPIX\SRC\CYAN\UNIX\UCOLORS.CPP|C:\USERS\ADMINISTRATOR\DOCUMENTS\_POSTAL_SOURCE\RSPIX\SRC\CYAN\UNIX\UDIALOG.CPP|C:\USERS\ADMINISTRATOR\DOCUMENTS\_POSTAL_SOURCE\RSPIX\SRC\CYAN\UNIX\UPATH.CPP
C:\USERS\ADMINISTRATOR\DOCUMENTS\_POSTAL_SOURCE\BUILD\CYAN\DEBUG\CYAN.PDB
C:\USERS\ADMINISTRATOR\DOCUMENTS\_POSTAL_SOURCE\BUILD\CYAN\DEBUG\CYAN.IDB
C:\USERS\ADMINISTRATOR\DOCUMENTS\_POSTAL_SOURCE\BUILD\CYAN\DEBUG\UPATH.OBJ
C:\USERS\ADMINISTRATOR\DOCUMENTS\_POSTAL_SOURCE\BUILD\CYAN\DEBUG\UDIALOG.OBJ
C:\USERS\ADMINISTRATOR\DOCUMENTS\_POSTAL_SOURCE\BUILD\CYAN\DEBUG\UCOLORS.OBJ
^C:\USERS\ADMINISTRATOR\DOCUMENTS\_POSTAL_SOURCE\RSPIX\SRC\CYAN\UNIX\UCOLORS.CPP
C:\USERS\ADMINISTRATOR\DOCUMENTS\_POSTAL_SOURCE\BUILD\CYAN\DEBUG\CYAN.PDB
^C:\USERS\ADMINISTRATOR\DOCUMENTS\_POSTAL_SOURCE\RSPIX\SRC\CYAN\UNIX\UDIALOG.CPP
C:\USERS\ADMINISTRATOR\DOCUMENTS\_POSTAL_SOURCE\BUILD\CYAN\DEBUG\CYAN.PDB
^C:\USERS\ADMINISTRATOR\DOCUMENTS\_POSTAL_SOURCE\RSPIX\SRC\CYAN\UNIX\UPATH.CPP
C:\USERS\ADMINISTRATOR\DOCUMENTS\_POSTAL_SOURCE\BUILD\CYAN\DEBUG\CYAN.PDB
